%YAML 1.1
%TAG !u! tag:unity3d.com,2011:
--- !u!74 &7400000
AnimationClip:
  m_ObjectHideFlags: 0
  m_CorrespondingSourceObject: {fileID: 0}
  m_PrefabInstance: {fileID: 0}
  m_PrefabAsset: {fileID: 0}
  m_Name: fail1
  serializedVersion: 6
  m_Legacy: 0
  m_Compressed: 0
  m_UseHighQualityCurve: 1
  m_RotationCurves:
  - curve:
      serializedVersion: 2
      m_Curve:
      - serializedVersion: 3
        time: 0
        value: {x: 0.09491169, y: 0.19688989, z: -0.00073483726, w: -0.97577107}
        inSlope: {x: 0.025273558, y: 0.49758744, z: -0.24519064, w: 0.10155325}
        outSlope: {x: 0.025273558, y: 0.49758744, z: -0.24519064, w: 0.10155325}
        tangentMode: 0
        weightedMode: 0
        inWeight: {x: 0.33333334, y: 0.33333334, z: 0.33333334, w: 0.33333334}
        outWeight: {x: 0.33333334, y: 0.33333334, z: 0.33333334, w: 0.33333334}
      - serializedVersion: 3
        time: 0.041666985
        value: {x: 0.093895435, y: 0.21666232, z: -0.0078105372, w: -0.9716893}
        inSlope: {x: -0.073497646, y: 0.44713664, z: -0.08653496, w: 0.0927926}
        outSlope: {x: -0.073497646, y: 0.44713664, z: -0.08653496, w: 0.0927926}
        tangentMode: 0
        weightedMode: 0
        inWeight: {x: 0.33333334, y: 0.33333334, z: 0.33333334, w: 0.33333334}
        outWeight: {x: 0.33333334, y: 0.33333334, z: 0.33333334, w: 0.33333334}
      - serializedVersion: 3
        time: 0.16666698
        value: {x: 0.09117519, y: 0.24423209, z: -0.0034880738, w: -0.96541476}
        inSlope: {x: 0, y: 0, z: 0, w: 0}
        outSlope: {x: 0, y: 0, z: 0, w: 0}
        tangentMode: 0
        weightedMode: 0
        inWeight: {x: 0.33333334, y: 0.33333334, z: 0.33333334, w: 0.33333334}
        outWeight: {x: 0.33333334, y: 0.33333334, z: 0.33333334, w: 0.33333334}
      - serializedVersion: 3
        time: 0.20833302
        value: {x: 0.09117519, y: 0.24423209, z: -0.0034880738, w: -0.96541476}
        inSlope: {x: -0.054331843, y: 0.041315537, z: 0.20733592, w: 0.00663037}
        outSlope: {x: -0.054331843, y: 0.041315537, z: 0.20733592, w: 0.00663037}
        tangentMode: 0
        weightedMode: 0
        inWeight: {x: 0.33333334, y: 0.33333334, z: 0.33333334, w: 0.33333334}
        outWeight: {x: 0.33333334, y: 0.33333334, z: 0.33333334, w: 0.33333334}
      - serializedVersion: 3
        time: 0.25
        value: {x: 0.0866475, y: 0.24767508, z: 0.013790051, w: -0.9648622}
        inSlope: {x: -0.053292137, y: 0.040555943, z: 0.20317423, w: 0.006470154}
        outSlope: {x: -0.053292137, y: 0.040555943, z: 0.20317423, w: 0.006470154}
        tangentMode: 0
        weightedMode: 0
        inWeight: {x: 0.33333334, y: 0.33333334, z: 0.33333334, w: 0.33333334}
        outWeight: {x: 0.33333334, y: 0.33333334, z: 0.33333334, w: 0.33333334}
      - serializedVersion: 3
        time: 0.375
        value: {x: 0.08815329, y: 0.24656202, z: 0.007861492, w: -0.9650774}
        inSlope: {x: 0.022504903, y: -0.016912093, z: -0.08704682, w: -0.0029496923}
        outSlope: {x: 0.022504903, y: -0.016912093, z: -0.08704682, w: -0.0029496923}
        tangentMode: 0
        weightedMode: 0
        inWeight: {x: 0.33333334, y: 0.33333334, z: 0.33333334, w: 0.33333334}
        outWeight: {x: 0.33333334, y: 0.33333334, z: 0.33333334, w: 0.33333334}
      - serializedVersion: 3
        time: 0.541667
        value: {x: 0.09117519, y: 0.24423209, z: -0.0034880738, w: -0.96541476}
        inSlope: {x: 0.039775897, y: -0.15422752, z: 0.07406887, w: -0.034113917}
        outSlope: {x: 0.039775897, y: -0.15422752, z: 0.07406887, w: -0.034113917}
        tangentMode: 0
        weightedMode: 0
        inWeight: {x: 0.33333334, y: 0.33333334, z: 0.33333334, w: 0.33333334}
        outWeight: {x: 0.33333334, y: 0.33333334, z: 0.33333334, w: 0.33333334}
      - serializedVersion: 3
        time: 0.666667
        value: {x: 0.115633875, y: 0.14242855, z: 0.053775586, w: -0.98155546}
        inSlope: {x: 0.35288656, y: -1.4713964, z: 0.8054899, w: -0.11350383}
        outSlope: {x: 0.35288656, y: -1.4713964, z: 0.8054899, w: -0.11350383}
        tangentMode: 0
        weightedMode: 0
        inWeight: {x: 0.33333334, y: 0.33333334, z: 0.33333334, w: 0.33333334}
        outWeight: {x: 0.33333334, y: 0.33333334, z: 0.33333334, w: 0.33333334}
      - serializedVersion: 3
        time: 0.791667
        value: {x: 0.16956002, y: -0.08868984, z: 0.17384039, w: -0.96600366}
        inSlope: {x: 0.44288558, y: -2.0044758, z: 0.9801361, w: 0.43847114}
        outSlope: {x: 0.44288558, y: -2.0044758, z: 0.9801361, w: 0.43847114}
        tangentMode: 0
        weightedMode: 0
        inWeight: {x: 0.33333334, y: 0.33333334, z: 0.33333334, w: 0.33333334}
        outWeight: {x: 0.33333334, y: 0.33333334, z: 0.33333334, w: 0.33333334}
      - serializedVersion: 3
        time: 0.916667
        value: {x: 0.2151887, y: -0.31690452, z: 0.2779114, w: -0.880926}
        inSlope: {x: 0.25057924, y: -1.4407029, z: 0.60846025, w: 0.75564885}
        outSlope: {x: 0.25057924, y: -1.4407029, z: 0.60846025, w: 0.75564885}
        tangentMode: 0
        weightedMode: 0
        inWeight: {x: 0.33333334, y: 0.33333334, z: 0.33333334, w: 0.33333334}
        outWeight: {x: 0.33333334, y: 0.33333334, z: 0.33333334, w: 0.33333334}
      - serializedVersion: 3
        time: 1.041667
        value: {x: 0.23446657, y: -0.42739904, z: 0.32111734, w: -0.8119354}
        inSlope: {x: 0.08812533, y: -0.41883945, z: 0.1454638, w: 0.29966602}
        outSlope: {x: 0.08812533, y: -0.41883945, z: 0.1454638, w: 0.29966602}
        tangentMode: 0
        weightedMode: 0
        inWeight: {x: 0.33333334, y: 0.33333334, z: 0.33333334, w: 0.33333334}
        outWeight: {x: 0.33333334, y: 0.33333334, z: 0.33333334, w: 0.33333334}
      - serializedVersion: 3
        time: 1.125
        value: {x: 0.23793982, y: -0.4489257, z: 0.32883242, w: -0.79606515}
        inSlope: {x: 0.0008463203, y: -0.080065474, z: 0.033178315, w: 0.058217794}
        outSlope: {x: 0.0008463203, y: -0.080065474, z: 0.033178315, w: 0.058217794}
        tangentMode: 0
        weightedMode: 0
        inWeight: {x: 0.33333334, y: 0.33333334, z: 0.33333334, w: 0.33333334}
        outWeight: {x: 0.33333334, y: 0.33333334, z: 0.33333334, w: 0.33333334}
      - serializedVersion: 3
        time: 1.166667
        value: {x: 0.23734461, y: -0.44704565, z: 0.32826287, w: -0.79753447}
        inSlope: {x: 1.1854199, y: -1.031017, z: -0.64729327, w: 0.8580078}
        outSlope: {x: 1.1854199, y: -1.031017, z: -0.64729327, w: 0.8580078}
        tangentMode: 0
        weightedMode: 0
        inWeight: {x: 0.33333334, y: 0.33333334, z: 0.33333334, w: 0.33333334}
        outWeight: {x: 0.33333334, y: 0.33333334, z: 0.33333334, w: 0.33333334}
      - serializedVersion: 3
        time: 1.208333
        value: {x: 0.3367233, y: -0.53484243, z: 0.27489212, w: -0.7245656}
        inSlope: {x: 3.7774038, y: -2.7913408, z: -1.973517, w: 4.1187963}
        outSlope: {x: 3.7774038, y: -2.7913408, z: -1.973517, w: 4.1187963}
        tangentMode: 0
        weightedMode: 0
        inWeight: {x: 0.33333334, y: 0.33333334, z: 0.33333334, w: 0.33333334}
        outWeight: {x: 0.33333334, y: 0.33333334, z: 0.33333334, w: 0.33333334}
      - serializedVersion: 3
        time: 1.25
        value: {x: 0.5521284, y: -0.67965716, z: 0.16380309, w: -0.4543005}
        inSlope: {x: 4.383755, y: -2.073236, z: -2.3385668, w: 8.637335}
        outSlope: {x: 4.383755, y: -2.073236, z: -2.3385668, w: 8.637335}
        tangentMode: 0
        weightedMode: 0
        inWeight: {x: 0.33333334, y: 0.33333334, z: 0.33333334, w: 0.33333334}
        outWeight: {x: 0.33333334, y: 0.33333334, z: 0.33333334, w: 0.33333334}
      - serializedVersion: 3
        time: 1.291667
        value: {x: 0.702039, y: -0.7076134, z: 0.08001007, w: -0.004782213}
        inSlope: {x: 1.5965985, y: 0.93847615, z: -1.2287678, w: 10.326254}
        outSlope: {x: 1.5965985, y: 0.93847615, z: -1.2287678, w: 10.326254}
        tangentMode: 0
        weightedMode: 0
        inWeight: {x: 0.33333334, y: 0.33333334, z: 0.33333334, w: 0.33333334}
        outWeight: {x: 0.33333334, y: 0.33333334, z: 0.33333334, w: 0.33333334}
      - serializedVersion: 3
        time: 1.333333
        value: {x: 0.68517965, y: -0.60145265, z: 0.061405424, w: 0.4062178}
        inSlope: {x: -3.99374, y: 4.8366203, z: -1.3024373, w: 10.58807}
        outSlope: {x: -3.99374, y: 4.8366203, z: -1.3024373, w: 10.58807}
        tangentMode: 0
        weightedMode: 0
        inWeight: {x: 0.33333334, y: 0.33333334, z: 0.33333334, w: 0.33333334}
        outWeight: {x: 0.33333334, y: 0.33333334, z: 0.33333334, w: 0.33333334}
      - serializedVersion: 3
        time: 1.375
        value: {x: 0.36922517, y: -0.30456108, z: -0.028526774, w: 0.8775543}
        inSlope: {x: -3.7241766, y: 3.6613598, z: -1.0717733, w: 5.661511}
        outSlope: {x: -3.7241766, y: 3.6613598, z: -1.0717733, w: 5.661511}
        tangentMode: 0
        weightedMode: 0
        inWeight: {x: 0.33333334, y: 0.33333334, z: 0.33333334, w: 0.33333334}
        outWeight: {x: 0.33333334, y: 0.33333334, z: 0.33333334, w: 0.33333334}
      - serializedVersion: 3
        time: 1.416667
        value: {x: 0.37482923, y: -0.296337, z: -0.027909698, w: 0.87801397}
        inSlope: {x: 0.18540058, y: 0.19893378, z: 0.09680261, w: -0.009778537}
        outSlope: {x: 0.18540058, y: 0.19893378, z: 0.09680261, w: -0.009778537}
        tangentMode: 0
        weightedMode: 0
        inWeight: {x: 0.33333334, y: 0.33333334, z: 0.33333334, w: 0.33333334}
        outWeight: {x: 0.33333334, y: 0.33333334, z: 0.33333334, w: 0.33333334}
      - serializedVersion: 3
        time: 1.541667
        value: {x: 0.40426072, y: -0.27495518, z: -0.0012687198, w: 0.8723367}
        inSlope: {x: 0.14786181, y: 0.09195281, z: 0.15413132, w: -0.038222533}
        outSlope: {x: 0.14786181, y: 0.09195281, z: 0.15413132, w: -0.038222533}
        tangentMode: 0
        weightedMode: 0
        inWeight: {x: 0.33333334, y: 0.33333334, z: 0.33333334, w: 0.33333334}
        outWeight: {x: 0.33333334, y: 0.33333334, z: 0.33333334, w: 0.33333334}
      - serializedVersion: 3
        time: 1.625
        value: {x: 0.38785717, y: -0.24663626, z: 0.0038072737, w: 0.88810074}
        inSlope: {x: -0.8978061, y: 1.0574155, z: 0.14206858, w: 0.63840806}
        outSlope: {x: -0.8978061, y: 1.0574155, z: 0.14206858, w: 0.63840806}
        tangentMode: 0
        weightedMode: 0
        inWeight: {x: 0.33333334, y: 0.33333334, z: 0.33333334, w: 0.33333334}
        outWeight: {x: 0.33333334, y: 0.33333334, z: 0.33333334, w: 0.33333334}
      - serializedVersion: 3
        time: 1.666667
        value: {x: 0.33302885, y: -0.18468691, z: 0.014430177, w: 0.92454004}
        inSlope: {x: -1.5929506, y: 1.5927141, z: 0.4461071, w: 0.8544325}
        outSlope: {x: -1.5929506, y: 1.5927141, z: 0.4461071, w: 0.8544325}
        tangentMode: 0
        weightedMode: 0
        inWeight: {x: 0.33333334, y: 0.33333334, z: 0.33333334, w: 0.33333334}
        outWeight: {x: 0.33333334, y: 0.33333334, z: 0.33333334, w: 0.33333334}
      - serializedVersion: 3
        time: 1.708333
        value: {x: 0.25511205, y: -0.1139107, z: 0.04098254, w: 0.9593032}
        inSlope: {x: -1.8303232, y: 1.501723, z: 0.71587425, w: 0.6531783}
        outSlope: {x: -1.8303232, y: 1.501723, z: 0.71587425, w: 0.6531783}
        tangentMode: 0
        weightedMode: 0
        inWeight: {x: 0.33333334, y: 0.33333334, z: 0.33333334, w: 0.33333334}
        outWeight: {x: 0.33333334, y: 0.33333334, z: 0.33333334, w: 0.33333334}
      - serializedVersion: 3
        time: 1.75
        value: {x: 0.18050253, y: -0.059543997, z: 0.07408621, w: 0.9789712}
        inSlope: {x: -1.2971532, y: 0.90424037, z: 0.59614, w: 0.29894745}
        outSlope: {x: -1.2971532, y: 0.90424037, z: 0.59614, w: 0.29894745}
        tangentMode: 0
        weightedMode: 0
        inWeight: {x: 0.33333334, y: 0.33333334, z: 0.33333334, w: 0.33333334}
        outWeight: {x: 0.33333334, y: 0.33333334, z: 0.33333334, w: 0.33333334}
      - serializedVersion: 3
        time: 1.791667
        value: {x: 0.14701512, y: -0.03855676, z: 0.09066126, w: 0.9842157}
        inSlope: {x: -0.8036917, y: 0.5036899, z: 0.39779806, w: 0.12586689}
        outSlope: {x: -0.8036917, y: 0.5036899, z: 0.39779806, w: 0.12586689}
        tangentMode: 0
        weightedMode: 0
        inWeight: {x: 0.33333334, y: 0.33333334, z: 0.33333334, w: 0.33333334}
        outWeight: {x: 0.33333334, y: 0.33333334, z: 0.33333334, w: 0.33333334}
      m_PreInfinity: 2
      m_PostInfinity: 2
      m_RotationOrder: 4
    path: gloves1
  - curve:
      serializedVersion: 2
      m_Curve:
      - serializedVersion: 3
        time: 0
        value: {x: 0.84831583, y: 0.017548108, z: 0.4980775, w: -0.17883974}
        inSlope: {x: -0.0023026466, y: -0.009789047, z: 0.0044124126, w: 0.00014555454}
        outSlope: {x: -0.0023026466, y: -0.009789047, z: 0.0044124126, w: 0.00014555454}
        tangentMode: 0
        weightedMode: 0
        inWeight: {x: 0.33333334, y: 0.33333334, z: 0.33333334, w: 0.33333334}
        outWeight: {x: 0.33333334, y: 0.33333334, z: 0.33333334, w: 0.33333334}
      - serializedVersion: 3
        time: 0.5
        value: {x: 0.8493289, y: 0.021856327, z: 0.4961401, w: -0.17890753}
        inSlope: {x: 0.010144395, y: 0.04313308, z: -0.019419044, w: -0.00066053367}
        outSlope: {x: 0.010144395, y: 0.04313308, z: -0.019419044, w: -0.00066053367}
        tangentMode: 0
        weightedMode: 0
        inWeight: {x: 0.33333334, y: 0.33333334, z: 0.33333334, w: 0.33333334}
        outWeight: {x: 0.33333334, y: 0.33333334, z: 0.33333334, w: 0.33333334}
      - serializedVersion: 3
        time: 0.625
        value: {x: 0.8724024, y: -0.012000737, z: 0.46173638, w: -0.15990502}
        inSlope: {x: 0.4643541, y: -0.767805, z: -0.77572143, w: 0.4363211}
        outSlope: {x: 0.4643541, y: -0.767805, z: -0.77572143, w: 0.4363211}
        tangentMode: 0
        weightedMode: 0
        inWeight: {x: 0.33333334, y: 0.33333334, z: 0.33333334, w: 0.33333334}
        outWeight: {x: 0.33333334, y: 0.33333334, z: 0.33333334, w: 0.33333334}
      - serializedVersion: 3
        time: 0.75
        value: {x: 0.9366764, y: -0.15046419, z: 0.30764464, w: -0.07316216}
        inSlope: {x: 0.37542772, y: -1.2776463, z: -1.5792425, w: 0.8806297}
        outSlope: {x: 0.37542772, y: -1.2776463, z: -1.5792425, w: 0.8806297}
        tangentMode: 0
        weightedMode: 0
        inWeight: {x: 0.33333334, y: 0.33333334, z: 0.33333334, w: 0.33333334}
        outWeight: {x: 0.33333334, y: 0.33333334, z: 0.33333334, w: 0.33333334}
      - serializedVersion: 3
        time: 0.875
        value: {x: 0.94756144, y: -0.30184132, z: 0.096540876, w: 0.04122021}
        inSlope: {x: -0.18459894, y: -1.0120698, z: -1.5938148, w: 0.8300493}
        outSlope: {x: -0.18459894, y: -1.0120698, z: -1.5938148, w: 0.8300493}
        tangentMode: 0
        weightedMode: 0
        inWeight: {x: 0.33333334, y: 0.33333334, z: 0.33333334, w: 0.33333334}
        outWeight: {x: 0.33333334, y: 0.33333334, z: 0.33333334, w: 0.33333334}
      - serializedVersion: 3
        time: 1
        value: {x: 0.9128636, y: -0.38767147, z: -0.05291477, w: 0.1165799}
        inSlope: {x: -0.22480173, y: -0.34741136, z: -0.69268024, w: 0.35462326}
        outSlope: {x: -0.22480173, y: -0.34741136, z: -0.69268024, w: 0.35462326}
        tangentMode: 0
        weightedMode: 0
        inWeight: {x: 0.33333334, y: 0.33333334, z: 0.33333334, w: 0.33333334}
        outWeight: {x: 0.33333334, y: 0.33333334, z: 0.33333334, w: 0.33333334}
      - serializedVersion: 3
        time: 1.125
        value: {x: 0.8967696, y: -0.40863252, z: -0.09719297, w: 0.13920228}
        inSlope: {x: -0.034033753, y: -0.046737313, z: -0.08151055, w: 0.030243285}
        outSlope: {x: -0.034033753, y: -0.046737313, z: -0.08151055, w: 0.030243285}
        tangentMode: 0
        weightedMode: 0
        inWeight: {x: 0.33333334, y: 0.33333334, z: 0.33333334, w: 0.33333334}
        outWeight: {x: 0.33333334, y: 0.33333334, z: 0.33333334, w: 0.33333334}
      - serializedVersion: 3
        time: 1.166667
        value: {x: 0.89750266, y: -0.40789354, z: -0.09523783, w: 0.13799144}
        inSlope: {x: -0.1651009, y: 0.7212089, z: -1.2703156, w: 1.2092482}
        outSlope: {x: -0.1651009, y: 0.7212089, z: -1.2703156, w: 1.2092482}
        tangentMode: 0
        weightedMode: 0
        inWeight: {x: 0.33333334, y: 0.33333334, z: 0.33333334, w: 0.33333334}
        outWeight: {x: 0.33333334, y: 0.33333334, z: 0.33333334, w: 0.33333334}
      - serializedVersion: 3
        time: 1.208333
        value: {x: 0.8830114, y: -0.34853268, z: -0.20305096, w: 0.2399714}
        inSlope: {x: -1.9484465, y: 2.4378722, z: -3.9473627, w: 4.1950316}
        outSlope: {x: -1.9484465, y: 2.4378722, z: -3.9473627, w: 4.1950316}
        tangentMode: 0
        weightedMode: 0
        inWeight: {x: 0.33333334, y: 0.33333334, z: 0.33333334, w: 0.33333334}
        outWeight: {x: 0.33333334, y: 0.33333334, z: 0.33333334, w: 0.33333334}
      - serializedVersion: 3
        time: 1.25
        value: {x: 0.7351312, y: -0.20473734, z: -0.42418477, w: 0.48757774}
        inSlope: {x: -6.1451826, y: 3.4393897, z: -4.570401, w: 5.7538786}
        outSlope: {x: -6.1451826, y: 3.4393897, z: -4.570401, w: 5.7538786}
        tangentMode: 0
        weightedMode: 0
        inWeight: {x: 0.33333334, y: 0.33333334, z: 0.33333334, w: 0.33333334}
        outWeight: {x: 0.33333334, y: 0.33333334, z: 0.33333334, w: 0.33333334}
      - serializedVersion: 3
        time: 1.291667
        value: {x: 0.37090898, y: -0.061914682, z: -0.58392066, w: 0.71946496}
        inSlope: {x: -9.317476, y: 2.532652, z: -2.159526, w: 3.6983771}
        outSlope: {x: -9.317476, y: 2.532652, z: -2.159526, w: 3.6983771}
        tangentMode: 0
        weightedMode: 0
        inWeight: {x: 0.33333334, y: 0.33333334, z: 0.33333334, w: 0.33333334}
        outWeight: {x: 0.33333334, y: 0.33333334, z: 0.33333334, w: 0.33333334}
      - serializedVersion: 3
        time: 1.333333
        value: {x: -0.041321646, y: 0.0063170306, z: -0.6041462, w: 0.7957764}
        inSlope: {x: -12.041914, y: 2.0788734, z: 0.96573114, w: -1.698491}
        outSlope: {x: -12.041914, y: 2.0788734, z: 0.96573114, w: -1.698491}
        tangentMode: 0
        weightedMode: 0
        inWeight: {x: 0.33333334, y: 0.33333334, z: 0.33333334, w: 0.33333334}
        outWeight: {x: 0.33333334, y: 0.33333334, z: 0.33333334, w: 0.33333334}
      - serializedVersion: 3
        time: 1.375
        value: {x: -0.63258207, y: 0.11132451, z: -0.503442, w: 0.5779212}
        inSlope: {x: -7.110622, y: 1.2970971, z: 1.3047918, w: -2.5554955}
        outSlope: {x: -7.110622, y: 1.2970971, z: 1.3047918, w: -2.5554955}
        tangentMode: 0
        weightedMode: 0
        inWeight: {x: 0.33333334, y: 0.33333334, z: 0.33333334, w: 0.33333334}
        outWeight: {x: 0.33333334, y: 0.33333334, z: 0.33333334, w: 0.33333334}
      - serializedVersion: 3
        time: 1.416667
        value: {x: -0.633878, y: 0.114409275, z: -0.4954127, w: 0.58281684}
        inSlope: {x: -0.0050673084, y: 0.01106522, z: 0.22422317, w: 0.1816349}
        outSlope: {x: -0.0050673084, y: 0.01106522, z: 0.22422317, w: 0.1816349}
        tangentMode: 0
        weightedMode: 0
        inWeight: {x: 0.33333334, y: 0.33333334, z: 0.33333334, w: 0.33333334}
        outWeight: {x: 0.33333334, y: 0.33333334, z: 0.33333334, w: 0.33333334}
      - serializedVersion: 3
        time: 1.541667
        value: {x: -0.6288617, y: 0.10285876, z: -0.46525836, w: 0.61440027}
        inSlope: {x: 0.036994442, y: -0.08140446, z: 0.14499757, w: 0.16284356}
        outSlope: {x: 0.036994442, y: -0.08140446, z: 0.14499757, w: 0.16284356}
        tangentMode: 0
        weightedMode: 0
        inWeight: {x: 0.33333334, y: 0.33333334, z: 0.33333334, w: 0.33333334}
        outWeight: {x: 0.33333334, y: 0.33333334, z: 0.33333334, w: 0.33333334}
      - serializedVersion: 3
        time: 1.625
        value: {x: -0.65571755, y: 0.101967484, z: -0.4432337, w: 0.60264504}
        inSlope: {x: -1.1180092, y: -0.06401722, z: 0.77680326, w: -0.70318544}
        outSlope: {x: -1.1180092, y: -0.06401722, z: 0.77680326, w: -0.70318544}
        tangentMode: 0
        weightedMode: 0
        inWeight: {x: 0.33333334, y: 0.33333334, z: 0.33333334, w: 0.33333334}
        outWeight: {x: 0.33333334, y: 0.33333334, z: 0.33333334, w: 0.33333334}
      - serializedVersion: 3
        time: 1.666667
        value: {x: -0.7210538, y: 0.09541181, z: -0.39703166, w: 0.5597713}
        inSlope: {x: -1.6621895, y: -0.38449132, z: 1.2415578, w: -1.2454402}
        outSlope: {x: -1.6621895, y: -0.38449132, z: 1.2415578, w: -1.2454402}
        tangentMode: 0
        weightedMode: 0
        inWeight: {x: 0.33333334, y: 0.33333334, z: 0.33333334, w: 0.33333334}
        outWeight: {x: 0.33333334, y: 0.33333334, z: 0.33333334, w: 0.33333334}
      - serializedVersion: 3
        time: 1.708333
        value: {x: -0.7942327, y: 0.06992688, z: -0.33977106, w: 0.49885896}
        inSlope: {x: -1.5302445, y: -0.73616666, z: 1.2644541, w: -1.4359446}
        outSlope: {x: -1.5302445, y: -0.73616666, z: 1.2644541, w: -1.4359446}
        tangentMode: 0
        weightedMode: 0
        inWeight: {x: 0.33333334, y: 0.33333334, z: 0.33333334, w: 0.33333334}
        outWeight: {x: 0.33333334, y: 0.33333334, z: 0.33333334, w: 0.33333334}
      - serializedVersion: 3
        time: 1.75
        value: {x: -0.84857345, y: 0.034064703, z: -0.291661, w: 0.44010973}
        inSlope: {x: -0.8952073, y: -0.65595806, z: 0.8155341, w: -1.023834}
        outSlope: {x: -0.8952073, y: -0.65595806, z: 0.8155341, w: -1.023834}
        tangentMode: 0
        weightedMode: 0
        inWeight: {x: 0.33333334, y: 0.33333334, z: 0.33333334, w: 0.33333334}
        outWeight: {x: 0.33333334, y: 0.33333334, z: 0.33333334, w: 0.33333334}
      - serializedVersion: 3
        time: 1.833333
        value: {x: -0.8688339, y: 0.01526329, z: -0.27180937, w: 0.4135388}
        inSlope: {x: 0, y: 0, z: 0, w: 0}
        outSlope: {x: 0, y: 0, z: 0, w: 0}
        tangentMode: 0
        weightedMode: 0
        inWeight: {x: 0.33333334, y: 0.33333334, z: 0.33333334, w: 0.33333334}
        outWeight: {x: 0.33333334, y: 0.33333334, z: 0.33333334, w: 0.33333334}
      - serializedVersion: 3
        time: 2.625
        value: {x: -0.8688339, y: 0.01526329, z: -0.27180937, w: 0.4135388}
        inSlope: {x: 0, y: 0, z: 0, w: 0}
        outSlope: {x: 0, y: 0, z: 0, w: 0}
        tangentMode: 0
        weightedMode: 0
        inWeight: {x: 0.33333334, y: 0.33333334, z: 0.33333334, w: 0.33333334}
        outWeight: {x: 0.33333334, y: 0.33333334, z: 0.33333334, w: 0.33333334}
      m_PreInfinity: 2
      m_PostInfinity: 2
      m_RotationOrder: 4
    path: ball
  m_CompressedRotationCurves: []
  m_EulerCurves: []
  m_PositionCurves:
  - curve:
      serializedVersion: 2
      m_Curve:
      - serializedVersion: 3
        time: 0
        value: {x: -0.55845803, y: 1.4281166, z: -3.1672173}
        inSlope: {x: 0.01630762, y: -0.5183999, z: -0.17551056}
        outSlope: {x: 0.01630762, y: -0.5183999, z: -0.17551056}
        tangentMode: 0
        weightedMode: 0
        inWeight: {x: 0.33333334, y: 0.33333334, z: 0.33333334}
        outWeight: {x: 0.33333334, y: 0.33333334, z: 0.33333334}
      - serializedVersion: 3
        time: 0.125
        value: {x: -0.557374, y: 1.3901947, z: -3.1797369}
        inSlope: {x: 0.00000008874158, y: 0.000009427918, z: 0.000020596499}
        outSlope: {x: -3.5526866e-15, y: 1.218064e-14, z: -2.8421493e-14}
        tangentMode: 0
        weightedMode: 0
        inWeight: {x: 0.33333334, y: 0.33333334, z: 0.33333334}
        outWeight: {x: 0.33333334, y: 0.33333334, z: 0.33333334}
      - serializedVersion: 3
        time: 0.54166603
        value: {x: -0.557374, y: 1.3901947, z: -3.1797369}
        inSlope: {x: 0.0000037056818, y: 0.000012904784, z: 0.000008370185}
        outSlope: {x: -0.000011310493, y: -0.0000012241801, z: -0.000020592435}
        tangentMode: 0
        weightedMode: 0
        inWeight: {x: 0.33333334, y: 0.33333334, z: 0.33333334}
        outWeight: {x: 0.33333334, y: 0.33333334, z: 0.33333334}
      - serializedVersion: 3
        time: 0.833333
        value: {x: -0.34686795, y: 1.4005212, z: -3.0826786}
        inSlope: {x: 0.91306144, y: -0.081685856, z: 0.17974503}
        outSlope: {x: 0.91306114, y: -0.08168776, z: 0.1796903}
        tangentMode: 0
        weightedMode: 0
        inWeight: {x: 0.33333334, y: 0.33333334, z: 0.33333334}
        outWeight: {x: 0.33333334, y: 0.33333334, z: 0.33333334}
      - serializedVersion: 3
        time: 1
        value: {x: -0.2449395, y: 1.382282, z: -3.0754943}
        inSlope: {x: 0.28776488, y: -0.061634216, z: -0.0057686483}
        outSlope: {x: 0.28781718, y: -0.06161767, z: -0.0058081937}
        tangentMode: 0
        weightedMode: 0
        inWeight: {x: 0.33333334, y: 0.33333334, z: 0.33333334}
        outWeight: {x: 0.33333334, y: 0.33333334, z: 0.33333334}
      - serializedVersion: 3
        time: 1.166666
        value: {x: -0.22766402, y: 1.3774916, z: -3.0781777}
        inSlope: {x: -0.0000009131551, y: -0.000008018914, z: 0.000020934272}
        outSlope: {x: -0.00015993403, y: 0.000006966969, z: -0.0003408351}
        tangentMode: 0
        weightedMode: 0
        inWeight: {x: 0.33333334, y: 0.33333334, z: 0.33333334}
        outWeight: {x: 0.33333334, y: 0.33333334, z: 0.33333334}
      - serializedVersion: 3
        time: 1.208333
        value: {x: -0.13370433, y: 1.3794546, z: -2.9485104}
        inSlope: {x: 5.439234, y: 0.000006966969, z: 4.0444803}
        outSlope: {x: 5.438673, y: -0.00026846462, z: 4.0443015}
        tangentMode: 0
        weightedMode: 0
        inWeight: {x: 0.33333334, y: 0.33333334, z: 0.33333334}
        outWeight: {x: 0.33333334, y: 0.33333334, z: 0.33333334}
      - serializedVersion: 3
        time: 1.25
        value: {x: 0.22562306, y: 1.5259738, z: -2.741112}
        inSlope: {x: 10.085999, y: 6.4983044, z: -0.00062402093}
        outSlope: {x: 10.087805, y: 6.4992948, z: -0.00010214364}
        tangentMode: 0
        weightedMode: 0
        inWeight: {x: 0.33333334, y: 0.33333334, z: 0.33333334}
        outWeight: {x: 0.33333334, y: 0.33333334, z: 0.33333334}
      - serializedVersion: 3
        time: 1.291666
        value: {x: 0.7068957, y: 1.9210258, z: -2.8896987}
        inSlope: {x: 8.227346, y: 8.416456, z: -8.076187}
        outSlope: {x: 8.2259865, y: 8.415011, z: -8.074527}
        tangentMode: 0
        weightedMode: 0
        inWeight: {x: 0.33333334, y: 0.33333334, z: 0.33333334}
        outWeight: {x: 0.33333334, y: 0.33333334, z: 0.33333334}
      - serializedVersion: 3
        time: 1.333333
        value: {x: 0.911188, y: 2.2273042, z: -3.414104}
        inSlope: {x: -0.00041697535, y: 6.086608, z: -17.084642}
        outSlope: {x: -0.000013188023, y: 6.0868206, z: -17.083757}
        tangentMode: 0
        weightedMode: 0
        inWeight: {x: 0.33333334, y: 0.33333334, z: 0.33333334}
        outWeight: {x: 0.33333334, y: 0.33333334, z: 0.33333334}
      - serializedVersion: 3
        time: 1.375
        value: {x: 0.9163069, y: 2.4282956, z: -4.3135138}
        inSlope: {x: -0.000021907263, y: 4.524612, z: -13.292735}
        outSlope: {x: 0.000023665883, y: 4.5249853, z: -13.2950325}
        tangentMode: 0
        weightedMode: 0
        inWeight: {x: 0.33333334, y: 0.33333334, z: 0.33333334}
        outWeight: {x: 0.33333334, y: 0.33333334, z: 0.33333334}
      - serializedVersion: 3
        time: 1.583333
        value: {x: 0.6839674, y: 3.3585973, z: -6.7379827}
        inSlope: {x: -1.729708, y: -0.000043792952, z: -11.964474}
        outSlope: {x: -1.7295271, y: 0.00051788054, z: -11.963326}
        tangentMode: 0
        weightedMode: 0
        inWeight: {x: 0.33333334, y: 0.33333334, z: 0.33333334}
        outWeight: {x: 0.33333334, y: 0.33333334, z: 0.33333334}
      - serializedVersion: 3
        time: 1.791666
        value: {x: 0.19559711, y: 0.109671324, z: -9.298723}
        inSlope: {x: -0.000018979727, y: -0.00014134099, z: 0.000021475438}
        outSlope: {x: -0.000018979727, y: -0.00014134099, z: 0.000021475438}
        tangentMode: 0
        weightedMode: 0
        inWeight: {x: 0.33333334, y: 0.33333334, z: 0.33333334}
        outWeight: {x: 0.33333334, y: 0.33333334, z: 0.33333334}
      m_PreInfinity: 2
      m_PostInfinity: 2
      m_RotationOrder: 4
    path: gloves1
  - curve:
      serializedVersion: 2
      m_Curve:
      - serializedVersion: 3
        time: 0
        value: {x: -0.47969684, y: 3.9746418, z: -3.0570521}
        inSlope: {x: -3.0585783, y: -10.316304, z: 0.0035190717}
        outSlope: {x: -3.0585783, y: -10.316304, z: 0.0035190717}
        tangentMode: 0
        weightedMode: 0
        inWeight: {x: 0.33333334, y: 0.33333334, z: 0.33333334}
        outWeight: {x: 0.33333334, y: 0.33333334, z: 0.33333334}
      - serializedVersion: 3
        time: 0.04166603
        value: {x: -0.5968881, y: 3.349532, z: -3.0568805}
        inSlope: {x: -2.4383438, y: -20.327734, z: 0.0046307202}
        outSlope: {x: -2.4379232, y: -20.32362, z: 0.00462887}
        tangentMode: 0
        weightedMode: 0
        inWeight: {x: 0.33333334, y: 0.33333334, z: 0.33333334}
        outWeight: {x: 0.33333334, y: 0.33333334, z: 0.33333334}
      - serializedVersion: 3
        time: 0.083333015
        value: {x: -0.6828834, y: 2.29434, z: -3.0566647}
        inSlope: {x: -1.4327692, y: -22.658562, z: 0.005535671}
        outSlope: {x: -1.4328674, y: -22.658909, z: 0.005579267}
        tangentMode: 0
        weightedMode: 0
        inWeight: {x: 0.33333334, y: 0.33333334, z: 0.33333334}
        outWeight: {x: 0.33333334, y: 0.33333334, z: 0.33333334}
      - serializedVersion: 3
        time: 0.125
        value: {x: -0.71630067, y: 1.4611255, z: -3.0564184}
        inSlope: {x: 0.00007883546, y: 0.002242176, z: 0.000033829765}
        outSlope: {x: -7.105536e-15, y: 1.4211072e-14, z: -3.2482446e-14}
        tangentMode: 0
        weightedMode: 0
        inWeight: {x: 0.33333334, y: 0.33333334, z: 0.33333334}
        outWeight: {x: 0.33333334, y: 0.33333334, z: 0.33333334}
      - serializedVersion: 3
        time: 0.54166603
        value: {x: -0.71640074, y: 1.460511, z: -3.055762}
        inSlope: {x: 0.0000038366284, y: -0.000012032319, z: 0.000022321208}
        outSlope: {x: -0.000025927764, y: -0.0000026282808, z: -0.000016069529}
        tangentMode: 0
        weightedMode: 0
        inWeight: {x: 0.33333334, y: 0.33333334, z: 0.33333334}
        outWeight: {x: 0.33333334, y: 0.33333334, z: 0.33333334}
      - serializedVersion: 3
        time: 0.75
        value: {x: -0.48410818, y: 1.5184418, z: -2.9352667}
        inSlope: {x: 1.9039989, y: 0.23533837, z: 0.5265713}
        outSlope: {x: 1.9043449, y: 0.2353729, z: 0.52662766}
        tangentMode: 0
        weightedMode: 0
        inWeight: {x: 0.33333334, y: 0.33333334, z: 0.33333334}
        outWeight: {x: 0.33333334, y: 0.33333334, z: 0.33333334}
      - serializedVersion: 3
        time: 0.91666603
        value: {x: -0.18549423, y: 1.5101904, z: -2.9264026}
        inSlope: {x: 1.2845124, y: -0.25366908, z: -0.28453067}
        outSlope: {x: 1.2842927, y: -0.25360242, z: -0.28442544}
        tangentMode: 0
        weightedMode: 0
        inWeight: {x: 0.33333334, y: 0.33333334, z: 0.33333334}
        outWeight: {x: 0.33333334, y: 0.33333334, z: 0.33333334}
      - serializedVersion: 3
        time: 1
        value: {x: -0.109846644, y: 1.490567, z: -2.9504826}
        inSlope: {x: 0.57784545, y: -0.15947315, z: -0.22357526}
        outSlope: {x: 0.5779554, y: -0.15956174, z: -0.22367282}
        tangentMode: 0
        weightedMode: 0
        inWeight: {x: 0.33333334, y: 0.33333334, z: 0.33333334}
        outWeight: {x: 0.33333334, y: 0.33333334, z: 0.33333334}
      - serializedVersion: 3
        time: 1.083333
        value: {x: -0.08092125, y: 1.4828607, z: -2.9628737}
        inSlope: {x: 0.2032356, y: -0.07216165, z: -0.09813783}
        outSlope: {x: 0.20324281, y: -0.0721273, z: -0.098070875}
        tangentMode: 0
        weightedMode: 0
        inWeight: {x: 0.33333334, y: 0.33333334, z: 0.33333334}
        outWeight: {x: 0.33333334, y: 0.33333334, z: 0.33333334}
      - serializedVersion: 3
        time: 1.125
        value: {x: -0.07465347, y: 1.4797273, z: -2.9662523}
        inSlope: {x: -0.00001578087, y: -0.045272034, z: -0.055067576}
        outSlope: {x: -0.0000012697606, y: -0.045281973, z: -0.05514174}
        tangentMode: 0
        weightedMode: 0
        inWeight: {x: 0.33333334, y: 0.33333334, z: 0.33333334}
        outWeight: {x: 0.33333334, y: 0.33333334, z: 0.33333334}
      - serializedVersion: 3
        time: 1.166666
        value: {x: -0.075925216, y: 1.4790878, z: -2.9674654}
        inSlope: {x: -0.0000012697606, y: 0.0000068025593, z: -0.000034874203}
        outSlope: {x: -0.00022112831, y: -0.00007124711, z: -0.00026079445}
        tangentMode: 0
        weightedMode: 0
        inWeight: {x: 0.33333334, y: 0.33333334, z: 0.33333334}
        outWeight: {x: 0.33333334, y: 0.33333334, z: 0.33333334}
      - serializedVersion: 3
        time: 1.208333
        value: {x: 0.0329924, y: 1.5019457, z: -2.8954842}
        inSlope: {x: 5.1638236, y: -0.00003637014, z: 1.5226419}
        outSlope: {x: 5.1633735, y: -0.0003337758, z: 1.522762}
        tangentMode: 0
        weightedMode: 0
        inWeight: {x: 0.33333334, y: 0.33333334, z: 0.33333334}
        outWeight: {x: 0.33333334, y: 0.33333334, z: 0.33333334}
      - serializedVersion: 3
        time: 1.25
        value: {x: 0.3544141, y: 1.664274, z: -2.840558}
        inSlope: {x: 7.8873878, y: 5.711903, z: -0.0001407445}
        outSlope: {x: 7.888877, y: 5.7128825, z: -0.00023459371}
        tangentMode: 0
        weightedMode: 0
        inWeight: {x: 0.33333334, y: 0.33333334, z: 0.33333334}
        outWeight: {x: 0.33333334, y: 0.33333334, z: 0.33333334}
      - serializedVersion: 3
        time: 1.291666
        value: {x: 0.6903625, y: 1.9779894, z: -3.0948458}
        inSlope: {x: 5.054653, y: 6.036984, z: -8.727314}
        outSlope: {x: 5.053933, y: 6.0360355, z: -8.725629}
        tangentMode: 0
        weightedMode: 0
        inWeight: {x: 0.33333334, y: 0.33333334, z: 0.33333334}
        outWeight: {x: 0.33333334, y: 0.33333334, z: 0.33333334}
      - serializedVersion: 3
        time: 1.333333
        value: {x: 0.77560395, y: 2.1673257, z: -3.567802}
        inSlope: {x: -0.00015751032, y: 4.546998, z: -13.511375}
        outSlope: {x: 0.000096318894, y: 4.54698, z: -13.510923}
        tangentMode: 0
        weightedMode: 0
        inWeight: {x: 0.33333334, y: 0.33333334, z: 0.33333334}
        outWeight: {x: 0.33333334, y: 0.33333334, z: 0.33333334}
      - serializedVersion: 3
        time: 1.375
        value: {x: 0.73761666, y: 2.356939, z: -4.220876}
        inSlope: {x: -0.5823926, y: 4.850514, z: -14.136617}
        outSlope: {x: -0.58256435, y: 4.8513227, z: -14.139343}
        tangentMode: 0
        weightedMode: 0
        inWeight: {x: 0.33333334, y: 0.33333334, z: 0.33333334}
        outWeight: {x: 0.33333334, y: 0.33333334, z: 0.33333334}
      - serializedVersion: 3
        time: 1.416666
        value: {x: 0.72705925, y: 2.5715823, z: -4.746026}
        inSlope: {x: -0.50936466, y: 5.4565215, z: -12.131989}
        outSlope: {x: -0.509263, y: 5.4555674, z: -12.129893}
        tangentMode: 0
        weightedMode: 0
        inWeight: {x: 0.33333334, y: 0.33333334, z: 0.33333334}
        outWeight: {x: 0.33333334, y: 0.33333334, z: 0.33333334}
      - serializedVersion: 3
        time: 1.541666
        value: {x: 0.585461, y: 3.2001767, z: -6.1622667}
        inSlope: {x: -1.5644996, y: 2.7526736, z: -11.373819}
        outSlope: {x: -1.5642248, y: 2.752293, z: -11.371792}
        tangentMode: 0
        weightedMode: 0
        inWeight: {x: 0.33333334, y: 0.33333334, z: 0.33333334}
        outWeight: {x: 0.33333334, y: 0.33333334, z: 0.33333334}
      - serializedVersion: 3
        time: 1.583333
        value: {x: 0.5161495, y: 3.264543, z: -6.6452756}
        inSlope: {x: -1.9166609, y: -0.00012714636, z: -12.658543}
        outSlope: {x: -1.9166102, y: 0.00070868706, z: -12.658419}
        tangentMode: 0
        weightedMode: 0
        inWeight: {x: 0.33333334, y: 0.33333334, z: 0.33333334}
        outWeight: {x: 0.33333334, y: 0.33333334, z: 0.33333334}
      - serializedVersion: 3
        time: 1.625
        value: {x: 0.425727, y: 2.9295056, z: -7.21724}
        inSlope: {x: -2.392284, y: -13.569185, z: -14.60546}
        outSlope: {x: -2.392699, y: -13.57144, z: -14.608017}
        tangentMode: 0
        weightedMode: 0
        inWeight: {x: 0.33333334, y: 0.33333334, z: 0.33333334}
        outWeight: {x: 0.33333334, y: 0.33333334, z: 0.33333334}
      - serializedVersion: 3
        time: 1.666666
        value: {x: 0.3167687, y: 2.1336653, z: -7.8625474}
        inSlope: {x: -2.5519073, y: -20.871548, z: -15.051593}
        outSlope: {x: -2.5514517, y: -20.867579, z: -15.048931}
        tangentMode: 0
        weightedMode: 0
        inWeight: {x: 0.33333334, y: 0.33333334, z: 0.33333334}
        outWeight: {x: 0.33333334, y: 0.33333334, z: 0.33333334}
      - serializedVersion: 3
        time: 1.708333
        value: {x: 0.21307904, y: 1.1902989, z: -8.4714775}
        inSlope: {x: -2.1943443, y: -20.736685, z: -12.793367}
        outSlope: {x: -2.1943924, y: -20.73701, z: -12.793606}
        tangentMode: 0
        weightedMode: 0
        inWeight: {x: 0.33333334, y: 0.33333334, z: 0.33333334}
        outWeight: {x: 0.33333334, y: 0.33333334, z: 0.33333334}
      - serializedVersion: 3
        time: 1.75
        value: {x: 0.13388824, y: 0.40543664, z: -8.928771}
        inSlope: {x: -1.3366339, y: -13.34974, z: -7.656438}
        outSlope: {x: -1.3369114, y: -13.352535, z: -7.658121}
        tangentMode: 0
        weightedMode: 0
        inWeight: {x: 0.33333334, y: 0.33333334, z: 0.33333334}
        outWeight: {x: 0.33333334, y: 0.33333334, z: 0.33333334}
      - serializedVersion: 3
        time: 1.791666
        value: {x: 0.10167419, y: 0.07763229, z: -9.109632}
        inSlope: {x: -0.000024948187, y: -0.00025589857, z: -0.00021987951}
        outSlope: {x: 1.6494617e-15, y: 7.6129e-16, z: -1.1368597e-13}
        tangentMode: 0
        weightedMode: 0
        inWeight: {x: 0.33333334, y: 0.33333334, z: 0.33333334}
        outWeight: {x: 0.33333334, y: 0.33333334, z: 0.33333334}
      - serializedVersion: 3
        time: 2.625
        value: {x: 0.10167419, y: 0.07763229, z: -9.1096325}
        inSlope: {x: 0, y: 0, z: 0}
        outSlope: {x: 0, y: 0, z: 0}
        tangentMode: 0
        weightedMode: 0
        inWeight: {x: 0.33333334, y: 0.33333334, z: 0.33333334}
        outWeight: {x: 0.33333334, y: 0.33333334, z: 0.33333334}
      m_PreInfinity: 2
      m_PostInfinity: 2
      m_RotationOrder: 4
    path: ball
  m_ScaleCurves:
  - curve:
      serializedVersion: 2
      m_Curve:
      - serializedVersion: 3
        time: 0
        value: {x: 1, y: 1, z: 1}
        inSlope: {x: 0, y: 0, z: 0}
        outSlope: {x: 0, y: 0, z: 0}
        tangentMode: 0
        weightedMode: 0
        inWeight: {x: 0.33333334, y: 0.33333334, z: 0.33333334}
        outWeight: {x: 0.33333334, y: 0.33333334, z: 0.33333334}
      - serializedVersion: 3
        time: 1.791667
        value: {x: 1, y: 1, z: 1}
        inSlope: {x: 0, y: 0, z: 0}
        outSlope: {x: 0, y: 0, z: 0}
        tangentMode: 0
        weightedMode: 0
        inWeight: {x: 0.33333334, y: 0.33333334, z: 0.33333334}
        outWeight: {x: 0.33333334, y: 0.33333334, z: 0.33333334}
      m_PreInfinity: 2
      m_PostInfinity: 2
      m_RotationOrder: 4
    path: gloves1
  - curve:
      serializedVersion: 2
      m_Curve:
      - serializedVersion: 3
        time: 0
        value: {x: 1, y: 1, z: 1}
        inSlope: {x: 0, y: 0, z: 0}
        outSlope: {x: 0, y: 0, z: 0}
        tangentMode: 0
        weightedMode: 0
        inWeight: {x: 0.33333334, y: 0.33333334, z: 0.33333334}
        outWeight: {x: 0.33333334, y: 0.33333334, z: 0.33333334}
      - serializedVersion: 3
        time: 2.625
        value: {x: 1, y: 1, z: 1}
        inSlope: {x: 0, y: 0, z: 0}
        outSlope: {x: 0, y: 0, z: 0}
        tangentMode: 0
        weightedMode: 0
        inWeight: {x: 0.33333334, y: 0.33333334, z: 0.33333334}
        outWeight: {x: 0.33333334, y: 0.33333334, z: 0.33333334}
      m_PreInfinity: 2
      m_PostInfinity: 2
      m_RotationOrder: 4
    path: ball
  m_FloatCurves:
  - curve:
      serializedVersion: 2
      m_Curve:
      - serializedVersion: 3
        time: 0
        value: 1
        inSlope: 0
        outSlope: 0
        tangentMode: 0
        weightedMode: 0
        inWeight: 0.33333334
        outWeight: 0.33333334
      - serializedVersion: 3
        time: 2.625
        value: 1
        inSlope: 0
        outSlope: 0
        tangentMode: 0
        weightedMode: 0
        inWeight: 0.33333334
        outWeight: 0.33333334
      m_PreInfinity: 2
      m_PostInfinity: 2
      m_RotationOrder: 4
    attribute: m_Enabled
    path: ball
    classID: 25
    script: {fileID: 0}
  m_PPtrCurves: []
  m_SampleRate: 24
  m_WrapMode: 0
  m_Bounds:
    m_Center: {x: 0, y: 0, z: 0}
    m_Extent: {x: 0, y: 0, z: 0}
  m_ClipBindingConstant:
    genericBindings: []
    pptrCurveMapping: []
  m_AnimationClipSettings:
    serializedVersion: 2
    m_AdditiveReferencePoseClip: {fileID: 0}
    m_AdditiveReferencePoseTime: 0
    m_StartTime: 0
    m_StopTime: 2.625
    m_OrientationOffsetY: 0
    m_Level: 0
    m_CycleOffset: 0
    m_HasAdditiveReferencePose: 0
    m_LoopTime: 0
    m_LoopBlend: 0
    m_LoopBlendOrientation: 0
    m_LoopBlendPositionY: 0
    m_LoopBlendPositionXZ: 0
    m_KeepOriginalOrientation: 0
    m_KeepOriginalPositionY: 1
    m_KeepOriginalPositionXZ: 0
    m_HeightFromFeet: 0
    m_Mirror: 0
  m_EditorCurves: []
  m_EulerEditorCurves: []
  m_HasGenericRootTransform: 0
  m_HasMotionFloatCurves: 0
  m_Events: []
