%YAML 1.1
%TAG !u! tag:unity3d.com,2011:
--- !u!21 &2100000
Material:
  serializedVersion: 6
  m_ObjectHideFlags: 0
  m_CorrespondingSourceObject: {fileID: 0}
  m_PrefabInstance: {fileID: 0}
  m_PrefabAsset: {fileID: 0}
  m_Name: Yellow - MAT
  m_Shader: {fileID: -6465566751694194690, guid: 4aa46d33b0afb5e49bb0703218e42e0e,
    type: 3}
  m_ShaderKeywords: _MK_LIGHTMODEL_LAMBERT _MK_LIGHTTYPE_CEL_SHADE_SIMPLE
  m_LightmapFlags: 4
  m_EnableInstancingVariants: 0
  m_DoubleSidedGI: 0
  m_CustomRenderQueue: -1
  stringTagMap:
    IGNOREPROJECTOR: False
    QUEUE: Geometry
  disabledShaderPasses: []
  m_SavedProperties:
    serializedVersion: 3
    m_TexEnvs:
    - Texture2D_899A00C9:
        m_Texture: {fileID: 0}
        m_Scale: {x: 1, y: 1}
        m_Offset: {x: 0, y: 0}
    - _AnisoMap:
        m_Texture: {fileID: 0}
        m_Scale: {x: 1, y: 1}
        m_Offset: {x: 0, y: 0}
    - _BumpMap:
        m_Texture: {fileID: 0}
        m_Scale: {x: 1, y: 1}
        m_Offset: {x: 0, y: 0}
    - _DetailAlbedoMap:
        m_Texture: {fileID: 0}
        m_Scale: {x: 1, y: 1}
        m_Offset: {x: 0, y: 0}
    - _DetailMask:
        m_Texture: {fileID: 0}
        m_Scale: {x: 1, y: 1}
        m_Offset: {x: 0, y: 0}
    - _DetailNormalMap:
        m_Texture: {fileID: 0}
        m_Scale: {x: 1, y: 1}
        m_Offset: {x: 0, y: 0}
    - _DissolveMap:
        m_Texture: {fileID: 0}
        m_Scale: {x: 1, y: 1}
        m_Offset: {x: 0, y: 0}
    - _DissolveRamp:
        m_Texture: {fileID: 0}
        m_Scale: {x: 1, y: 1}
        m_Offset: {x: 0, y: 0}
    - _EmissionMap:
        m_Texture: {fileID: 0}
        m_Scale: {x: 1, y: 1}
        m_Offset: {x: 0, y: 0}
    - _MainTex:
        m_Texture: {fileID: 0}
        m_Scale: {x: 1, y: 1}
        m_Offset: {x: 0, y: 0}
    - _MetallicGlossMap:
        m_Texture: {fileID: 0}
        m_Scale: {x: 1, y: 1}
        m_Offset: {x: 0, y: 0}
    - _OcclusionMap:
        m_Texture: {fileID: 0}
        m_Scale: {x: 1, y: 1}
        m_Offset: {x: 0, y: 0}
    - _ParallaxMap:
        m_Texture: {fileID: 0}
        m_Scale: {x: 1, y: 1}
        m_Offset: {x: 0, y: 0}
    - _Ramp:
        m_Texture: {fileID: 0}
        m_Scale: {x: 1, y: 1}
        m_Offset: {x: 0, y: 0}
    - _ReflectMap:
        m_Texture: {fileID: 0}
        m_Scale: {x: 1, y: 1}
        m_Offset: {x: 0, y: 0}
    - _SketchMap:
        m_Texture: {fileID: 0}
        m_Scale: {x: 1, y: 1}
        m_Offset: {x: 0, y: 0}
    - _SpecGlossMap:
        m_Texture: {fileID: 0}
        m_Scale: {x: 1, y: 1}
        m_Offset: {x: 0, y: 0}
    - _TranslucentMap:
        m_Texture: {fileID: 0}
        m_Scale: {x: 1, y: 1}
        m_Offset: {x: 0, y: 0}
    m_Floats:
    - Vector1_38BD3441: 0.4
    - Vector1_CF8B0D8D: 6
    - Vector1_ED5ABFD9: 0
    - Vector1_F3F6B787: 0
    - _AlbedoMap: 0
    - _AnisoOffset: -0.2
    - _Blend0: 1
    - _Blend1: 0
    - _Brightness: 1.06
    - _BumpScale: 1
    - _Contrast: 0.79
    - _CullMode: 2
    - _Cutoff: 0.5
    - _DetailNormalMapScale: 1
    - _DetailTint: 0.5
    - _DissolveAmount: 0.5
    - _DissolveRampSize: 0.25
    - _DstBlend: 0
    - _GlossMapScale: 1
    - _Glossiness: 0.5
    - _GlossyReflections: 1
    - _LightCuts: 3
    - _LightModel: 1
    - _LightSmoothness: 1
    - _LightThreshold: 0.17
    - _LightType: 1
    - _MKEditorShowDetailBehavior: 0
    - _MKEditorShowDissolveBehavior: 0
    - _MKEditorShowLightBehavior: 1
    - _MKEditorShowMainBehavior: 1
    - _MKEditorShowOutlineBehavior: 0
    - _MKEditorShowReflectionBehavior: 0
    - _MKEditorShowRenderBehavior: 1
    - _MKEditorShowRimBehavior: 0
    - _MKEditorShowShadowBehavior: 1
    - _MKEditorShowSketchBehavior: 0
    - _MKEditorShowSpecularBehavior: 0
    - _MKEditorShowTranslucentBehavior: 0
    - _Metallic: 0
    - _Mode: 0
    - _OcclusionStrength: 1
    - _OutlineSize: 0.02
    - _Parallax: 0.02
    - _ReflectIntensity: 0.5
    - _ReflectSmoothness: 0
    - _RimIntensity: 0.5
    - _RimSize: 1.5
    - _RimSmoothness: 0.5
    - _Roughness: 1
    - _Saturation: 2
    - _ShadowIntensity: 1.52
    - _Shininess: 0.275
    - _SketchScale: 16
    - _SketchToneMax: 1
    - _SketchToneMin: 0.5
    - _SmoothnessTextureChannel: 0
    - _SpecularHighlights: 1
    - _SpecularIntensity: 0.5
    - _SrcBlend: 1
    - _TranslucentIntensity: 0.5
    - _TranslucentShininess: 0.275
    - _UVSec: 0
    - _UseAnisotropicSpecular: 0
    - _UseBumpMap: 0
    - _UseDissolve: 0
    - _UseOutline: 0
    - _UseReflection: 0
    - _UseRim: 0
    - _UseSketch: 0
    - _UseTranslucent: 0
    - _ZWrite: 1
    m_Colors:
    - Color_28180829: {r: 1, g: 1, b: 1, a: 1}
    - Color_57D43A16: {r: 0.9528302, g: 0.9528302, b: 0.9528302, a: 0}
    - Color_F689E8B9: {r: 1, g: 0.8620171, b: 0, a: 1}
    - _Color: {r: 0.94708157, g: 1, b: 0, a: 1}
    - _DetailColor: {r: 1, g: 1, b: 1, a: 1}
    - _DissolveColor: {r: 1, g: 1, b: 1, a: 0.5}
    - _EmissionColor: {r: 0, g: 0, b: 0, a: 1}
    - _HighlightColor: {r: 1, g: 1, b: 1, a: 1}
    - _OutlineColor: {r: 0, g: 0, b: 0, a: 1}
    - _ReflectColor: {r: 1, g: 1, b: 1, a: 0.5}
    - _RimColor: {r: 1, g: 1, b: 1, a: 1}
    - _ShadowColor: {r: 0, g: 0, b: 0, a: 1}
    - _SpecColor: {r: 1, g: 1, b: 1, a: 0.5}
    - _TranslucentColor: {r: 1, g: 1, b: 1, a: 0.5}
