%YAML 1.1
%TAG !u! tag:unity3d.com,2011:
--- !u!114 &-7997906699779170868
MonoBehaviour:
  m_ObjectHideFlags: 11
  m_CorrespondingSourceObject: {fileID: 0}
  m_PrefabInstance: {fileID: 0}
  m_PrefabAsset: {fileID: 0}
  m_GameObject: {fileID: 0}
  m_Enabled: 1
  m_EditorHideFlags: 0
  m_Script: {fileID: 11500000, guid: d0353a89b1f911e48b9e16bdc9f2e058, type: 3}
  m_Name: 
  m_EditorClassIdentifier: 
  version: 1
--- !u!21 &2100000
Material:
  serializedVersion: 6
  m_ObjectHideFlags: 0
  m_CorrespondingSourceObject: {fileID: 0}
  m_PrefabInstance: {fileID: 0}
  m_PrefabAsset: {fileID: 0}
  m_Name: toonc_colormask
  m_Shader: {fileID: -6465566751694194690, guid: 1f05c0a217361b94e8c11c303ed2c682,
    type: 3}
  m_ShaderKeywords: 
  m_LightmapFlags: 4
  m_EnableInstancingVariants: 0
  m_DoubleSidedGI: 0
  m_CustomRenderQueue: -1
  stringTagMap: {}
  disabledShaderPasses: []
  m_SavedProperties:
    serializedVersion: 3
    m_TexEnvs:
    - _ATex:
        m_Texture: {fileID: 0}
        m_Scale: {x: 1, y: 1}
        m_Offset: {x: 0, y: 0}
    - _BTex:
        m_Texture: {fileID: 2800000, guid: 918c61a3ec3174f4a951a41328c425f4, type: 3}
        m_Scale: {x: 1, y: 1}
        m_Offset: {x: 0, y: 0}
    - _GTex:
        m_Texture: {fileID: 2800000, guid: cfa8b0891fa4e724d91db97be806863f, type: 3}
        m_Scale: {x: 1, y: 1}
        m_Offset: {x: 0, y: 0}
    - _MainTex:
        m_Texture: {fileID: 2800000, guid: 918c61a3ec3174f4a951a41328c425f4, type: 3}
        m_Scale: {x: 1, y: 1}
        m_Offset: {x: 0, y: 0}
    - _MainTexture:
        m_Texture: {fileID: 0}
        m_Scale: {x: 1, y: 1}
        m_Offset: {x: 0, y: 0}
    - _RTex:
        m_Texture: {fileID: 2800000, guid: cfa8b0891fa4e724d91db97be806863f, type: 3}
        m_Scale: {x: 1, y: 1}
        m_Offset: {x: 0, y: 0}
    - _TexMap:
        m_Texture: {fileID: 2800000, guid: 22259276ab3961f4da695db3f60bb87f, type: 3}
        m_Scale: {x: 1, y: 1}
        m_Offset: {x: 0, y: 0}
    - _TexMask:
        m_Texture: {fileID: 2800000, guid: 22259276ab3961f4da695db3f60bb87f, type: 3}
        m_Scale: {x: 1, y: 1}
        m_Offset: {x: 0, y: 0}
    - _TexOverlay:
        m_Texture: {fileID: 2800000, guid: 2949cb3d0ea3b284aacfe5936ddca3f6, type: 3}
        m_Scale: {x: 1, y: 1}
        m_Offset: {x: 0, y: 0}
    m_Floats:
    - Vector1_BBDDDF48: 0.5
    - _ColorMaskStrength: 0.927
    m_Colors:
    - Color_2684EBF: {r: 0.9132073, g: 1, b: 0, a: 1}
    - _OverlayMaskColor: {r: 1, g: 0.84940815, b: 0, a: 1}
