ANDROID Disabled(=x),IOS Disabled(=x),isBonus(=x),Level ID,,CheckSerial
,,,1,1,1
,,,48,mop,2
,,,51,pogostick,3
,,x,1056,baseball,4
,,,14,pingpong boom,5
,,,7,underwear,6
,,,16,door color bucket,7
,,,20,cake,8
,,x,1053,swing,10
,,,24,paper bag,9
,,,11,office iron,11
,,,55,slide,12
,,,43,medicine ball,13
,,x,1054,see saw,14
,,,23,punching bag,15
,,,9,office chair,16
,,,12,donut,17
,,,21,benchpress,18
,,x,1006,rake,19
,,,18,shower,20
,,,19,hairdryer,21
,,,59,catpiss everdeen,22
,,,5,Shoolace(5),23
,,x,1052,pringles,24
,,,44,flower sniff,25
,,,32,explosive poop,26
,,,29,living room backpack,27
,,,8,office entrance,28
,,x,1037,smoke bomb,29
,,,35,flower tob head,30
,,,36,bungee,31
,,,31,lawnmower,32
,,,50,skate,33
,,x,1042,wax car,34
,,,58,monkey,35
,,,39,coin,36
,,,27,glue glass,37
,,,28,menthol,38
,,x,1025,campfire,39
,,,41,guiter shock,40
,,,38,Shirt tear,41
,,,47,painting,42
,,,13,icecream,43
,,x,1057,fridgefall,44
,,,60,toothless,45
,,,46,worm,46
,,,40,steering,47
,,,26,bulb,48
,,x,1045,popcorn,49
,,,34,Snap turtle,50
,,,33,extinguisher,51
,,,3,flour burger,52
,,,15,emotional meal,53
,,x,1017,fart can,54
,,,30,beehive,55
,,,49,washing machine,56
,,,10,office screen punch,57
,,,4,coffee fountain (4),58
,,x,1022,treadmill,59
,x,,2,2,60