%YAML 1.1
%TAG !u! tag:unity3d.com,2011:
--- !u!1 &6544932404666423088
GameObject:
  m_ObjectHideFlags: 0
  m_CorrespondingSourceObject: {fileID: 0}
  m_PrefabInstance: {fileID: 0}
  m_PrefabAsset: {fileID: 0}
  serializedVersion: 6
  m_Component:
  - component: {fileID: 6544932404666423094}
  - component: {fileID: 6544932404666423095}
  m_Layer: 0
  m_Name: AdjustPurchaseSDKManager
  m_TagString: Untagged
  m_Icon: {fileID: 0}
  m_NavMeshLayer: 0
  m_StaticEditorFlags: 0
  m_IsActive: 1
--- !u!4 &6544932404666423094
Transform:
  m_ObjectHideFlags: 0
  m_CorrespondingSourceObject: {fileID: 0}
  m_PrefabInstance: {fileID: 0}
  m_PrefabAsset: {fileID: 0}
  m_GameObject: {fileID: 6544932404666423088}
  m_LocalRotation: {x: 0, y: 0, z: 0, w: 1}
  m_LocalPosition: {x: 0, y: 0, z: 0}
  m_LocalScale: {x: 1, y: 1, z: 1}
  m_Children: []
  m_Father: {fileID: 0}
  m_RootOrder: 0
  m_LocalEulerAnglesHint: {x: 0, y: 0, z: 0}
--- !u!114 &6544932404666423095
MonoBehaviour:
  m_ObjectHideFlags: 0
  m_CorrespondingSourceObject: {fileID: 0}
  m_PrefabInstance: {fileID: 0}
  m_PrefabAsset: {fileID: 0}
  m_GameObject: {fileID: 6544932404666423088}
  m_Enabled: 1
  m_EditorHideFlags: 0
  m_Script: {fileID: 11500000, guid: ae413b521206d44b5be48543507951fe, type: 3}
  m_Name: 
  m_EditorClassIdentifier: 
  updateAdjustConfiguretion: 0
  updateAdjustPurchaseConfiguretion: 0
  showAdjustPurchaseConfiguretionHelpBox: 0
  showAdjustPurchaseConfiguretion: 1
  showAdvanceAdjustPurchaseConfiguretion: 1
  updateEnumListForPreConfigRevenueEventTracker: 0
  showAdjustPreConfigRevenueEventTrackerHelpBox: 0
  showAdjustPreConfigRevenueEventTracker: 1
  appTokenForAndroid: goqut6o9jsw0
  appTokenForIOS: 5pwrl7lrmruo
  isProductionBuild: 0
  startManually: 0
  logLevel: 1
  environment: 0
  defaultCurrency: USA
  listOfAdjustRevenueTracker: []
