%YAML 1.1
%TAG !u! tag:unity3d.com,2011:
--- !u!114 &-1343246282498259534
MonoBehaviour:
  m_ObjectHideFlags: 11
  m_CorrespondingSourceObject: {fileID: 0}
  m_PrefabInstance: {fileID: 0}
  m_PrefabAsset: {fileID: 0}
  m_GameObject: {fileID: 0}
  m_Enabled: 1
  m_EditorHideFlags: 0
  m_Script: {fileID: 11500000, guid: d0353a89b1f911e48b9e16bdc9f2e058, type: 3}
  m_Name: 
  m_EditorClassIdentifier: 
  version: 1
--- !u!21 &2100000
Material:
  serializedVersion: 6
  m_ObjectHideFlags: 0
  m_CorrespondingSourceObject: {fileID: 0}
  m_PrefabInstance: {fileID: 0}
  m_PrefabAsset: {fileID: 0}
  m_Name: Girl - Pee
  m_Shader: {fileID: -6465566751694194690, guid: 5a731ab275dc7f741a3c6fc1d8ab4ed0,
    type: 3}
  m_ShaderKeywords: 
  m_LightmapFlags: 4
  m_EnableInstancingVariants: 0
  m_DoubleSidedGI: 0
  m_CustomRenderQueue: -1
  stringTagMap: {}
  disabledShaderPasses: []
  m_SavedProperties:
    serializedVersion: 3
    m_TexEnvs:
    - Texture2D_899A00C9:
        m_Texture: {fileID: 2800000, guid: 918c61a3ec3174f4a951a41328c425f4, type: 3}
        m_Scale: {x: 1, y: 1}
        m_Offset: {x: 0, y: 0}
    - Texture2D_A6A495A3:
        m_Texture: {fileID: 2800000, guid: 687f983bf0d464f7ab617343d8a25ad9, type: 3}
        m_Scale: {x: 1, y: 1}
        m_Offset: {x: 0, y: 0}
    - _ATex:
        m_Texture: {fileID: 0}
        m_Scale: {x: 1, y: 1}
        m_Offset: {x: 0, y: 0}
    - _BTex:
        m_Texture: {fileID: 0}
        m_Scale: {x: 1, y: 1}
        m_Offset: {x: 0, y: 0}
    - _BaseMap:
        m_Texture: {fileID: 2800000, guid: 687f983bf0d464f7ab617343d8a25ad9, type: 3}
        m_Scale: {x: 1, y: 1}
        m_Offset: {x: 0, y: 0}
    - _BumpMap:
        m_Texture: {fileID: 0}
        m_Scale: {x: 1, y: 1}
        m_Offset: {x: 0, y: 0}
    - _EmissionMap:
        m_Texture: {fileID: 0}
        m_Scale: {x: 1, y: 1}
        m_Offset: {x: 0, y: 0}
    - _GTex:
        m_Texture: {fileID: 0}
        m_Scale: {x: 1, y: 1}
        m_Offset: {x: 0, y: 0}
    - _MainTex:
        m_Texture: {fileID: 2800000, guid: 918c61a3ec3174f4a951a41328c425f4, type: 3}
        m_Scale: {x: 1, y: 1}
        m_Offset: {x: 0, y: 0}
    - _MainTexture:
        m_Texture: {fileID: 2800000, guid: 4978cf699140bc74386126e676589858, type: 3}
        m_Scale: {x: 1, y: 1}
        m_Offset: {x: 0, y: 0}
    - _MetallicGlossMap:
        m_Texture: {fileID: 0}
        m_Scale: {x: 1, y: 1}
        m_Offset: {x: 0, y: 0}
    - _OcclusionMap:
        m_Texture: {fileID: 0}
        m_Scale: {x: 1, y: 1}
        m_Offset: {x: 0, y: 0}
    - _RTex:
        m_Texture: {fileID: 0}
        m_Scale: {x: 1, y: 1}
        m_Offset: {x: 0, y: 0}
    - _SpecGlossMap:
        m_Texture: {fileID: 0}
        m_Scale: {x: 1, y: 1}
        m_Offset: {x: 0, y: 0}
    - _TexMap:
        m_Texture: {fileID: 2800000, guid: 22259276ab3961f4da695db3f60bb87f, type: 3}
        m_Scale: {x: 1, y: 1}
        m_Offset: {x: 0, y: 0}
    - _TexOverlay:
        m_Texture: {fileID: 2800000, guid: 32a8fbc9e22a8704898aa784e967aaa1, type: 3}
        m_Scale: {x: 1, y: 1}
        m_Offset: {x: 0, y: 0}
    m_Floats:
    - Vector1_32C37156: 0.2
    - Vector1_362FC9B5: 0.73
    - Vector1_38BD3441: 0.3
    - Vector1_47CA361F: 1
    - Vector1_4ABD4F96: 1
    - Vector1_5CDA327C: 1
    - Vector1_60CC56B2: 0
    - Vector1_786FD7DA: 0.015
    - Vector1_A11F73AD: 0.1
    - Vector1_A4170162: 1
    - Vector1_B46E9C8C: 0.0175
    - Vector1_BBDDDF48: 0.9
    - Vector1_C7E19E7D: 0
    - Vector1_CF8B0D8D: 7.8
    - Vector1_ED5ABFD9: 0.05
    - Vector1_F3F6B787: 0.16
    - _AlphaClip: 0
    - _Blend: 0
    - _BumpScale: 1
    - _ColorMaskStrength: 0.9
    - _Cull: 2
    - _Cutoff: 0.5
    - _DstBlend: 0
    - _EnvironmentReflections: 0
    - _GlossMapScale: 0
    - _Glossiness: 0
    - _GlossinessSource: 0
    - _GlossyReflections: 0
    - _MaskStrength: 0.9
    - _Metallic: 0
    - _OcclusionStrength: 1
    - _QueueOffset: 0
    - _ReceiveShadows: 1
    - _Shininess: 0
    - _Smoothness: 1
    - _SmoothnessSource: 0
    - _SmoothnessTextureChannel: 0
    - _SpecSource: 0
    - _SpecularHighlights: 1
    - _SrcBlend: 1
    - _Surface: 0
    - _WorkflowMode: 0
    - _ZWrite: 1
    m_Colors:
    - Color_2684EBF: {r: 1.1320755, g: 1.0076065, b: 0, a: 1}
    - Color_28180829: {r: 0.6320754, g: 0.6320754, b: 0.6320754, a: 1}
    - Color_57D43A16: {r: 1, g: 1, b: 1, a: 0}
    - Color_F689E8B9: {r: 1, g: 1, b: 1, a: 1}
    - _BaseColor: {r: 1, g: 1, b: 1, a: 1}
    - _Color: {r: 1, g: 1, b: 1, a: 1}
    - _EmissionColor: {r: 0, g: 0, b: 0, a: 1}
    - _OverlayMaskColor: {r: 1.1320755, g: 1.0076065, b: 0, a: 1}
    - _SpecColor: {r: 0, g: 0, b: 0, a: 1}
