
20.1 
  	idle loop  frame 1-65
	knife grab: 65-90
	success    frame 90-225
	
	idle loop  frame 270-335
	KnifeGrab: 335-360
	fail	   frame 360-562




20.2
	idle loop  frame 650-690
	success	   frame 690-806
	
	idle loop  frame 830-870
	fail 	   frame 870-960