%YAML 1.1
%TAG !u! tag:unity3d.com,2011:
--- !u!74 &7400000
AnimationClip:
  m_ObjectHideFlags: 0
  m_CorrespondingSourceObject: {fileID: 0}
  m_PrefabInstance: {fileID: 0}
  m_PrefabAsset: {fileID: 0}
  m_Name: common2
  serializedVersion: 6
  m_Legacy: 0
  m_Compressed: 0
  m_UseHighQualityCurve: 1
  m_RotationCurves:
  - curve:
      serializedVersion: 2
      m_Curve:
      - serializedVersion: 3
        time: 0
        value: {x: 0.37866583, y: 0.6052612, z: -0.05991568, w: -0.6976254}
        inSlope: {x: 0, y: 0, z: 0, w: 0}
        outSlope: {x: 0, y: 0, z: 0, w: 0}
        tangentMode: 0
        weightedMode: 0
        inWeight: {x: 0.33333334, y: 0.33333334, z: 0.33333334, w: 0.33333334}
        outWeight: {x: 0.33333334, y: 0.33333334, z: 0.33333334, w: 0.33333334}
      - serializedVersion: 3
        time: 1.291667
        value: {x: 0.37866583, y: 0.6052612, z: -0.05991568, w: -0.6976254}
        inSlope: {x: 0, y: 0, z: 0, w: 0}
        outSlope: {x: 0, y: 0, z: 0, w: 0}
        tangentMode: 0
        weightedMode: 0
        inWeight: {x: 0.33333334, y: 0.33333334, z: 0.33333334, w: 0.33333334}
        outWeight: {x: 0.33333334, y: 0.33333334, z: 0.33333334, w: 0.33333334}
      - serializedVersion: 3
        time: 3.333335
        value: {x: 0.37866583, y: 0.6052612, z: -0.05991568, w: -0.6976254}
        inSlope: {x: 0, y: 0, z: 0, w: 0}
        outSlope: {x: 0, y: 0, z: 0, w: 0}
        tangentMode: 0
        weightedMode: 0
        inWeight: {x: 0.33333334, y: 0.33333334, z: 0.33333334, w: 0.33333334}
        outWeight: {x: 0.33333334, y: 0.33333334, z: 0.33333334, w: 0.33333334}
      - serializedVersion: 3
        time: 5.416667
        value: {x: 0.37866583, y: 0.6052612, z: -0.05991568, w: -0.6976254}
        inSlope: {x: 0, y: 0, z: 0, w: 0}
        outSlope: {x: 0, y: 0, z: 0, w: 0}
        tangentMode: 0
        weightedMode: 0
        inWeight: {x: 0.33333334, y: 0.33333334, z: 0.33333334, w: 0.33333334}
        outWeight: {x: 0.33333334, y: 0.33333334, z: 0.33333334, w: 0.33333334}
      - serializedVersion: 3
        time: 7.458335
        value: {x: 0.37866583, y: 0.6052612, z: -0.05991568, w: -0.6976254}
        inSlope: {x: 0, y: 0, z: 0, w: 0}
        outSlope: {x: 0, y: 0, z: 0, w: 0}
        tangentMode: 0
        weightedMode: 0
        inWeight: {x: 0.33333334, y: 0.33333334, z: 0.33333334, w: 0.33333334}
        outWeight: {x: 0.33333334, y: 0.33333334, z: 0.33333334, w: 0.33333334}
      - serializedVersion: 3
        time: 7.708333
        value: {x: 0.37866583, y: 0.6052612, z: -0.05991568, w: -0.6976254}
        inSlope: {x: 0, y: 0, z: 0, w: 0}
        outSlope: {x: 0, y: 0, z: 0, w: 0}
        tangentMode: 0
        weightedMode: 0
        inWeight: {x: 0.33333334, y: 0.33333334, z: 0.33333334, w: 0.33333334}
        outWeight: {x: 0.33333334, y: 0.33333334, z: 0.33333334, w: 0.33333334}
      m_PreInfinity: 2
      m_PostInfinity: 2
      m_RotationOrder: 4
    path: bALL
  - curve:
      serializedVersion: 2
      m_Curve:
      - serializedVersion: 3
        time: 0
        value: {x: -3.330669e-16, y: 1.8041124e-16, z: -5.551115e-17, w: 1}
        inSlope: {x: 0, y: 0, z: 0, w: 0}
        outSlope: {x: 0, y: 0, z: 0, w: 0}
        tangentMode: 0
        weightedMode: 0
        inWeight: {x: 0.33333334, y: 0.33333334, z: 0.33333334, w: 0.33333334}
        outWeight: {x: 0.33333334, y: 0.33333334, z: 0.33333334, w: 0.33333334}
      - serializedVersion: 3
        time: 0.041666985
        value: {x: -3.330669e-16, y: 1.8041124e-16, z: -5.551115e-17, w: 1}
        inSlope: {x: 0, y: 0, z: 0, w: 0}
        outSlope: {x: 0, y: 0, z: 0, w: 0}
        tangentMode: 0
        weightedMode: 0
        inWeight: {x: 0.33333334, y: 0.33333334, z: 0.33333334, w: 0.33333334}
        outWeight: {x: 0.33333334, y: 0.33333334, z: 0.33333334, w: 0.33333334}
      - serializedVersion: 3
        time: 2.083335
        value: {x: -3.330669e-16, y: 1.8041124e-16, z: -5.551115e-17, w: 1}
        inSlope: {x: 0, y: 0, z: 0, w: 0}
        outSlope: {x: 0, y: 0, z: 0, w: 0}
        tangentMode: 0
        weightedMode: 0
        inWeight: {x: 0.33333334, y: 0.33333334, z: 0.33333334, w: 0.33333334}
        outWeight: {x: 0.33333334, y: 0.33333334, z: 0.33333334, w: 0.33333334}
      - serializedVersion: 3
        time: 4.166667
        value: {x: -3.330669e-16, y: 1.8041124e-16, z: -5.551115e-17, w: 1}
        inSlope: {x: 0, y: 0, z: 0, w: 0}
        outSlope: {x: 0, y: 0, z: 0, w: 0}
        tangentMode: 0
        weightedMode: 0
        inWeight: {x: 0.33333334, y: 0.33333334, z: 0.33333334, w: 0.33333334}
        outWeight: {x: 0.33333334, y: 0.33333334, z: 0.33333334, w: 0.33333334}
      - serializedVersion: 3
        time: 5.791667
        value: {x: -3.330669e-16, y: 1.8041124e-16, z: -5.551115e-17, w: 1}
        inSlope: {x: 4.6326237e-10, y: -4.082707e-10, z: -3.4111765e-11, w: 0}
        outSlope: {x: 4.6326237e-10, y: -4.082707e-10, z: -3.4111765e-11, w: 0}
        tangentMode: 0
        weightedMode: 0
        inWeight: {x: 0.33333334, y: 0.33333334, z: 0.33333334, w: 0.33333334}
        outWeight: {x: 0.33333334, y: 0.33333334, z: 0.33333334, w: 0.33333334}
      - serializedVersion: 3
        time: 5.833335
        value: {x: 3.8606042e-11, y: -3.4023416e-11, z: -2.8427894e-12, w: 1}
        inSlope: {x: 0.21054165, y: -0.39509675, z: -0.07582405, w: -0.008593929}
        outSlope: {x: 0.21054165, y: -0.39509675, z: -0.07582405, w: -0.008593929}
        tangentMode: 0
        weightedMode: 0
        inWeight: {x: 0.33333334, y: 0.33333334, z: 0.33333334, w: 0.33333334}
        outWeight: {x: 0.33333334, y: 0.33333334, z: 0.33333334, w: 0.33333334}
      - serializedVersion: 3
        time: 5.875001
        value: {x: 0.01754487, y: -0.032924227, z: -0.006318575, w: 0.99928385}
        inSlope: {x: 0.23067512, y: -1.4905767, z: -0.38534892, w: -0.10140693}
        outSlope: {x: 0.23067512, y: -1.4905767, z: -0.38534892, w: -0.10140693}
        tangentMode: 0
        weightedMode: 0
        inWeight: {x: 0.33333334, y: 0.33333334, z: 0.33333334, w: 0.33333334}
        outWeight: {x: 0.33333334, y: 0.33333334, z: 0.33333334, w: 0.33333334}
      - serializedVersion: 3
        time: 5.916667
        value: {x: 0.019222632, y: -0.12421283, z: -0.03211192, w: 0.99154955}
        inSlope: {x: -0.011984231, y: -2.17599, z: -0.7005026, w: -0.29749936}
        outSlope: {x: -0.011984231, y: -2.17599, z: -0.7005026, w: -0.29749936}
        tangentMode: 0
        weightedMode: 0
        inWeight: {x: 0.33333334, y: 0.33333334, z: 0.33333334, w: 0.33333334}
        outWeight: {x: 0.33333334, y: 0.33333334, z: 0.33333334, w: 0.33333334}
      - serializedVersion: 3
        time: 6.000001
        value: {x: 0.017786063, y: -0.28109053, z: -0.0993937, w: 0.9543546}
        inSlope: {x: 0.13883303, y: -1.139725, z: -0.7208524, w: -0.38574332}
        outSlope: {x: 0.13883303, y: -1.139725, z: -0.7208524, w: -0.38574332}
        tangentMode: 0
        weightedMode: 0
        inWeight: {x: 0.33333334, y: 0.33333334, z: 0.33333334, w: 0.33333334}
        outWeight: {x: 0.33333334, y: 0.33333334, z: 0.33333334, w: 0.33333334}
      - serializedVersion: 3
        time: 6.083335
        value: {x: 0.04005047, y: -0.30484188, z: -0.1249383, w: 0.9433228}
        inSlope: {x: 0.1849747, y: 0.26700413, z: 0.2720185, w: 0.10964484}
        outSlope: {x: 0.1849747, y: 0.26700413, z: 0.2720185, w: 0.10964484}
        tangentMode: 0
        weightedMode: 0
        inWeight: {x: 0.33333334, y: 0.33333334, z: 0.33333334, w: 0.33333334}
        outWeight: {x: 0.33333334, y: 0.33333334, z: 0.33333334, w: 0.33333334}
      - serializedVersion: 3
        time: 6.208335
        value: {x: 0.031804048, y: -0.23583435, z: -0.026670136, w: 0.9709065}
        inSlope: {x: -0.30237496, y: 0.6508206, z: 0.84842753, w: 0.19345747}
        outSlope: {x: -0.30237496, y: 0.6508206, z: 0.84842753, w: 0.19345747}
        tangentMode: 0
        weightedMode: 0
        inWeight: {x: 0.33333334, y: 0.33333334, z: 0.33333334, w: 0.33333334}
        outWeight: {x: 0.33333334, y: 0.33333334, z: 0.33333334, w: 0.33333334}
      - serializedVersion: 3
        time: 6.458335
        value: {x: -0.08267498, y: -0.056459527, z: 0.0788092, w: 0.99184996}
        inSlope: {x: -0.26121557, y: 0.82481414, z: 0.027818989, w: 0.022949394}
        outSlope: {x: -0.26121557, y: 0.82481414, z: 0.027818989, w: 0.022949394}
        tangentMode: 0
        weightedMode: 0
        inWeight: {x: 0.33333334, y: 0.33333334, z: 0.33333334, w: 0.33333334}
        outWeight: {x: 0.33333334, y: 0.33333334, z: 0.33333334, w: 0.33333334}
      - serializedVersion: 3
        time: 6.708335
        value: {x: -0.0710444, y: 0.14113416, z: 0.032246236, w: 0.98691136}
        inSlope: {x: 0.31646463, y: 0.5129647, z: -0.24105632, w: -0.04097297}
        outSlope: {x: 0.31646463, y: 0.5129647, z: -0.24105632, w: -0.04097297}
        tangentMode: 0
        weightedMode: 0
        inWeight: {x: 0.33333334, y: 0.33333334, z: 0.33333334, w: 0.33333334}
        outWeight: {x: 0.33333334, y: 0.33333334, z: 0.33333334, w: 0.33333334}
      - serializedVersion: 3
        time: 6.875001
        value: {x: -0.00327472, y: 0.19315425, z: 0.0024803535, w: 0.9811598}
        inSlope: {x: 0.43578613, y: 0.5154233, z: -0.09571868, w: -0.10095059}
        outSlope: {x: 0.43578613, y: 0.5154233, z: -0.09571868, w: -0.10095059}
        tangentMode: 0
        weightedMode: 0
        inWeight: {x: 0.33333334, y: 0.33333334, z: 0.33333334, w: 0.33333334}
        outWeight: {x: 0.33333334, y: 0.33333334, z: 0.33333334, w: 0.33333334}
      - serializedVersion: 3
        time: 7.125001
        value: {x: 0.049802616, y: 0.3229186, z: 0.012607379, w: 0.9450314}
        inSlope: {x: -0.12115571, y: 0.25658044, z: 0.15709016, w: -0.08273347}
        outSlope: {x: -0.12115571, y: 0.25658044, z: 0.15709016, w: -0.08273347}
        tangentMode: 0
        weightedMode: 0
        inWeight: {x: 0.33333334, y: 0.33333334, z: 0.33333334, w: 0.33333334}
        outWeight: {x: 0.33333334, y: 0.33333334, z: 0.33333334, w: 0.33333334}
      - serializedVersion: 3
        time: 7.291667
        value: {x: 0.024610715, y: 0.305611, z: 0.035735402, w: 0.9511673}
        inSlope: {x: -0.021369208, y: -0.4157201, z: 0.104359254, w: 0.13010052}
        outSlope: {x: -0.021369208, y: -0.4157201, z: 0.104359254, w: 0.13010052}
        tangentMode: 0
        weightedMode: 0
        inWeight: {x: 0.33333334, y: 0.33333334, z: 0.33333334, w: 0.33333334}
        outWeight: {x: 0.33333334, y: 0.33333334, z: 0.33333334, w: 0.33333334}
      - serializedVersion: 3
        time: 7.583335
        value: {x: 0.024022453, y: 0.27055946, z: 0.07807246, w: 0.95923156}
        inSlope: {x: 0.031007715, y: 0.04166375, z: 0.1145098, w: -0.021782232}
        outSlope: {x: 0.031007715, y: 0.04166375, z: 0.1145098, w: -0.021782232}
        tangentMode: 0
        weightedMode: 0
        inWeight: {x: 0.33333334, y: 0.33333334, z: 0.33333334, w: 0.33333334}
        outWeight: {x: 0.33333334, y: 0.33333334, z: 0.33333334, w: 0.33333334}
      - serializedVersion: 3
        time: 7.708333
        value: {x: 0.037893113, y: 0.27246773, z: 0.08199945, w: 0.9581086}
        inSlope: {x: 0.20963132, y: -0.065149896, z: -0.047070876, w: 0.0134886615}
        outSlope: {x: 0.20963132, y: -0.065149896, z: -0.047070876, w: 0.0134886615}
        tangentMode: 0
        weightedMode: 0
        inWeight: {x: 0.33333334, y: 0.33333334, z: 0.33333334, w: 0.33333334}
        outWeight: {x: 0.33333334, y: 0.33333334, z: 0.33333334, w: 0.33333334}
      m_PreInfinity: 2
      m_PostInfinity: 2
      m_RotationOrder: 4
    path: GLASS
  m_CompressedRotationCurves: []
  m_EulerCurves: []
  m_PositionCurves:
  - curve:
      serializedVersion: 2
      m_Curve:
      - serializedVersion: 3
        time: 0
        value: {x: 11.076478, y: 11.368615, z: 521.66724}
        inSlope: {x: 0, y: -0.83477247, z: 0}
        outSlope: {x: 0, y: -0.83477247, z: 0}
        tangentMode: 0
        weightedMode: 0
        inWeight: {x: 0.33333334, y: 0.33333334, z: 0.33333334}
        outWeight: {x: 0.33333334, y: 0.33333334, z: 0.33333334}
      - serializedVersion: 3
        time: 1.25
        value: {x: 11.076478, y: 9.654063, z: 521.66724}
        inSlope: {x: 7.6130745e-14, y: -1.889193, z: 1.1368857e-11}
        outSlope: {x: 1.7763433e-13, y: -1.8889787, z: 4.8722562e-12}
        tangentMode: 0
        weightedMode: 0
        inWeight: {x: 0.33333334, y: 0.33333334, z: 0.33333334}
        outWeight: {x: 0.33333334, y: 0.33333334, z: 0.33333334}
      - serializedVersion: 3
        time: 3.333333
        value: {x: 11.076478, y: 4.381098, z: 521.66724}
        inSlope: {x: 7.6130745e-14, y: -3.051719, z: 1.1368857e-11}
        outSlope: {x: 1.7763026e-13, y: -3.0518038, z: 4.872145e-12}
        tangentMode: 0
        weightedMode: 0
        inWeight: {x: 0.33333334, y: 0.33333334, z: 0.33333334}
        outWeight: {x: 0.33333334, y: 0.33333334, z: 0.33333334}
      - serializedVersion: 3
        time: 5.000001
        value: {x: 11.076478, y: -1.1088413, z: 521.66724}
        inSlope: {x: 7.612726e-14, y: -3.4586318, z: 1.1368337e-11}
        outSlope: {x: 1.776384e-13, y: -3.4598513, z: 4.8723677e-12}
        tangentMode: 0
        weightedMode: 0
        inWeight: {x: 0.33333334, y: 0.33333334, z: 0.33333334}
        outWeight: {x: 0.33333334, y: 0.33333334, z: 0.33333334}
      - serializedVersion: 3
        time: 7.083333
        value: {x: 11.076478, y: -8.289157, z: 521.66724}
        inSlope: {x: 7.6130745e-14, y: -3.313302, z: 1.1368857e-11}
        outSlope: {x: 1.7763026e-13, y: -3.313315, z: 4.872145e-12}
        tangentMode: 0
        weightedMode: 0
        inWeight: {x: 0.33333334, y: 0.33333334, z: 0.33333334}
        outWeight: {x: 0.33333334, y: 0.33333334, z: 0.33333334}
      - serializedVersion: 3
        time: 7.708333
        value: {x: 11.076479, y: -10.305492, z: 521.66724}
        inSlope: {x: 0, y: -3.1280556, z: 0}
        outSlope: {x: 0, y: -3.1280556, z: 0}
        tangentMode: 0
        weightedMode: 0
        inWeight: {x: 0.33333334, y: 0.33333334, z: 0.33333334}
        outWeight: {x: 0.33333334, y: 0.33333334, z: 0.33333334}
      m_PreInfinity: 2
      m_PostInfinity: 2
      m_RotationOrder: 4
    path: bALL
  - curve:
      serializedVersion: 2
      m_Curve:
      - serializedVersion: 3
        time: 0
        value: {x: 26.33076, y: 162.35663, z: 450.82736}
        inSlope: {x: 1.5226149e-13, y: 3.4512603e-12, z: -0}
        outSlope: {x: 3.5526866e-13, y: 2.6391387e-12, z: -0}
        tangentMode: 0
        weightedMode: 0
        inWeight: {x: 0.33333334, y: 0.33333334, z: 0.33333334}
        outWeight: {x: 0.33333334, y: 0.33333334, z: 0.33333334}
      - serializedVersion: 3
        time: 2.083333
        value: {x: 26.33076, y: 162.35663, z: 450.82736}
        inSlope: {x: 1.5226149e-13, y: 3.4512603e-12, z: -0}
        outSlope: {x: 3.5526053e-13, y: 2.6390784e-12, z: -0}
        tangentMode: 0
        weightedMode: 0
        inWeight: {x: 0.33333334, y: 0.33333334, z: 0.33333334}
        outWeight: {x: 0.33333334, y: 0.33333334, z: 0.33333334}
      - serializedVersion: 3
        time: 4.125001
        value: {x: 26.33076, y: 162.35663, z: 450.82736}
        inSlope: {x: 1.5225452e-13, y: 3.4511023e-12, z: -0}
        outSlope: {x: 3.552768e-13, y: 2.6391992e-12, z: -0}
        tangentMode: 0
        weightedMode: 0
        inWeight: {x: 0.33333334, y: 0.33333334, z: 0.33333334}
        outWeight: {x: 0.33333334, y: 0.33333334, z: 0.33333334}
      - serializedVersion: 3
        time: 5.833333
        value: {x: 26.33076, y: 162.35663, z: 450.82736}
        inSlope: {x: 1.5226149e-13, y: 3.4512603e-12, z: -0}
        outSlope: {x: -0.0014704275, y: -0.000060576738, z: -0.00024045001}
        tangentMode: 0
        weightedMode: 0
        inWeight: {x: 0.33333334, y: 0.33333334, z: 0.33333334}
        outWeight: {x: 0.33333334, y: 0.33333334, z: 0.33333334}
      - serializedVersion: 3
        time: 5.875001
        value: {x: 24.303368, y: 159.82864, z: 449.6359}
        inSlope: {x: -115.09217, y: -56.136738, z: -47.97938}
        outSlope: {x: -115.15964, y: -56.155113, z: -48.003025}
        tangentMode: 0
        weightedMode: 0
        inWeight: {x: 0.33333334, y: 0.33333334, z: 0.33333334}
        outWeight: {x: 0.33333334, y: 0.33333334, z: 0.33333334}
      - serializedVersion: 3
        time: 5.916667
        value: {x: 16.739632, y: 157.67853, z: 446.82883}
        inSlope: {x: -164.232, y: -47.90652, z: -98.39442}
        outSlope: {x: -164.19756, y: -47.899303, z: -98.387054}
        tangentMode: 0
        weightedMode: 0
        inWeight: {x: 0.33333334, y: 0.33333334, z: 0.33333334}
        outWeight: {x: 0.33333334, y: 0.33333334, z: 0.33333334}
      - serializedVersion: 3
        time: 5.958333
        value: {x: 10.621967, y: 155.83754, z: 441.43817}
        inSlope: {x: -116.22286, y: -49.151413, z: -141.45062}
        outSlope: {x: -116.22442, y: -49.153923, z: -141.46426}
        tangentMode: 0
        weightedMode: 0
        inWeight: {x: 0.33333334, y: 0.33333334, z: 0.33333334}
        outWeight: {x: 0.33333334, y: 0.33333334, z: 0.33333334}
      - serializedVersion: 3
        time: 6.000001
        value: {x: 7.054232, y: 153.58246, z: 435.04083}
        inSlope: {x: -55.36714, y: -68.57123, z: -146.30508}
        outSlope: {x: -55.377697, y: -68.600365, z: -146.346}
        tangentMode: 0
        weightedMode: 0
        inWeight: {x: 0.33333334, y: 0.33333334, z: 0.33333334}
        outWeight: {x: 0.33333334, y: 0.33333334, z: 0.33333334}
      - serializedVersion: 3
        time: 6.083333
        value: {x: 6.4471173, y: 145.73917, z: 424.0067}
        inSlope: {x: 16.694647, y: -100.891205, z: -126.10636}
        outSlope: {x: 16.695704, y: -100.895676, z: -126.11172}
        tangentMode: 0
        weightedMode: 0
        inWeight: {x: 0.33333334, y: 0.33333334, z: 0.33333334}
        outWeight: {x: 0.33333334, y: 0.33333334, z: 0.33333334}
      - serializedVersion: 3
        time: 6.166667
        value: {x: 8.646765, y: 138.39903, z: 413.95758}
        inSlope: {x: 32.32017, y: -67.014366, z: -101.40199}
        outSlope: {x: 32.31564, y: -66.9999, z: -101.37747}
        tangentMode: 0
        weightedMode: 0
        inWeight: {x: 0.33333334, y: 0.33333334, z: 0.33333334}
        outWeight: {x: 0.33333334, y: 0.33333334, z: 0.33333334}
      - serializedVersion: 3
        time: 6.250001
        value: {x: 11.771573, y: 135.36258, z: 408.39584}
        inSlope: {x: 39.49946, y: -0.0004860475, z: -19.459536}
        outSlope: {x: 39.5138, y: -0.0016393866, z: -19.462698}
        tangentMode: 0
        weightedMode: 0
        inWeight: {x: 0.33333334, y: 0.33333334, z: 0.33333334}
        outWeight: {x: 0.33333334, y: 0.33333334, z: 0.33333334}
      - serializedVersion: 3
        time: 6.333333
        value: {x: 14.641583, y: 135.0329, z: 408.86072}
        inSlope: {x: 28.554728, y: -15.950594, z: 28.020584}
        outSlope: {x: 28.55549, y: -15.952582, z: 28.01759}
        tangentMode: 0
        weightedMode: 0
        inWeight: {x: 0.33333334, y: 0.33333334, z: 0.33333334}
        outWeight: {x: 0.33333334, y: 0.33333334, z: 0.33333334}
      - serializedVersion: 3
        time: 6.458333
        value: {x: 18.321087, y: 129.88962, z: 415.1614}
        inSlope: {x: 34.286835, y: -65.59497, z: 61.666424}
        outSlope: {x: 34.28791, y: -65.59411, z: 61.663357}
        tangentMode: 0
        weightedMode: 0
        inWeight: {x: 0.33333334, y: 0.33333334, z: 0.33333334}
        outWeight: {x: 0.33333334, y: 0.33333334, z: 0.33333334}
      - serializedVersion: 3
        time: 6.708333
        value: {x: 26.745403, y: 108.01916, z: 426.6018}
        inSlope: {x: 17.636715, y: -86.41725, z: 5.885481}
        outSlope: {x: 17.636889, y: -86.42032, z: 5.890898}
        tangentMode: 0
        weightedMode: 0
        inWeight: {x: 0.33333334, y: 0.33333334, z: 0.33333334}
        outWeight: {x: 0.33333334, y: 0.33333334, z: 0.33333334}
      - serializedVersion: 3
        time: 6.791667
        value: {x: 27.171225, y: 101.800964, z: 426.0912}
        inSlope: {x: -0.0008018638, y: -60.70713, z: -21.03673}
        outSlope: {x: -0.00020782351, y: -60.695568, z: -21.043007}
        tangentMode: 0
        weightedMode: 0
        inWeight: {x: 0.33333334, y: 0.33333334, z: 0.33333334}
        outWeight: {x: 0.33333334, y: 0.33333334, z: 0.33333334}
      - serializedVersion: 3
        time: 6.875001
        value: {x: 28.844334, y: 97.667435, z: 423.48502}
        inSlope: {x: 38.599426, y: -40.347946, z: -35.397316}
        outSlope: {x: 38.615093, y: -40.361057, z: -35.411423}
        tangentMode: 0
        weightedMode: 0
        inWeight: {x: 0.33333334, y: 0.33333334, z: 0.33333334}
        outWeight: {x: 0.33333334, y: 0.33333334, z: 0.33333334}
      - serializedVersion: 3
        time: 7.041667
        value: {x: 35.576813, y: 94.12043, z: 418.31482}
        inSlope: {x: 28.656818, y: -0.0021967369, z: -18.633442}
        outSlope: {x: 28.651129, y: 0.00072261563, z: -18.629189}
        tangentMode: 0
        weightedMode: 0
        inWeight: {x: 0.33333334, y: 0.33333334, z: 0.33333334}
        outWeight: {x: 0.33333334, y: 0.33333334, z: 0.33333334}
      - serializedVersion: 3
        time: 7.250001
        value: {x: 34.838284, y: 98.8658, z: 419.76672}
        inSlope: {x: -46.252804, y: 17.442186, z: 26.520636}
        outSlope: {x: -46.2739, y: 17.44604, z: 26.525581}
        tangentMode: 0
        weightedMode: 0
        inWeight: {x: 0.33333334, y: 0.33333334, z: 0.33333334}
        outWeight: {x: 0.33333334, y: 0.33333334, z: 0.33333334}
      - serializedVersion: 3
        time: 7.333333
        value: {x: 30.292566, y: 99.266785, z: 421.86752}
        inSlope: {x: -42.30463, y: -1.217478, z: 18.179647}
        outSlope: {x: -42.3057, y: -1.2172129, z: 18.182898}
        tangentMode: 0
        weightedMode: 0
        inWeight: {x: 0.33333334, y: 0.33333334, z: 0.33333334}
        outWeight: {x: 0.33333334, y: 0.33333334, z: 0.33333334}
      - serializedVersion: 3
        time: 7.541667
        value: {x: 27.931654, y: 99.047745, z: 423.4242}
        inSlope: {x: 1.8255042, y: -1.6651777, z: 2.564701}
        outSlope: {x: 1.8253536, y: -1.666468, z: 2.5623643}
        tangentMode: 0
        weightedMode: 0
        inWeight: {x: 0.33333334, y: 0.33333334, z: 0.33333334}
        outWeight: {x: 0.33333334, y: 0.33333334, z: 0.33333334}
      - serializedVersion: 3
        time: 7.708333
        value: {x: 27.644838, y: 97.95015, z: 423.35074}
        inSlope: {x: -16.90994, y: -15.278299, z: -3.789922}
        outSlope: {x: -16.910465, y: -15.280372, z: -3.7843077}
        tangentMode: 0
        weightedMode: 0
        inWeight: {x: 0.33333334, y: 0.33333334, z: 0.33333334}
        outWeight: {x: 0.33333334, y: 0.33333334, z: 0.33333334}
      m_PreInfinity: 2
      m_PostInfinity: 2
      m_RotationOrder: 4
    path: GLASS
  m_ScaleCurves:
  - curve:
      serializedVersion: 2
      m_Curve:
      - serializedVersion: 3
        time: 0
        value: {x: 0.1657884, y: 0.1657884, z: 0.1657884}
        inSlope: {x: 0, y: 0, z: 0}
        outSlope: {x: 0, y: 0, z: 0}
        tangentMode: 0
        weightedMode: 0
        inWeight: {x: 0.33333334, y: 0.33333334, z: 0.33333334}
        outWeight: {x: 0.33333334, y: 0.33333334, z: 0.33333334}
      - serializedVersion: 3
        time: 7.708333
        value: {x: 0.1657884, y: 0.1657884, z: 0.1657884}
        inSlope: {x: 0, y: 0, z: 0}
        outSlope: {x: 0, y: 0, z: 0}
        tangentMode: 0
        weightedMode: 0
        inWeight: {x: 0.33333334, y: 0.33333334, z: 0.33333334}
        outWeight: {x: 0.33333334, y: 0.33333334, z: 0.33333334}
      m_PreInfinity: 2
      m_PostInfinity: 2
      m_RotationOrder: 4
    path: bALL
  - curve:
      serializedVersion: 2
      m_Curve:
      - serializedVersion: 3
        time: 0
        value: {x: 0.08302834, y: 0.11838271, z: 0.08302834}
        inSlope: {x: 0, y: 0, z: 0}
        outSlope: {x: 0, y: 0, z: 0}
        tangentMode: 0
        weightedMode: 0
        inWeight: {x: 0.33333334, y: 0.33333334, z: 0.33333334}
        outWeight: {x: 0.33333334, y: 0.33333334, z: 0.33333334}
      - serializedVersion: 3
        time: 7.708333
        value: {x: 0.08302834, y: 0.11838271, z: 0.08302834}
        inSlope: {x: 0, y: 0, z: 0}
        outSlope: {x: 0, y: 0, z: 0}
        tangentMode: 0
        weightedMode: 0
        inWeight: {x: 0.33333334, y: 0.33333334, z: 0.33333334}
        outWeight: {x: 0.33333334, y: 0.33333334, z: 0.33333334}
      m_PreInfinity: 2
      m_PostInfinity: 2
      m_RotationOrder: 4
    path: GLASS
  m_FloatCurves:
  - curve:
      serializedVersion: 2
      m_Curve:
      - serializedVersion: 3
        time: 0
        value: 1
        inSlope: 0
        outSlope: 0
        tangentMode: 0
        weightedMode: 0
        inWeight: 0.33333334
        outWeight: 0.33333334
      - serializedVersion: 3
        time: 7.708333
        value: 1
        inSlope: 0
        outSlope: 0
        tangentMode: 0
        weightedMode: 0
        inWeight: 0.33333334
        outWeight: 0.33333334
      m_PreInfinity: 2
      m_PostInfinity: 2
      m_RotationOrder: 4
    attribute: m_Enabled
    path: bALL
    classID: 25
    script: {fileID: 0}
  - curve:
      serializedVersion: 2
      m_Curve:
      - serializedVersion: 3
        time: 0
        value: 1
        inSlope: 0
        outSlope: 0
        tangentMode: 0
        weightedMode: 0
        inWeight: 0.33333334
        outWeight: 0.33333334
      - serializedVersion: 3
        time: 7.708333
        value: 1
        inSlope: 0
        outSlope: 0
        tangentMode: 0
        weightedMode: 0
        inWeight: 0.33333334
        outWeight: 0.33333334
      m_PreInfinity: 2
      m_PostInfinity: 2
      m_RotationOrder: 4
    attribute: m_Enabled
    path: GLASS
    classID: 25
    script: {fileID: 0}
  m_PPtrCurves: []
  m_SampleRate: 24
  m_WrapMode: 0
  m_Bounds:
    m_Center: {x: 0, y: 0, z: 0}
    m_Extent: {x: 0, y: 0, z: 0}
  m_ClipBindingConstant:
    genericBindings: []
    pptrCurveMapping: []
  m_AnimationClipSettings:
    serializedVersion: 2
    m_AdditiveReferencePoseClip: {fileID: 0}
    m_AdditiveReferencePoseTime: 0
    m_StartTime: 0
    m_StopTime: 7.708333
    m_OrientationOffsetY: 0
    m_Level: 0
    m_CycleOffset: 0
    m_HasAdditiveReferencePose: 0
    m_LoopTime: 0
    m_LoopBlend: 0
    m_LoopBlendOrientation: 0
    m_LoopBlendPositionY: 0
    m_LoopBlendPositionXZ: 0
    m_KeepOriginalOrientation: 0
    m_KeepOriginalPositionY: 1
    m_KeepOriginalPositionXZ: 0
    m_HeightFromFeet: 0
    m_Mirror: 0
  m_EditorCurves: []
  m_EulerEditorCurves: []
  m_HasGenericRootTransform: 0
  m_HasMotionFloatCurves: 0
  m_Events: []
