%YAML 1.1
%TAG !u! tag:unity3d.com,2011:
--- !u!114 &-6546593455090894484
MonoBehaviour:
  m_ObjectHideFlags: 11
  m_CorrespondingSourceObject: {fileID: 0}
  m_PrefabInstance: {fileID: 0}
  m_PrefabAsset: {fileID: 0}
  m_GameObject: {fileID: 0}
  m_Enabled: 1
  m_EditorHideFlags: 0
  m_Script: {fileID: 11500000, guid: d0353a89b1f911e48b9e16bdc9f2e058, type: 3}
  m_Name: 
  m_EditorClassIdentifier: 
  version: 1
--- !u!21 &2100000
Material:
  serializedVersion: 6
  m_ObjectHideFlags: 0
  m_CorrespondingSourceObject: {fileID: 0}
  m_PrefabInstance: {fileID: 0}
  m_PrefabAsset: {fileID: 0}
  m_Name: Stylized Water 4
  m_Shader: {fileID: 4800000, guid: 650dd9526735d5b46b79224bc6e94025, type: 3}
  m_ShaderKeywords: 
  m_LightmapFlags: 4
  m_EnableInstancingVariants: 0
  m_DoubleSidedGI: 0
  m_CustomRenderQueue: 3050
  stringTagMap:
    RenderType: Transparent
  disabledShaderPasses:
  - SHADOWCASTER
  m_SavedProperties:
    serializedVersion: 3
    m_TexEnvs:
    - Texture2D_899A00C9:
        m_Texture: {fileID: 0}
        m_Scale: {x: 1, y: 1}
        m_Offset: {x: 0, y: 0}
    - Texture2D_A6A495A3:
        m_Texture: {fileID: 0}
        m_Scale: {x: 1, y: 1}
        m_Offset: {x: 0, y: 0}
    - _BaseMap:
        m_Texture: {fileID: 0}
        m_Scale: {x: 1, y: 1}
        m_Offset: {x: 0, y: 0}
    - _BumpMap:
        m_Texture: {fileID: 0}
        m_Scale: {x: 1, y: 1}
        m_Offset: {x: 0, y: 0}
    - _EmissionMap:
        m_Texture: {fileID: 0}
        m_Scale: {x: 1, y: 1}
        m_Offset: {x: 0, y: 0}
    - _FoamTexture:
        m_Texture: {fileID: 2800000, guid: 581fcfd543a4445829bb923bace720da, type: 3}
        m_Scale: {x: 1, y: 1}
        m_Offset: {x: 0, y: 0}
    - _MainTex:
        m_Texture: {fileID: 0}
        m_Scale: {x: 1, y: 1}
        m_Offset: {x: 0, y: 0}
    - _MainTexture:
        m_Texture: {fileID: 0}
        m_Scale: {x: 1, y: 1}
        m_Offset: {x: 0, y: 0}
    - _MetallicGlossMap:
        m_Texture: {fileID: 0}
        m_Scale: {x: 1, y: 1}
        m_Offset: {x: 0, y: 0}
    - _OcclusionMap:
        m_Texture: {fileID: 0}
        m_Scale: {x: 1, y: 1}
        m_Offset: {x: 0, y: 0}
    - _SparklesNormalMap:
        m_Texture: {fileID: 2800000, guid: b87c6510a4b3945a197eabf8b0d60278, type: 3}
        m_Scale: {x: 1, y: 1}
        m_Offset: {x: 0, y: 0}
    - _SpecGlossMap:
        m_Texture: {fileID: 0}
        m_Scale: {x: 1, y: 1}
        m_Offset: {x: 0, y: 0}
    - _WaveNormalMap:
        m_Texture: {fileID: 2800000, guid: ed512d00c2b0c0748bcb5cf3fce1a4c8, type: 3}
        m_Scale: {x: 1, y: 1}
        m_Offset: {x: 0, y: 0}
    m_Floats:
    - Vector1_38BD3441: 0.4
    - Vector1_786FD7DA: 0.015
    - Vector1_A11F73AD: 0.1
    - Vector1_CF8B0D8D: 6
    - Vector1_ED5ABFD9: 0.05
    - Vector1_F3F6B787: 0
    - _AlphaClip: 0
    - _Blend: 0
    - _BumpScale: 1
    - _Cull: 2
    - _Cutoff: 0.5
    - _DepthDensity: 0
    - _DistanceDensity: 0
    - _DstBlend: 10
    - _EdgeFoamDepth: 0
    - _EnvironmentReflections: 0
    - _FancyShadows: 0
    - _FoamContribution: 0
    - _FoamNoiseScale: 0
    - _FoamScale: 0
    - _FoamSpeed: 0
    - _GlossMapScale: 0
    - _Glossiness: 0
    - _GlossyReflections: 0
    - _MaxSampleDistance: 49
    - _MaxShadowDistance: 0
    - _Metallic: 0
    - _OcclusionStrength: 1
    - _QueueOffset: 0
    - _ReceiveShadows: 1
    - _ReflectionContribution: 0
    - _RefractionStrength: 0
    - _SampleGI: 0
    - _Smoothness: 0
    - _SmoothnessTextureChannel: 0
    - _SparkleExponent: 25000
    - _SparkleScale: 0.1
    - _SparkleSpeed: 0
    - _SpecularHighlights: 1
    - _SrcBlend: 5
    - _SunSpecularExponent: 0
    - _Surface: 1
    - _VertexNormalDelta: 0.01
    - _Wave1Amplitude: 0.04
    - _Wave1Direction: 0
    - _Wave1Speed: 0.5
    - _Wave1Wavelength: 0.25
    - _Wave2Amplitude: 0
    - _Wave2Direction: 0
    - _Wave2Speed: 1
    - _Wave2Wavelength: 0.03
    - _WaveNormalDelta: 0.01
    - _WaveNormalScale: 0
    - _WaveNormalSpeed: 0
    - _WorkflowMode: 1
    - _ZWrite: 0
    m_Colors:
    - Color_28180829: {r: 0, g: 0.5955162, b: 1, a: 0.46666667}
    - Color_57D43A16: {r: 0.9528302, g: 0.9528302, b: 0.9528302, a: 0}
    - Color_F689E8B9: {r: 0.08962262, g: 0.7505508, b: 1, a: 1}
    - _BaseColor: {r: 0.23113209, g: 0.71608996, b: 1, a: 0.41960785}
    - _Color: {r: 1, g: 1, b: 1, a: 1}
    - _DeepColor: {r: 0.20392156, g: 1, b: 0.41706988, a: 1}
    - _EdgeFoamColor: {r: 1, g: 1, b: 1, a: 1}
    - _EmissionColor: {r: 0, g: 0, b: 0, a: 1}
    - _FarColor: {r: 0.08343716, g: 0.29864755, b: 0.7075472, a: 1}
    - _SSSColor: {r: 0, g: 0, b: 0, a: 1}
    - _ShadowColor: {r: 0, g: 0.829268, b: 1, a: 1}
    - _ShallowColor: {r: 1.1505303, g: 1.299991, b: 0.8891448, a: 1}
    - _SparkleColor: {r: 0.740566, g: 1, b: 0.9357789, a: 1}
    - _SpecColor: {r: 0.2, g: 0.2, b: 0.2, a: 1}
    - _SunSpecularColor: {r: 0, g: 0, b: 0, a: 1}
