%YAML 1.1
%TAG !u! tag:unity3d.com,2011:
--- !u!114 &11400000
MonoBehaviour:
  m_ObjectHideFlags: 0
  m_CorrespondingSourceObject: {fileID: 0}
  m_PrefabInstance: {fileID: 0}
  m_PrefabAsset: {fileID: 0}
  m_GameObject: {fileID: 0}
  m_Enabled: 1
  m_EditorHideFlags: 0
  m_Script: {fileID: 11500000, guid: 46750dfaf3d66e54e9d8a391f0a3032e, type: 3}
  m_Name: SkinShop
  m_EditorClassIdentifier: 
  shopType: 0
  customizationGroups:
  - {fileID: 11400000, guid: 9ab592ff7b7cd2b4bb027b048f32d937, type: 2}
  - {fileID: 11400000, guid: d5f11ed2946db9d40bf51ed565197c70, type: 2}
  - {fileID: 11400000, guid: fd2acfa11a8ad564b860acfa573a62c7, type: 2}
  - {fileID: 11400000, guid: 0d8a263b41630c94899ce8ed75fb37fd, type: 2}
