{
  "project_info": {
    "project_number": "38416708847",
    "firebase_url": "https://prankster-d31d0.firebaseio.com",
    "project_id": "prankster-d31d0",
    "storage_bucket": "prankster-d31d0.appspot.com"
  },
  "client": [
    {
      "client_info": {
        "mobilesdk_app_id": "1:38416708847:android:2d041a53ef2c19fa4b971a",
        "android_client_info": {
          "package_name": "com.alphapotato.prankster"
        }
      },
      "oauth_client": [
        {
          "client_id": "38416708847-9o2muao0ppaoqk42nqssmqo828i2ai2d.apps.googleusercontent.com",
          "client_type": 3
        }
      ],
      "api_key": [
        {
          "current_key": "AIzaSyBdHzoT-2kitolkBDQGZ9Gt3WPDdLrt6BM"
        }
      ],
      "services": {
        "appinvite_service": {
          "other_platform_oauth_client": [
            {
              "client_id": "38416708847-9o2muao0ppaoqk42nqssmqo828i2ai2d.apps.googleusercontent.com",
              "client_type": 3
            }
          ]
        }
      }
    }
  ],
  "configuration_version": "1"
}