%YAML 1.1
%TAG !u! tag:unity3d.com,2011:
--- !u!74 &7400000
AnimationClip:
  m_ObjectHideFlags: 0
  m_CorrespondingSourceObject: {fileID: 0}
  m_PrefabInstance: {fileID: 0}
  m_PrefabAsset: {fileID: 0}
  m_Name: success2
  serializedVersion: 6
  m_Legacy: 0
  m_Compressed: 0
  m_UseHighQualityCurve: 1
  m_RotationCurves:
  - curve:
      serializedVersion: 2
      m_Curve:
      - serializedVersion: 3
        time: 0
        value: {x: 2.4492942e-16, y: 2.653736e-11, z: 1.5308789e-12, w: 1}
        inSlope: {x: 8.144548e-23, y: 3.016895e-11, z: 1.7403769e-12, w: 0}
        outSlope: {x: 8.144548e-23, y: 3.016895e-11, z: 1.7403769e-12, w: 0}
        tangentMode: 0
        weightedMode: 0
        inWeight: {x: 0.33333334, y: 0.33333334, z: 0.33333334, w: 0.33333334}
        outWeight: {x: 0.33333334, y: 0.33333334, z: 0.33333334, w: 0.33333334}
      - serializedVersion: 3
        time: 0.79166794
        value: {x: 2.4492937e-16, y: -0, z: -0, w: 1}
        inSlope: {x: -3.1762766e-22, y: -1.2746332e-10, z: -7.353064e-12, w: 0}
        outSlope: {x: -3.1762766e-22, y: -1.2746332e-10, z: -7.353064e-12, w: 0}
        tangentMode: 0
        weightedMode: 0
        inWeight: {x: 0.33333334, y: 0.33333334, z: 0.33333334, w: 0.33333334}
        outWeight: {x: 0.33333334, y: 0.33333334, z: 0.33333334, w: 0.33333334}
      - serializedVersion: 3
        time: 1.0833359
        value: {x: -0.00270748, y: -0.08116399, z: -0.0052974736, w: 0.996683}
        inSlope: {x: -0.021264384, y: -0.5789593, z: -0.036358, w: -0.048188675}
        outSlope: {x: -0.021264384, y: -0.5789593, z: -0.036358, w: -0.048188675}
        tangentMode: 0
        weightedMode: 0
        inWeight: {x: 0.33333334, y: 0.33333334, z: 0.33333334, w: 0.33333334}
        outWeight: {x: 0.33333334, y: 0.33333334, z: 0.33333334, w: 0.33333334}
      - serializedVersion: 3
        time: 1.3333359
        value: {x: -0.004789969, y: -0.2570051, z: -0.0140831545, w: 0.9662956}
        inSlope: {x: 0.065424755, y: -0.79853004, z: -0.00830676, w: -0.21391095}
        outSlope: {x: 0.065424755, y: -0.79853004, z: -0.00830676, w: -0.21391095}
        tangentMode: 0
        weightedMode: 0
        inWeight: {x: 0.33333334, y: 0.33333334, z: 0.33333334, w: 0.33333334}
        outWeight: {x: 0.33333334, y: 0.33333334, z: 0.33333334, w: 0.33333334}
      - serializedVersion: 3
        time: 1.5833359
        value: {x: 0.025725957, y: -0.5280002, z: 0.007902453, w: 0.84881777}
        inSlope: {x: 0.042402957, y: -1.1667929, z: 0.06367308, w: -0.7270005}
        outSlope: {x: 0.042402957, y: -1.1667929, z: 0.06367308, w: -0.7270005}
        tangentMode: 0
        weightedMode: 0
        inWeight: {x: 0.33333334, y: 0.33333334, z: 0.33333334, w: 0.33333334}
        outWeight: {x: 0.33333334, y: 0.33333334, z: 0.33333334, w: 0.33333334}
      - serializedVersion: 3
        time: 1.7916679
        value: {x: 0.013295081, y: -0.73226345, z: -0.0015492556, w: 0.6808899}
        inSlope: {x: -0.14000018, y: -0.8704618, z: -0.12659204, w: -0.93694496}
        outSlope: {x: -0.14000018, y: -0.8704618, z: -0.12659204, w: -0.93694496}
        tangentMode: 0
        weightedMode: 0
        inWeight: {x: 0.33333334, y: 0.33333334, z: 0.33333334, w: 0.33333334}
        outWeight: {x: 0.33333334, y: 0.33333334, z: 0.33333334, w: 0.33333334}
      - serializedVersion: 3
        time: 1.9583359
        value: {x: -0.006980534, y: -0.88120854, z: -0.02495377, w: 0.472017}
        inSlope: {x: -0.06960094, y: -0.83369493, z: 0.032854583, w: -1.5545676}
        outSlope: {x: -0.06960094, y: -0.83369493, z: 0.032854583, w: -1.5545676}
        tangentMode: 0
        weightedMode: 0
        inWeight: {x: 0.33333334, y: 0.33333334, z: 0.33333334, w: 0.33333334}
        outWeight: {x: 0.33333334, y: 0.33333334, z: 0.33333334, w: 0.33333334}
      - serializedVersion: 3
        time: 2.0833359
        value: {x: -0.0181401, y: -0.956589, z: 0.0025887259, w: 0.29086387}
        inSlope: {x: -0.06685718, y: -0.37191308, z: 0.20315851, w: -1.2097}
        outSlope: {x: -0.06685718, y: -0.37191308, z: 0.20315851, w: -1.2097}
        tangentMode: 0
        weightedMode: 0
        inWeight: {x: 0.33333334, y: 0.33333334, z: 0.33333334, w: 0.33333334}
        outWeight: {x: 0.33333334, y: 0.33333334, z: 0.33333334, w: 0.33333334}
      - serializedVersion: 3
        time: 2.2083359
        value: {x: -0.010072897, y: -0.9859318, z: 0.0062016556, w: 0.1667292}
        inSlope: {x: 0.050798446, y: -0.1314063, z: -0.0166097, w: -0.7612328}
        outSlope: {x: 0.050798446, y: -0.1314063, z: -0.0166097, w: -0.7612328}
        tangentMode: 0
        weightedMode: 0
        inWeight: {x: 0.33333334, y: 0.33333334, z: 0.33333334, w: 0.33333334}
        outWeight: {x: 0.33333334, y: 0.33333334, z: 0.33333334, w: 0.33333334}
      - serializedVersion: 3
        time: 2.375
        value: {x: -0.005243251, y: -0.9991858, z: -0.0016104163, w: 0.03997071}
        inSlope: {x: 0.055690404, y: -0.03035436, z: -0.011831755, w: -0.70993924}
        outSlope: {x: 0.055690404, y: -0.03035436, z: -0.011831755, w: -0.70993924}
        tangentMode: 0
        weightedMode: 0
        inWeight: {x: 0.33333334, y: 0.33333334, z: 0.33333334, w: 0.33333334}
        outWeight: {x: 0.33333334, y: 0.33333334, z: 0.33333334, w: 0.33333334}
      - serializedVersion: 3
        time: 2.5
        value: {x: -2.8998589e-16, y: -0.99991125, z: 5.0905177e-16, w: -0.013326331}
        inSlope: {x: 0.009687735, y: 0.0008268861, z: 0.0054363804, w: -0.08510531}
        outSlope: {x: 0.009687735, y: 0.0008268861, z: 0.0054363804, w: -0.08510531}
        tangentMode: 0
        weightedMode: 0
        inWeight: {x: 0.33333334, y: 0.33333334, z: 0.33333334, w: 0.33333334}
        outWeight: {x: 0.33333334, y: 0.33333334, z: 0.33333334, w: 0.33333334}
      - serializedVersion: 3
        time: 2.8333359
        value: {x: -2.8998589e-16, y: -0.99991125, z: 5.0905177e-16, w: -0.013326331}
        inSlope: {x: 0, y: 0, z: 0, w: 0}
        outSlope: {x: 0, y: 0, z: 0, w: 0}
        tangentMode: 0
        weightedMode: 0
        inWeight: {x: 0.33333334, y: 0.33333334, z: 0.33333334, w: 0.33333334}
        outWeight: {x: 0.33333334, y: 0.33333334, z: 0.33333334, w: 0.33333334}
      - serializedVersion: 3
        time: 4.916668
        value: {x: -2.8998589e-16, y: -0.99991125, z: 5.0905177e-16, w: -0.013326331}
        inSlope: {x: 0, y: 0, z: 0, w: 0}
        outSlope: {x: 0, y: 0, z: 0, w: 0}
        tangentMode: 0
        weightedMode: 0
        inWeight: {x: 0.33333334, y: 0.33333334, z: 0.33333334, w: 0.33333334}
        outWeight: {x: 0.33333334, y: 0.33333334, z: 0.33333334, w: 0.33333334}
      - serializedVersion: 3
        time: 6.625
        value: {x: -2.8998589e-16, y: -0.99991125, z: 5.0905177e-16, w: -0.013326331}
        inSlope: {x: 0, y: 0, z: 0, w: 0}
        outSlope: {x: 0, y: 0, z: 0, w: 0}
        tangentMode: 0
        weightedMode: 0
        inWeight: {x: 0.33333334, y: 0.33333334, z: 0.33333334, w: 0.33333334}
        outWeight: {x: 0.33333334, y: 0.33333334, z: 0.33333334, w: 0.33333334}
      - serializedVersion: 3
        time: 6.666668
        value: {x: -2.8998589e-16, y: -0.99991125, z: 5.0905177e-16, w: -0.013326331}
        inSlope: {x: -0.54693544, y: 0.023889529, z: 0.54692906, w: 0.16276029}
        outSlope: {x: -0.54693544, y: 0.023889529, z: 0.54692906, w: 0.16276029}
        tangentMode: 0
        weightedMode: 0
        inWeight: {x: 0.33333334, y: 0.33333334, z: 0.33333334, w: 0.33333334}
        outWeight: {x: 0.33333334, y: 0.33333334, z: 0.33333334, w: 0.33333334}
      m_PreInfinity: 2
      m_PostInfinity: 2
      m_RotationOrder: 4
    path: LawnMower1
  - curve:
      serializedVersion: 2
      m_Curve:
      - serializedVersion: 3
        time: 0
        value: {x: -0.24716878, y: 0.47705156, z: 0.21176897, w: 0.8163843}
        inSlope: {x: 0.85557854, y: -0.63508207, z: -1.8233175, w: 1.0804476}
        outSlope: {x: 0.85557854, y: -0.63508207, z: -1.8233175, w: 1.0804476}
        tangentMode: 0
        weightedMode: 0
        inWeight: {x: 0.33333334, y: 0.33333334, z: 0.33333334, w: 0.33333334}
        outWeight: {x: 0.33333334, y: 0.33333334, z: 0.33333334, w: 0.33333334}
      - serializedVersion: 3
        time: 0.08333588
        value: {x: -0.15876687, y: 0.40945196, z: 0.06158074, w: 0.89629793}
        inSlope: {x: 1.0385323, y: -0.84645474, z: -1.4158405, w: 0.6923506}
        outSlope: {x: 1.0385323, y: -0.84645474, z: -1.4158405, w: 0.6923506}
        tangentMode: 0
        weightedMode: 0
        inWeight: {x: 0.33333334, y: 0.33333334, z: 0.33333334, w: 0.33333334}
        outWeight: {x: 0.33333334, y: 0.33333334, z: 0.33333334, w: 0.33333334}
      - serializedVersion: 3
        time: 0.16666794
        value: {x: -0.092405975, y: 0.36091065, z: -0.013106837, w: 0.92791855}
        inSlope: {x: 0.19865084, y: 0.09749423, z: -0.17402934, w: -0.015790224}
        outSlope: {x: 0.19865084, y: 0.09749423, z: -0.17402934, w: -0.015790224}
        tangentMode: 0
        weightedMode: 0
        inWeight: {x: 0.33333334, y: 0.33333334, z: 0.33333334, w: 0.33333334}
        outWeight: {x: 0.33333334, y: 0.33333334, z: 0.33333334, w: 0.33333334}
      - serializedVersion: 3
        time: 0.25
        value: {x: -0.12888476, y: 0.43228686, z: 0.05204806, w: 0.89095896}
        inSlope: {x: -0.7386912, y: 1.1716993, z: 1.6895244, w: -0.8150778}
        outSlope: {x: -0.7386912, y: 1.1716993, z: 1.6895244, w: -0.8150778}
        tangentMode: 0
        weightedMode: 0
        inWeight: {x: 0.33333334, y: 0.33333334, z: 0.33333334, w: 0.33333334}
        outWeight: {x: 0.33333334, y: 0.33333334, z: 0.33333334, w: 0.33333334}
      - serializedVersion: 3
        time: 0.33333588
        value: {x: -0.19591273, y: 0.52962327, z: 0.2466975, w: 0.78756446}
        inSlope: {x: -0.6794168, y: 1.0094657, z: 2.5276685, w: -1.6318021}
        outSlope: {x: -0.6794168, y: 1.0094657, z: 2.5276685, w: -1.6318021}
        tangentMode: 0
        weightedMode: 0
        inWeight: {x: 0.33333334, y: 0.33333334, z: 0.33333334, w: 0.33333334}
        outWeight: {x: 0.33333334, y: 0.33333334, z: 0.33333334, w: 0.33333334}
      - serializedVersion: 3
        time: 0.41666794
        value: {x: -0.21788482, y: 0.5997382, z: 0.40788743, w: 0.6530453}
        inSlope: {x: 0.50401944, y: 1.0951333, z: 0.62703586, w: -1.2149936}
        outSlope: {x: 0.50401944, y: 1.0951333, z: 0.62703586, w: -1.2149936}
        tangentMode: 0
        weightedMode: 0
        inWeight: {x: 0.33333334, y: 0.33333334, z: 0.33333334, w: 0.33333334}
        outWeight: {x: 0.33333334, y: 0.33333334, z: 0.33333334, w: 0.33333334}
      - serializedVersion: 3
        time: 0.45833588
        value: {x: -0.1768188, y: 0.6573363, z: 0.40179, w: 0.612543}
        inSlope: {x: 1.3648145, y: 1.6786399, z: -0.9157461, w: -0.92048216}
        outSlope: {x: 1.3648145, y: 1.6786399, z: -0.9157461, w: -0.92048216}
        tangentMode: 0
        weightedMode: 0
        inWeight: {x: 0.33333334, y: 0.33333334, z: 0.33333334, w: 0.33333334}
        outWeight: {x: 0.33333334, y: 0.33333334, z: 0.33333334, w: 0.33333334}
      - serializedVersion: 3
        time: 0.5
        value: {x: -0.10415346, y: 0.7396216, z: 0.33157936, w: 0.5763394}
        inSlope: {x: 1.7877414, y: 1.8661406, z: -2.150983, w: -0.8996789}
        outSlope: {x: 1.7877414, y: 1.8661406, z: -2.150983, w: -0.8996789}
        tangentMode: 0
        weightedMode: 0
        inWeight: {x: 0.33333334, y: 0.33333334, z: 0.33333334, w: 0.33333334}
        outWeight: {x: 0.33333334, y: 0.33333334, z: 0.33333334, w: 0.33333334}
      - serializedVersion: 3
        time: 0.54166794
        value: {x: -0.027842464, y: 0.81284523, z: 0.22254236, w: 0.5375708}
        inSlope: {x: 1.6532841, y: 1.4145031, z: -2.6858792, w: -0.89266056}
        outSlope: {x: 1.6532841, y: 1.4145031, z: -2.6858792, w: -0.89266056}
        tangentMode: 0
        weightedMode: 0
        inWeight: {x: 0.33333334, y: 0.33333334, z: 0.33333334, w: 0.33333334}
        outWeight: {x: 0.33333334, y: 0.33333334, z: 0.33333334, w: 0.33333334}
      - serializedVersion: 3
        time: 0.5833359
        value: {x: 0.033624418, y: 0.85750043, z: 0.10774927, w: 0.5019488}
        inSlope: {x: 1.2348627, y: 0.7704407, z: -2.6383495, w: -0.7569368}
        outSlope: {x: 1.2348627, y: 0.7704407, z: -2.6383495, w: -0.7569368}
        tangentMode: 0
        weightedMode: 0
        inWeight: {x: 0.33333334, y: 0.33333334, z: 0.33333334, w: 0.33333334}
        outWeight: {x: 0.33333334, y: 0.33333334, z: 0.33333334, w: 0.33333334}
      - serializedVersion: 3
        time: 0.66666794
        value: {x: 0.09352671, y: 0.8794308, z: -0.038461838, w: 0.46516126}
        inSlope: {x: 0.09002505, y: -0.12974057, z: 0.27736342, w: 0.21114242}
        outSlope: {x: 0.09002505, y: -0.12974057, z: 0.27736342, w: 0.21114242}
        tangentMode: 0
        weightedMode: 0
        inWeight: {x: 0.33333334, y: 0.33333334, z: 0.33333334, w: 0.33333334}
        outWeight: {x: 0.33333334, y: 0.33333334, z: 0.33333334, w: 0.33333334}
      - serializedVersion: 3
        time: 0.75
        value: {x: 0.03352826, y: 0.8241362, z: 0.13915443, w: 0.5480068}
        inSlope: {x: -1.6409569, y: -1.4303389, z: 2.6307812, w: 1.4820683}
        outSlope: {x: -1.6409569, y: -1.4303389, z: 2.6307812, w: 1.4820683}
        tangentMode: 0
        weightedMode: 0
        inWeight: {x: 0.33333334, y: 0.33333334, z: 0.33333334, w: 0.33333334}
        outWeight: {x: 0.33333334, y: 0.33333334, z: 0.33333334, w: 0.33333334}
      - serializedVersion: 3
        time: 0.79166794
        value: {x: -0.054181654, y: 0.74704206, z: 0.24502519, w: 0.6155934}
        inSlope: {x: -2.3005745, y: -2.140273, z: 2.2279637, w: 1.495512}
        outSlope: {x: -2.3005745, y: -2.140273, z: 2.2279637, w: 1.495512}
        tangentMode: 0
        weightedMode: 0
        inWeight: {x: 0.33333334, y: 0.33333334, z: 0.33333334, w: 0.33333334}
        outWeight: {x: 0.33333334, y: 0.33333334, z: 0.33333334, w: 0.33333334}
      - serializedVersion: 3
        time: 0.8333359
        value: {x: -0.15819213, y: 0.64577466, z: 0.32482374, w: 0.67263657}
        inSlope: {x: -2.3077178, y: -2.378056, z: 1.4763868, w: 1.1194782}
        outSlope: {x: -2.3077178, y: -2.378056, z: 1.4763868, w: 1.1194782}
        tangentMode: 0
        weightedMode: 0
        inWeight: {x: 0.33333334, y: 0.33333334, z: 0.33333334, w: 0.33333334}
        outWeight: {x: 0.33333334, y: 0.33333334, z: 0.33333334, w: 0.33333334}
      - serializedVersion: 3
        time: 0.91666794
        value: {x: -0.28741282, y: 0.4857913, z: 0.37533405, w: 0.7352041}
        inSlope: {x: -0.2646707, y: -0.90705246, z: -0.1942436, w: 0.63289475}
        outSlope: {x: -0.2646707, y: -0.90705246, z: -0.1942436, w: 0.63289475}
        tangentMode: 0
        weightedMode: 0
        inWeight: {x: 0.33333334, y: 0.33333334, z: 0.33333334, w: 0.33333334}
        outWeight: {x: 0.33333334, y: 0.33333334, z: 0.33333334, w: 0.33333334}
      - serializedVersion: 3
        time: 1
        value: {x: -0.20860481, y: 0.48245582, z: 0.29673043, w: 0.7972901}
        inSlope: {x: 1.8015609, y: 0.24100779, z: -1.5653479, w: 0.85397124}
        outSlope: {x: 1.8015609, y: 0.24100779, z: -1.5653479, w: 0.85397124}
        tangentMode: 0
        weightedMode: 0
        inWeight: {x: 0.33333334, y: 0.33333334, z: 0.33333334, w: 0.33333334}
        outWeight: {x: 0.33333334, y: 0.33333334, z: 0.33333334, w: 0.33333334}
      - serializedVersion: 3
        time: 1.0416679
        value: {x: -0.118416645, y: 0.49336728, z: 0.22142518, w: 0.83278877}
        inSlope: {x: 2.2502978, y: 0.1044431, z: -1.8370023, w: 0.73912704}
        outSlope: {x: 2.2502978, y: 0.1044431, z: -1.8370023, w: 0.73912704}
        tangentMode: 0
        weightedMode: 0
        inWeight: {x: 0.33333334, y: 0.33333334, z: 0.33333334, w: 0.33333334}
        outWeight: {x: 0.33333334, y: 0.33333334, z: 0.33333334, w: 0.33333334}
      - serializedVersion: 3
        time: 1.0833359
        value: {x: -0.02107427, y: 0.49115968, z: 0.14364223, w: 0.8588859}
        inSlope: {x: 2.0651267, y: -0.1829236, z: -1.6626157, w: 0.47922692}
        outSlope: {x: 2.0651267, y: -0.1829236, z: -1.6626157, w: 0.47922692}
        tangentMode: 0
        weightedMode: 0
        inWeight: {x: 0.33333334, y: 0.33333334, z: 0.33333334, w: 0.33333334}
        outWeight: {x: 0.33333334, y: 0.33333334, z: 0.33333334, w: 0.33333334}
      - serializedVersion: 3
        time: 1.1666679
        value: {x: 0.08101736, y: 0.46029273, z: 0.055167068, w: 0.8823397}
        inSlope: {x: -0.1442039, y: -0.4217198, z: -0.21151924, w: 0.24549761}
        outSlope: {x: -0.1442039, y: -0.4217198, z: -0.21151924, w: 0.24549761}
        tangentMode: 0
        weightedMode: 0
        inWeight: {x: 0.33333334, y: 0.33333334, z: 0.33333334, w: 0.33333334}
        outWeight: {x: 0.33333334, y: 0.33333334, z: 0.33333334, w: 0.33333334}
      - serializedVersion: 3
        time: 1.2916679
        value: {x: -0.17924216, y: 0.40777248, z: 0.14460377, w: 0.88356304}
        inSlope: {x: -3.1188624, y: -0.5698322, z: 1.0748614, w: -0.5681496}
        outSlope: {x: -3.1188624, y: -0.5698322, z: 1.0748614, w: -0.5681496}
        tangentMode: 0
        weightedMode: 0
        inWeight: {x: 0.33333334, y: 0.33333334, z: 0.33333334, w: 0.33333334}
        outWeight: {x: 0.33333334, y: 0.33333334, z: 0.33333334, w: 0.33333334}
      - serializedVersion: 3
        time: 1.3333359
        value: {x: -0.3132225, y: 0.38010383, z: 0.18870267, w: 0.84959054}
        inSlope: {x: -3.039422, y: -0.6930318, z: 0.90400344, w: -0.9875201}
        outSlope: {x: -3.039422, y: -0.6930318, z: 0.90400344, w: -0.9875201}
        tangentMode: 0
        weightedMode: 0
        inWeight: {x: 0.33333334, y: 0.33333334, z: 0.33333334, w: 0.33333334}
        outWeight: {x: 0.33333334, y: 0.33333334, z: 0.33333334, w: 0.33333334}
      - serializedVersion: 3
        time: 1.4583359
        value: {x: -0.5395025, y: 0.30034512, z: 0.2318569, w: 0.75164634}
        inSlope: {x: 0.18479842, y: -0.5240803, z: -0.2706914, w: 0.40223727}
        outSlope: {x: 0.18479842, y: -0.5240803, z: -0.2706914, w: 0.40223727}
        tangentMode: 0
        weightedMode: 0
        inWeight: {x: 0.33333334, y: 0.33333334, z: 0.33333334, w: 0.33333334}
        outWeight: {x: 0.33333334, y: 0.33333334, z: 0.33333334, w: 0.33333334}
      - serializedVersion: 3
        time: 1.5416679
        value: {x: -0.40984297, y: 0.25371772, z: 0.18391027, w: 0.8566406}
        inSlope: {x: 2.513564, y: -0.69597924, z: -0.7108216, w: 1.5137482}
        outSlope: {x: 2.513564, y: -0.69597924, z: -0.7108216, w: 1.5137482}
        tangentMode: 0
        weightedMode: 0
        inWeight: {x: 0.33333334, y: 0.33333334, z: 0.33333334, w: 0.33333334}
        outWeight: {x: 0.33333334, y: 0.33333334, z: 0.33333334, w: 0.33333334}
      - serializedVersion: 3
        time: 1.5833359
        value: {x: -0.2894861, y: 0.2213491, z: 0.15307835, w: 0.91856927}
        inSlope: {x: 3.1171818, y: -0.80502534, z: -0.6336808, w: 1.2643903}
        outSlope: {x: 3.1171818, y: -0.80502534, z: -0.6336808, w: 1.2643903}
        tangentMode: 0
        weightedMode: 0
        inWeight: {x: 0.33333334, y: 0.33333334, z: 0.33333334, w: 0.33333334}
        outWeight: {x: 0.33333334, y: 0.33333334, z: 0.33333334, w: 0.33333334}
      - serializedVersion: 3
        time: 1.625
        value: {x: -0.15008266, y: 0.18663341, z: 0.13110393, w: 0.9620057}
        inSlope: {x: 3.2249427, y: -0.8108827, z: -0.422707, w: 0.7471868}
        outSlope: {x: 3.2249427, y: -0.8108827, z: -0.422707, w: 0.7471868}
        tangentMode: 0
        weightedMode: 0
        inWeight: {x: 0.33333334, y: 0.33333334, z: 0.33333334, w: 0.33333334}
        outWeight: {x: 0.33333334, y: 0.33333334, z: 0.33333334, w: 0.33333334}
      - serializedVersion: 3
        time: 1.7083359
        value: {x: 0.067205936, y: 0.11825533, z: 0.106121145, w: 0.9850063}
        inSlope: {x: 1.477897, y: -0.9224113, z: -0.15746894, w: 0.064633444}
        outSlope: {x: 1.477897, y: -0.9224113, z: -0.15746894, w: 0.064633444}
        tangentMode: 0
        weightedMode: 0
        inWeight: {x: 0.33333334, y: 0.33333334, z: 0.33333334, w: 0.33333334}
        outWeight: {x: 0.33333334, y: 0.33333334, z: 0.33333334, w: 0.33333334}
      - serializedVersion: 3
        time: 1.75
        value: {x: 0.102413185, y: 0.07691049, z: 0.104731016, w: 0.9862189}
        inSlope: {x: -0.15662795, y: -0.8025154, z: 0.07684383, w: 0.070016295}
        outSlope: {x: -0.15662795, y: -0.8025154, z: 0.07684383, w: 0.070016295}
        tangentMode: 0
        weightedMode: 0
        inWeight: {x: 0.33333334, y: 0.33333334, z: 0.33333334, w: 0.33333334}
        outWeight: {x: 0.33333334, y: 0.33333334, z: 0.33333334, w: 0.33333334}
      - serializedVersion: 3
        time: 1.7916679
        value: {x: 0.054149985, y: 0.051380794, z: 0.11252512, w: 0.99084103}
        inSlope: {x: -2.2058601, y: -0.4093991, z: 0.08389568, w: 0.03905821}
        outSlope: {x: -2.2058601, y: -0.4093991, z: 0.08389568, w: 0.03905821}
        tangentMode: 0
        weightedMode: 0
        inWeight: {x: 0.33333334, y: 0.33333334, z: 0.33333334, w: 0.33333334}
        outWeight: {x: 0.33333334, y: 0.33333334, z: 0.33333334, w: 0.33333334}
      - serializedVersion: 3
        time: 1.8333359
        value: {x: -0.081414096, y: 0.042792857, z: 0.11172254, w: 0.9894739}
        inSlope: {x: -3.7327054, y: -0.31425926, z: -0.25240368, w: -0.34890866}
        outSlope: {x: -3.7327054, y: -0.31425926, z: -0.25240368, w: -0.34890866}
        tangentMode: 0
        weightedMode: 0
        inWeight: {x: 0.33333334, y: 0.33333334, z: 0.33333334, w: 0.33333334}
        outWeight: {x: 0.33333334, y: 0.33333334, z: 0.33333334, w: 0.33333334}
      - serializedVersion: 3
        time: 1.875
        value: {x: -0.25690222, y: 0.025193335, z: 0.09149269, w: 0.96176696}
        inSlope: {x: -3.9448912, y: -0.6704438, z: -0.7207564, w: -0.94816387}
        outSlope: {x: -3.9448912, y: -0.6704438, z: -0.7207564, w: -0.94816387}
        tangentMode: 0
        weightedMode: 0
        inWeight: {x: 0.33333334, y: 0.33333334, z: 0.33333334, w: 0.33333334}
        outWeight: {x: 0.33333334, y: 0.33333334, z: 0.33333334, w: 0.33333334}
      - serializedVersion: 3
        time: 1.9583359
        value: {x: -0.5131103, y: -0.072423436, z: -0.0067717857, w: 0.855235}
        inSlope: {x: -1.6945131, y: -1.7375159, z: -1.6215396, w: -1.1463475}
        outSlope: {x: -1.6945131, y: -1.7375159, z: -1.6215396, w: -1.1463475}
        tangentMode: 0
        weightedMode: 0
        inWeight: {x: 0.33333334, y: 0.33333334, z: 0.33333334, w: 0.33333334}
        outWeight: {x: 0.33333334, y: 0.33333334, z: 0.33333334, w: 0.33333334}
      - serializedVersion: 3
        time: 2
        value: {x: -0.55135924, y: -0.15786713, z: -0.08346589, w: 0.81493217}
        inSlope: {x: 0.14459544, y: -2.3584464, z: -1.8120046, w: -0.5754049}
        outSlope: {x: 0.14459544, y: -2.3584464, z: -1.8120046, w: -0.5754049}
        tangentMode: 0
        weightedMode: 0
        inWeight: {x: 0.33333334, y: 0.33333334, z: 0.33333334, w: 0.33333334}
        outWeight: {x: 0.33333334, y: 0.33333334, z: 0.33333334, w: 0.33333334}
      - serializedVersion: 3
        time: 2.0833359
        value: {x: -0.38011083, y: -0.39708862, z: -0.19222434, w: 0.81294906}
        inSlope: {x: 3.249283, y: -2.9743938, z: -0.11724836, w: 0.0005889088}
        outSlope: {x: 3.249283, y: -2.9743938, z: -0.11724836, w: 0.0005889088}
        tangentMode: 0
        weightedMode: 0
        inWeight: {x: 0.33333334, y: 0.33333334, z: 0.33333334, w: 0.33333334}
        outWeight: {x: 0.33333334, y: 0.33333334, z: 0.33333334, w: 0.33333334}
      - serializedVersion: 3
        time: 2.125
        value: {x: -0.23028865, y: -0.51682156, z: -0.16754301, w: 0.8073364}
        inSlope: {x: 3.5156918, y: -2.4417903, z: 1.0357522, w: -0.30269673}
        outSlope: {x: 3.5156918, y: -2.4417903, z: 1.0357522, w: -0.30269673}
        tangentMode: 0
        weightedMode: 0
        inWeight: {x: 0.33333334, y: 0.33333334, z: 0.33333334, w: 0.33333334}
        outWeight: {x: 0.33333334, y: 0.33333334, z: 0.33333334, w: 0.33333334}
      - serializedVersion: 3
        time: 2.166668
        value: {x: -0.08714131, y: -0.6005664, z: -0.105911285, w: 0.7877241}
        inSlope: {x: 3.018154, y: -1.6063689, z: 1.4672339, w: -0.5956704}
        outSlope: {x: 3.018154, y: -1.6063689, z: 1.4672339, w: -0.5956704}
        tangentMode: 0
        weightedMode: 0
        inWeight: {x: 0.33333334, y: 0.33333334, z: 0.33333334, w: 0.33333334}
        outWeight: {x: 0.33333334, y: 0.33333334, z: 0.33333334, w: 0.33333334}
      - serializedVersion: 3
        time: 2.25
        value: {x: 0.06654285, y: -0.68197393, z: -0.01420446, w: 0.72820455}
        inSlope: {x: -0.2124371, y: -0.6601652, z: 0.03401661, w: -0.605631}
        outSlope: {x: -0.2124371, y: -0.6601652, z: 0.03401661, w: -0.605631}
        tangentMode: 0
        weightedMode: 0
        inWeight: {x: 0.33333334, y: 0.33333334, z: 0.33333334, w: 0.33333334}
        outWeight: {x: 0.33333334, y: 0.33333334, z: 0.33333334, w: 0.33333334}
      - serializedVersion: 3
        time: 2.291668
        value: {x: 0.0035240643, y: -0.7057023, z: -0.042437825, w: 0.7072276}
        inSlope: {x: -2.447348, y: -0.37494063, z: -1.2619848, w: -0.6157019}
        outSlope: {x: -2.447348, y: -0.37494063, z: -1.2619848, w: -0.6157019}
        tangentMode: 0
        weightedMode: 0
        inWeight: {x: 0.33333334, y: 0.33333334, z: 0.33333334, w: 0.33333334}
        outWeight: {x: 0.33333334, y: 0.33333334, z: 0.33333334, w: 0.33333334}
      - serializedVersion: 3
        time: 2.3333359
        value: {x: -0.13740906, y: -0.71321994, z: -0.119373076, w: 0.6768945}
        inSlope: {x: -3.302286, y: 0.035755344, z: -1.9010735, w: -0.9732324}
        outSlope: {x: -3.302286, y: 0.035755344, z: -1.9010735, w: -0.9732324}
        tangentMode: 0
        weightedMode: 0
        inWeight: {x: 0.33333334, y: 0.33333334, z: 0.33333334, w: 0.33333334}
        outWeight: {x: 0.33333334, y: 0.33333334, z: 0.33333334, w: 0.33333334}
      - serializedVersion: 3
        time: 2.375
        value: {x: -0.27166253, y: -0.70272356, z: -0.200858, w: 0.62612706}
        inSlope: {x: -2.3252878, y: 0.21896824, z: -1.4090686, w: -1.0106527}
        outSlope: {x: -2.3252878, y: 0.21896824, z: -1.4090686, w: -1.0106527}
        tangentMode: 0
        weightedMode: 0
        inWeight: {x: 0.33333334, y: 0.33333334, z: 0.33333334, w: 0.33333334}
        outWeight: {x: 0.33333334, y: 0.33333334, z: 0.33333334, w: 0.33333334}
      - serializedVersion: 3
        time: 2.416668
        value: {x: -0.33117667, y: -0.694973, z: -0.23679158, w: 0.5926755}
        inSlope: {x: -0.560188, y: 0.15317163, z: 0.042981267, w: -0.08035296}
        outSlope: {x: -0.560188, y: 0.15317163, z: 0.042981267, w: -0.08035296}
        tangentMode: 0
        weightedMode: 0
        inWeight: {x: 0.33333334, y: 0.33333334, z: 0.33333334, w: 0.33333334}
        outWeight: {x: 0.33333334, y: 0.33333334, z: 0.33333334, w: 0.33333334}
      - serializedVersion: 3
        time: 2.4583359
        value: {x: -0.3183463, y: -0.6899589, z: -0.19727612, w: 0.6194308}
        inSlope: {x: 0.76914877, y: 0.3080775, z: 1.5557637, w: 1.1079029}
        outSlope: {x: 0.76914877, y: 0.3080775, z: 1.5557637, w: 1.1079029}
        tangentMode: 0
        weightedMode: 0
        inWeight: {x: 0.33333334, y: 0.33333334, z: 0.33333334, w: 0.33333334}
        outWeight: {x: 0.33333334, y: 0.33333334, z: 0.33333334, w: 0.33333334}
      - serializedVersion: 3
        time: 2.5
        value: {x: -0.26708367, y: -0.669301, z: -0.10714891, w: 0.68499756}
        inSlope: {x: 1.6914082, y: 0.731835, z: 2.3760953, w: 1.6498578}
        outSlope: {x: 1.6914082, y: 0.731835, z: 2.3760953, w: 1.6498578}
        tangentMode: 0
        weightedMode: 0
        inWeight: {x: 0.33333334, y: 0.33333334, z: 0.33333334, w: 0.33333334}
        outWeight: {x: 0.33333334, y: 0.33333334, z: 0.33333334, w: 0.33333334}
      - serializedVersion: 3
        time: 2.541668
        value: {x: -0.177396, y: -0.62897265, z: 0.00072961213, w: 0.7569171}
        inSlope: {x: 2.4192886, y: 1.1701849, z: 2.3407726, w: 1.5365663}
        outSlope: {x: 2.4192886, y: 1.1701849, z: 2.3407726, w: 1.5365663}
        tangentMode: 0
        weightedMode: 0
        inWeight: {x: 0.33333334, y: 0.33333334, z: 0.33333334, w: 0.33333334}
        outWeight: {x: 0.33333334, y: 0.33333334, z: 0.33333334, w: 0.33333334}
      - serializedVersion: 3
        time: 2.5833359
        value: {x: -0.06547013, y: -0.5717826, z: 0.087921426, w: 0.81304866}
        inSlope: {x: 2.5039158, y: 1.3138413, z: 1.5730046, w: 1.0410495}
        outSlope: {x: 2.5039158, y: 1.3138413, z: 1.5730046, w: 1.0410495}
        tangentMode: 0
        weightedMode: 0
        inWeight: {x: 0.33333334, y: 0.33333334, z: 0.33333334, w: 0.33333334}
        outWeight: {x: 0.33333334, y: 0.33333334, z: 0.33333334, w: 0.33333334}
      - serializedVersion: 3
        time: 2.625
        value: {x: 0.031261165, y: -0.5194873, z: 0.13181332, w: 0.8436711}
        inSlope: {x: 1.6851397, y: 0.8673315, z: 0.58063483, w: 0.4701898}
        outSlope: {x: 1.6851397, y: 0.8673315, z: 0.58063483, w: 0.4701898}
        tangentMode: 0
        weightedMode: 0
        inWeight: {x: 0.33333334, y: 0.33333334, z: 0.33333334, w: 0.33333334}
        outWeight: {x: 0.33333334, y: 0.33333334, z: 0.33333334, w: 0.33333334}
      - serializedVersion: 3
        time: 2.666668
        value: {x: 0.0749536, y: -0.49950755, z: 0.13630512, w: 0.85222954}
        inSlope: {x: 0.3789764, y: 0.010066912, z: -0.16250241, w: 0.009138539}
        outSlope: {x: 0.3789764, y: 0.010066912, z: -0.16250241, w: 0.009138539}
        tangentMode: 0
        weightedMode: 0
        inWeight: {x: 0.33333334, y: 0.33333334, z: 0.33333334, w: 0.33333334}
        outWeight: {x: 0.33333334, y: 0.33333334, z: 0.33333334, w: 0.33333334}
      - serializedVersion: 3
        time: 2.791668
        value: {x: -0.04303984, y: -0.60746574, z: 0.04922183, w: 0.7916503}
        inSlope: {x: -1.3831576, y: -1.1683689, z: -1.1073432, w: -0.9126728}
        outSlope: {x: -1.3831576, y: -1.1683689, z: -1.1073432, w: -0.9126728}
        tangentMode: 0
        weightedMode: 0
        inWeight: {x: 0.33333334, y: 0.33333334, z: 0.33333334, w: 0.33333334}
        outWeight: {x: 0.33333334, y: 0.33333334, z: 0.33333334, w: 0.33333334}
      - serializedVersion: 3
        time: 2.875
        value: {x: -0.1421528, y: -0.69666165, z: -0.055321675, w: 0.70099545}
        inSlope: {x: -0.90266657, y: -0.7626531, z: -1.2115884, w: -1.0070102}
        outSlope: {x: -0.90266657, y: -0.7626531, z: -1.2115884, w: -1.0070102}
        tangentMode: 0
        weightedMode: 0
        inWeight: {x: 0.33333334, y: 0.33333334, z: 0.33333334, w: 0.33333334}
        outWeight: {x: 0.33333334, y: 0.33333334, z: 0.33333334, w: 0.33333334}
      - serializedVersion: 3
        time: 3
        value: {x: -0.23246992, y: -0.7276582, z: -0.16796415, w: 0.6231046}
        inSlope: {x: -0.7415725, y: 0.072024025, z: -0.71160877, w: -0.38428885}
        outSlope: {x: -0.7415725, y: 0.072024025, z: -0.71160877, w: -0.38428885}
        tangentMode: 0
        weightedMode: 0
        inWeight: {x: 0.33333334, y: 0.33333334, z: 0.33333334, w: 0.33333334}
        outWeight: {x: 0.33333334, y: 0.33333334, z: 0.33333334, w: 0.33333334}
      - serializedVersion: 3
        time: 3.125
        value: {x: -0.30723968, y: -0.7272681, z: -0.22967446, w: 0.5691526}
        inSlope: {x: -0.23290549, y: -0.23673737, z: -0.25212723, w: -0.52914464}
        outSlope: {x: -0.23290549, y: -0.23673737, z: -0.25212723, w: -0.52914464}
        tangentMode: 0
        weightedMode: 0
        inWeight: {x: 0.33333334, y: 0.33333334, z: 0.33333334, w: 0.33333334}
        outWeight: {x: 0.33333334, y: 0.33333334, z: 0.33333334, w: 0.33333334}
      - serializedVersion: 3
        time: 3.2083359
        value: {x: -0.2759447, y: -0.771641, z: -0.23590732, w: 0.5222762}
        inSlope: {x: 1.1913844, y: -0.94901, z: 0.46352276, w: -0.6318883}
        outSlope: {x: 1.1913844, y: -0.94901, z: 0.46352276, w: -0.6318883}
        tangentMode: 0
        weightedMode: 0
        inWeight: {x: 0.33333334, y: 0.33333334, z: 0.33333334, w: 0.33333334}
        outWeight: {x: 0.33333334, y: 0.33333334, z: 0.33333334, w: 0.33333334}
      - serializedVersion: 3
        time: 3.25
        value: {x: -0.21017355, y: -0.8196057, z: -0.20137905, w: 0.4934775}
        inSlope: {x: 1.6784844, y: -1.1237459, z: 0.9974792, w: -0.7757919}
        outSlope: {x: 1.6784844, y: -1.1237459, z: 0.9974792, w: -0.7757919}
        tangentMode: 0
        weightedMode: 0
        inWeight: {x: 0.33333334, y: 0.33333334, z: 0.33333334, w: 0.33333334}
        outWeight: {x: 0.33333334, y: 0.33333334, z: 0.33333334, w: 0.33333334}
      - serializedVersion: 3
        time: 3.3333359
        value: {x: -0.06690631, y: -0.90014446, z: -0.114034444, w: 0.41504177}
        inSlope: {x: 1.480722, y: -0.7016876, z: 0.77125394, w: -1.0228624}
        outSlope: {x: 1.480722, y: -0.7016876, z: 0.77125394, w: -1.0228624}
        tangentMode: 0
        weightedMode: 0
        inWeight: {x: 0.33333334, y: 0.33333334, z: 0.33333334, w: 0.33333334}
        outWeight: {x: 0.33333334, y: 0.33333334, z: 0.33333334, w: 0.33333334}
      - serializedVersion: 3
        time: 3.416668
        value: {x: 0.010571291, y: -0.93507826, z: -0.076391496, w: 0.34594983}
        inSlope: {x: 0.06329183, y: -0.07553729, z: -0.016480505, w: -0.1944882}
        outSlope: {x: 0.06329183, y: -0.07553729, z: -0.016480505, w: -0.1944882}
        tangentMode: 0
        weightedMode: 0
        inWeight: {x: 0.33333334, y: 0.33333334, z: 0.33333334, w: 0.33333334}
        outWeight: {x: 0.33333334, y: 0.33333334, z: 0.33333334, w: 0.33333334}
      - serializedVersion: 3
        time: 3.5
        value: {x: -0.057680484, y: -0.9033989, z: -0.1295846, w: 0.40466195}
        inSlope: {x: -1.5155203, y: 0.90604544, z: -1.076005, w: 1.3495831}
        outSlope: {x: -1.5155203, y: 0.90604544, z: -1.076005, w: 1.3495831}
        tangentMode: 0
        weightedMode: 0
        inWeight: {x: 0.33333334, y: 0.33333334, z: 0.33333334, w: 0.33333334}
        outWeight: {x: 0.33333334, y: 0.33333334, z: 0.33333334, w: 0.33333334}
      - serializedVersion: 3
        time: 3.541668
        value: {x: -0.1336986, y: -0.8545499, z: -0.1795535, w: 0.46864673}
        inSlope: {x: -1.9968921, y: 1.3334835, z: -1.0876055, w: 1.4207163}
        outSlope: {x: -1.9968921, y: 1.3334835, z: -1.0876055, w: 1.4207163}
        tangentMode: 0
        weightedMode: 0
        inWeight: {x: 0.33333334, y: 0.33333334, z: 0.33333334, w: 0.33333334}
        outWeight: {x: 0.33333334, y: 0.33333334, z: 0.33333334, w: 0.33333334}
      - serializedVersion: 3
        time: 3.5833359
        value: {x: -0.22409324, y: -0.79227185, z: -0.22022115, w: 0.5230586}
        inSlope: {x: -2.0881324, y: 1.5356615, z: -0.77008724, w: 1.1431693}
        outSlope: {x: -2.0881324, y: 1.5356615, z: -0.77008724, w: 1.1431693}
        tangentMode: 0
        weightedMode: 0
        inWeight: {x: 0.33333334, y: 0.33333334, z: 0.33333334, w: 0.33333334}
        outWeight: {x: 0.33333334, y: 0.33333334, z: 0.33333334, w: 0.33333334}
      - serializedVersion: 3
        time: 3.666668
        value: {x: -0.3532934, y: -0.67550033, z: -0.24262984, w: 0.60001165}
        inSlope: {x: -0.41401207, y: 0.9661558, z: 0.59503365, w: 1.0818442}
        outSlope: {x: -0.41401207, y: 0.9661558, z: 0.59503365, w: 1.0818442}
        tangentMode: 0
        weightedMode: 0
        inWeight: {x: 0.33333334, y: 0.33333334, z: 0.33333334, w: 0.33333334}
        outWeight: {x: 0.33333334, y: 0.33333334, z: 0.33333334, w: 0.33333334}
      - serializedVersion: 3
        time: 3.7083359
        value: {x: -0.34220934, y: -0.64606476, z: -0.19413958, w: 0.65406644}
        inSlope: {x: 0.81391376, y: 0.6919626, z: 1.6988666, w: 1.5077088}
        outSlope: {x: 0.81391376, y: 0.6919626, z: 1.6988666, w: 1.5077088}
        tangentMode: 0
        weightedMode: 0
        inWeight: {x: 0.33333334, y: 0.33333334, z: 0.33333334, w: 0.33333334}
        outWeight: {x: 0.33333334, y: 0.33333334, z: 0.33333334, w: 0.33333334}
      - serializedVersion: 3
        time: 3.75
        value: {x: -0.28547037, y: -0.6178376, z: -0.10106183, w: 0.7256513}
        inSlope: {x: 1.7584858, y: 0.8391842, z: 2.3964036, w: 1.674068}
        outSlope: {x: 1.7584858, y: 0.8391842, z: 2.3964036, w: 1.674068}
        tangentMode: 0
        weightedMode: 0
        inWeight: {x: 0.33333334, y: 0.33333334, z: 0.33333334, w: 0.33333334}
        outWeight: {x: 0.33333334, y: 0.33333334, z: 0.33333334, w: 0.33333334}
      - serializedVersion: 3
        time: 3.791668
        value: {x: -0.19566958, y: -0.5761332, z: 0.005558281, w: 0.7935698}
        inSlope: {x: 2.407061, y: 1.1553681, z: 2.3083372, w: 1.4208858}
        outSlope: {x: 2.407061, y: 1.1553681, z: 2.3083372, w: 1.4208858}
        tangentMode: 0
        weightedMode: 0
        inWeight: {x: 0.33333334, y: 0.33333334, z: 0.33333334, w: 0.33333334}
        outWeight: {x: 0.33333334, y: 0.33333334, z: 0.33333334, w: 0.33333334}
      - serializedVersion: 3
        time: 3.8333359
        value: {x: -0.084875815, y: -0.521554, z: 0.091305465, w: 0.8440621}
        inSlope: {x: 0.96514404, y: 0.31343505, z: 0.4519729, w: 0.38960174}
        outSlope: {x: 0.96514404, y: 0.31343505, z: 0.4519729, w: 0.38960174}
        tangentMode: 0
        weightedMode: 0
        inWeight: {x: 0.33333334, y: 0.33333334, z: 0.33333334, w: 0.33333334}
        outWeight: {x: 0.33333334, y: 0.33333334, z: 0.33333334, w: 0.33333334}
      - serializedVersion: 3
        time: 3.875
        value: {x: -0.11523567, y: -0.5500102, z: 0.04322824, w: 0.82603925}
        inSlope: {x: -1.0756239, y: -0.9464767, z: -1.6704369, w: -0.7815244}
        outSlope: {x: -1.0756239, y: -0.9464767, z: -1.6704369, w: -0.7815244}
        tangentMode: 0
        weightedMode: 0
        inWeight: {x: 0.33333334, y: 0.33333334, z: 0.33333334, w: 0.33333334}
        outWeight: {x: 0.33333334, y: 0.33333334, z: 0.33333334, w: 0.33333334}
      - serializedVersion: 3
        time: 3.916668
        value: {x: -0.17451109, y: -0.60042685, z: -0.04789744, w: 0.7789347}
        inSlope: {x: -1.0265629, y: -1.2149228, z: -1.9204525, w: -1.2432804}
        outSlope: {x: -1.0265629, y: -1.2149228, z: -1.9204525, w: -1.2432804}
        tangentMode: 0
        weightedMode: 0
        inWeight: {x: 0.33333334, y: 0.33333334, z: 0.33333334, w: 0.33333334}
        outWeight: {x: 0.33333334, y: 0.33333334, z: 0.33333334, w: 0.33333334}
      - serializedVersion: 3
        time: 3.9583359
        value: {x: -0.20078519, y: -0.65125686, z: -0.11681434, w: 0.7224294}
        inSlope: {x: 0.03170985, y: -1.5363579, z: -0.73702073, w: -1.4978764}
        outSlope: {x: 0.03170985, y: -1.5363579, z: -0.73702073, w: -1.4978764}
        tangentMode: 0
        weightedMode: 0
        inWeight: {x: 0.33333334, y: 0.33333334, z: 0.33333334, w: 0.33333334}
        outWeight: {x: 0.33333334, y: 0.33333334, z: 0.33333334, w: 0.33333334}
      - serializedVersion: 3
        time: 4
        value: {x: -0.17187117, y: -0.7284535, z: -0.10931839, w: 0.6541141}
        inSlope: {x: 0.8407576, y: -1.8713384, z: 0.7701029, w: -1.7906504}
        outSlope: {x: 0.8407576, y: -1.8713384, z: 0.7701029, w: -1.7906504}
        tangentMode: 0
        weightedMode: 0
        inWeight: {x: 0.33333334, y: 0.33333334, z: 0.33333334, w: 0.33333334}
        outWeight: {x: 0.33333334, y: 0.33333334, z: 0.33333334, w: 0.33333334}
      - serializedVersion: 3
        time: 4.041668
        value: {x: -0.13072257, y: -0.8071994, z: -0.052637823, w: 0.57321024}
        inSlope: {x: 0.6980238, y: -1.3230969, z: 1.1198379, w: -1.4613845}
        outSlope: {x: 0.6980238, y: -1.3230969, z: 1.1198379, w: -1.4613845}
        tangentMode: 0
        weightedMode: 0
        inWeight: {x: 0.33333334, y: 0.33333334, z: 0.33333334, w: 0.33333334}
        outWeight: {x: 0.33333334, y: 0.33333334, z: 0.33333334, w: 0.33333334}
      - serializedVersion: 3
        time: 4.083336
        value: {x: -0.11370075, y: -0.83871496, z: -0.015995719, w: 0.53232837}
        inSlope: {x: -0.03505245, y: -0.04258722, z: -0.2058003, w: -0.090758055}
        outSlope: {x: -0.03505245, y: -0.04258722, z: -0.2058003, w: -0.090758055}
        tangentMode: 0
        weightedMode: 0
        inWeight: {x: 0.33333334, y: 0.33333334, z: 0.33333334, w: 0.33333334}
        outWeight: {x: 0.33333334, y: 0.33333334, z: 0.33333334, w: 0.33333334}
      - serializedVersion: 3
        time: 4.125
        value: {x: -0.13364187, y: -0.810751, z: -0.06978345, w: 0.5656438}
        inSlope: {x: -0.71652246, y: 1.1982564, z: -1.6584859, w: 1.2037703}
        outSlope: {x: -0.71652246, y: 1.1982564, z: -1.6584859, w: 1.2037703}
        tangentMode: 0
        weightedMode: 0
        inWeight: {x: 0.33333334, y: 0.33333334, z: 0.33333334, w: 0.33333334}
        outWeight: {x: 0.33333334, y: 0.33333334, z: 0.33333334, w: 0.33333334}
      - serializedVersion: 3
        time: 4.166668
        value: {x: -0.17341095, y: -0.7388598, z: -0.15420216, w: 0.63264257}
        inSlope: {x: -0.83453333, y: 1.7188566, z: -1.3708234, w: 1.5198562}
        outSlope: {x: -0.83453333, y: 1.7188566, z: -1.3708234, w: 1.5198562}
        tangentMode: 0
        weightedMode: 0
        inWeight: {x: 0.33333334, y: 0.33333334, z: 0.33333334, w: 0.33333334}
        outWeight: {x: 0.33333334, y: 0.33333334, z: 0.33333334, w: 0.33333334}
      - serializedVersion: 3
        time: 4.208336
        value: {x: -0.20318843, y: -0.6675086, z: -0.18402222, w: 0.69230235}
        inSlope: {x: -0.4777236, y: 1.5184479, z: -0.044667214, w: 1.3453289}
        outSlope: {x: -0.4777236, y: 1.5184479, z: -0.044667214, w: 1.3453289}
        tangentMode: 0
        weightedMode: 0
        inWeight: {x: 0.33333334, y: 0.33333334, z: 0.33333334, w: 0.33333334}
        outWeight: {x: 0.33333334, y: 0.33333334, z: 0.33333334, w: 0.33333334}
      - serializedVersion: 3
        time: 4.25
        value: {x: -0.21322155, y: -0.61232364, z: -0.15792693, w: 0.74475193}
        inSlope: {x: -0.17577761, y: 1.4459803, z: 0.7763208, w: 1.2855346}
        outSlope: {x: -0.17577761, y: 1.4459803, z: 0.7763208, w: 1.2855346}
        tangentMode: 0
        weightedMode: 0
        inWeight: {x: 0.33333334, y: 0.33333334, z: 0.33333334, w: 0.33333334}
        outWeight: {x: 0.33333334, y: 0.33333334, z: 0.33333334, w: 0.33333334}
      - serializedVersion: 3
        time: 4.333336
        value: {x: -0.21589714, y: -0.4808119, z: -0.08020016, w: 0.84603566}
        inSlope: {x: 0.11123498, y: 1.4341487, z: 0.8408962, w: 0.9458214}
        outSlope: {x: 0.11123498, y: 1.4341487, z: 0.8408962, w: 0.9458214}
        tangentMode: 0
        weightedMode: 0
        inWeight: {x: 0.33333334, y: 0.33333334, z: 0.33333334, w: 0.33333334}
        outWeight: {x: 0.33333334, y: 0.33333334, z: 0.33333334, w: 0.33333334}
      - serializedVersion: 3
        time: 4.375
        value: {x: -0.2085669, y: -0.42750046, z: -0.04925524, w: 0.8782466}
        inSlope: {x: 0.20796391, y: 0.92730606, z: 0.5899537, w: 0.55898786}
        outSlope: {x: 0.20796391, y: 0.92730606, z: 0.5899537, w: 0.55898786}
        tangentMode: 0
        weightedMode: 0
        inWeight: {x: 0.33333334, y: 0.33333334, z: 0.33333334, w: 0.33333334}
        outWeight: {x: 0.33333334, y: 0.33333334, z: 0.33333334, w: 0.33333334}
      - serializedVersion: 3
        time: 4.416668
        value: {x: -0.19856696, y: -0.4035389, z: -0.03103868, w: 0.89261645}
        inSlope: {x: 0.31489533, y: -0.41155666, z: 0.2501139, w: -0.12800826}
        outSlope: {x: 0.31489533, y: -0.41155666, z: 0.2501139, w: -0.12800826}
        tangentMode: 0
        weightedMode: 0
        inWeight: {x: 0.33333334, y: 0.33333334, z: 0.33333334, w: 0.33333334}
        outWeight: {x: 0.33333334, y: 0.33333334, z: 0.33333334, w: 0.33333334}
      - serializedVersion: 3
        time: 4.458336
        value: {x: -0.18232483, y: -0.4617979, z: -0.02841178, w: 0.8675789}
        inSlope: {x: 0.4659652, y: -2.2082415, z: -0.0018320605, w: -1.1996548}
        outSlope: {x: 0.4659652, y: -2.2082415, z: -0.0018320605, w: -1.1996548}
        tangentMode: 0
        weightedMode: 0
        inWeight: {x: 0.33333334, y: 0.33333334, z: 0.33333334, w: 0.33333334}
        outWeight: {x: 0.33333334, y: 0.33333334, z: 0.33333334, w: 0.33333334}
      - serializedVersion: 3
        time: 4.5
        value: {x: -0.15973741, y: -0.58755314, z: -0.031191101, w: 0.79264903}
        inSlope: {x: 0.50860494, y: -2.875362, z: -0.029917687, w: -2.0325167}
        outSlope: {x: 0.50860494, y: -2.875362, z: -0.029917687, w: -2.0325167}
        tangentMode: 0
        weightedMode: 0
        inWeight: {x: 0.33333334, y: 0.33333334, z: 0.33333334, w: 0.33333334}
        outWeight: {x: 0.33333334, y: 0.33333334, z: 0.33333334, w: 0.33333334}
      - serializedVersion: 3
        time: 4.541668
        value: {x: -0.13994186, y: -0.7014072, z: -0.030904742, w: 0.6982042}
        inSlope: {x: 0.32131258, y: -1.928124, z: 0.026699504, w: -1.7198}
        outSlope: {x: 0.32131258, y: -1.928124, z: 0.026699504, w: -1.7198}
        tangentMode: 0
        weightedMode: 0
        inWeight: {x: 0.33333334, y: 0.33333334, z: 0.33333334, w: 0.33333334}
        outWeight: {x: 0.33333334, y: 0.33333334, z: 0.33333334, w: 0.33333334}
      - serializedVersion: 3
        time: 4.583336
        value: {x: -0.13296054, y: -0.74823505, z: -0.028966075, w: 0.649328}
        inSlope: {x: 0.014539555, y: -0.13235116, z: 0.07105645, w: -0.12925315}
        outSlope: {x: 0.014539555, y: -0.13235116, z: 0.07105645, w: -0.12925315}
        tangentMode: 0
        weightedMode: 0
        inWeight: {x: 0.33333334, y: 0.33333334, z: 0.33333334, w: 0.33333334}
        outWeight: {x: 0.33333334, y: 0.33333334, z: 0.33333334, w: 0.33333334}
      - serializedVersion: 3
        time: 4.666668
        value: {x: -0.14685172, y: -0.6269351, z: -0.018539129, w: 0.7648812}
        inSlope: {x: -0.16841577, y: 2.1539283, z: 0.1400375, w: 1.7364979}
        outSlope: {x: -0.16841577, y: 2.1539283, z: 0.1400375, w: 1.7364979}
        tangentMode: 0
        weightedMode: 0
        inWeight: {x: 0.33333334, y: 0.33333334, z: 0.33333334, w: 0.33333334}
        outWeight: {x: 0.33333334, y: 0.33333334, z: 0.33333334, w: 0.33333334}
      - serializedVersion: 3
        time: 4.708336
        value: {x: -0.15276474, y: -0.53294057, z: -0.013313407, w: 0.8321419}
        inSlope: {x: -0.109608844, y: 1.6724945, z: 0.07123728, w: 1.1288159}
        outSlope: {x: -0.109608844, y: 1.6724945, z: 0.07123728, w: 1.1288159}
        tangentMode: 0
        weightedMode: 0
        inWeight: {x: 0.33333334, y: 0.33333334, z: 0.33333334, w: 0.33333334}
        outWeight: {x: 0.33333334, y: 0.33333334, z: 0.33333334, w: 0.33333334}
      - serializedVersion: 3
        time: 4.75
        value: {x: -0.15598577, y: -0.48756048, z: -0.012602572, w: 0.8589496}
        inSlope: {x: -0.068510965, y: 0.5491861, z: -0.02208592, w: 0.31835717}
        outSlope: {x: -0.068510965, y: 0.5491861, z: -0.02208592, w: 0.31835717}
        tangentMode: 0
        weightedMode: 0
        inWeight: {x: 0.33333334, y: 0.33333334, z: 0.33333334, w: 0.33333334}
        outWeight: {x: 0.33333334, y: 0.33333334, z: 0.33333334, w: 0.33333334}
      - serializedVersion: 3
        time: 4.791668
        value: {x: -0.15847386, y: -0.48717782, z: -0.015154022, w: 0.85867}
        inSlope: {x: -0.059589893, y: 0.009243683, z: -0.061131276, w: -0.006831914}
        outSlope: {x: -0.059589893, y: 0.009243683, z: -0.061131276, w: -0.006831914}
        tangentMode: 0
        weightedMode: 0
        inWeight: {x: 0.33333334, y: 0.33333334, z: 0.33333334, w: 0.33333334}
        outWeight: {x: 0.33333334, y: 0.33333334, z: 0.33333334, w: 0.33333334}
      - serializedVersion: 3
        time: 5.083336
        value: {x: -0.1713735, y: -0.48508734, z: -0.02841322, w: 0.85703796}
        inSlope: {x: -0.013502151, y: 0.0022780746, z: -0.013904926, w: -0.0018632291}
        outSlope: {x: -0.013502151, y: 0.0022780746, z: -0.013904926, w: -0.0018632291}
        tangentMode: 0
        weightedMode: 0
        inWeight: {x: 0.33333334, y: 0.33333334, z: 0.33333334, w: 0.33333334}
        outWeight: {x: 0.33333334, y: 0.33333334, z: 0.33333334, w: 0.33333334}
      - serializedVersion: 3
        time: 5.166668
        value: {x: -0.15903926, y: -0.4870898, z: -0.015734378, w: 0.85860497}
        inSlope: {x: 0.54517365, y: -0.07909128, z: 0.5576976, w: 0.053113986}
        outSlope: {x: 0.54517365, y: -0.07909128, z: 0.5576976, w: 0.053113986}
        tangentMode: 0
        weightedMode: 0
        inWeight: {x: 0.33333334, y: 0.33333334, z: 0.33333334, w: 0.33333334}
        outWeight: {x: 0.33333334, y: 0.33333334, z: 0.33333334, w: 0.33333334}
      - serializedVersion: 3
        time: 5.333336
        value: {x: 0.045294307, y: -0.49872494, z: 0.2008388, w: 0.8419535}
        inSlope: {x: 1.5825064, y: 0.048513483, z: 1.7920414, w: -0.4940682}
        outSlope: {x: 1.5825064, y: 0.048513483, z: 1.7920414, w: -0.4940682}
        tangentMode: 0
        weightedMode: 0
        inWeight: {x: 0.33333334, y: 0.33333334, z: 0.33333334, w: 0.33333334}
        outWeight: {x: 0.33333334, y: 0.33333334, z: 0.33333334, w: 0.33333334}
      - serializedVersion: 3
        time: 5.375
        value: {x: 0.111828394, y: -0.49492335, z: 0.27812657, w: 0.81559235}
        inSlope: {x: 1.4361022, y: 0.11924547, z: 1.7212056, w: -0.69013596}
        outSlope: {x: 1.4361022, y: 0.11924547, z: 1.7212056, w: -0.69013596}
        tangentMode: 0
        weightedMode: 0
        inWeight: {x: 0.33333334, y: 0.33333334, z: 0.33333334, w: 0.33333334}
        outWeight: {x: 0.33333334, y: 0.33333334, z: 0.33333334, w: 0.33333334}
      - serializedVersion: 3
        time: 5.458336
        value: {x: 0.18724047, y: -0.4848297, z: 0.382153, w: 0.7640944}
        inSlope: {x: 0.21222952, y: 0.055511825, z: 0.5930653, w: -0.29622105}
        outSlope: {x: 0.21222952, y: 0.055511825, z: 0.5930653, w: -0.29622105}
        tangentMode: 0
        weightedMode: 0
        inWeight: {x: 0.33333334, y: 0.33333334, z: 0.33333334, w: 0.33333334}
        outWeight: {x: 0.33333334, y: 0.33333334, z: 0.33333334, w: 0.33333334}
      - serializedVersion: 3
        time: 5.541668
        value: {x: 0.16907741, y: -0.48464298, z: 0.39169604, w: 0.76361525}
        inSlope: {x: -0.41693613, y: -0.035709128, z: -0.24079101, w: 0.18754005}
        outSlope: {x: -0.41693613, y: -0.035709128, z: -0.24079101, w: 0.18754005}
        tangentMode: 0
        weightedMode: 0
        inWeight: {x: 0.33333334, y: 0.33333334, z: 0.33333334, w: 0.33333334}
        outWeight: {x: 0.33333334, y: 0.33333334, z: 0.33333334, w: 0.33333334}
      - serializedVersion: 3
        time: 5.625
        value: {x: 0.11228698, y: -0.4919044, z: 0.33466813, w: 0.7958762}
        inSlope: {x: -0.9616316, y: -0.11203125, z: -1.0696847, w: 0.5030401}
        outSlope: {x: -0.9616316, y: -0.11203125, z: -1.0696847, w: 0.5030401}
        tangentMode: 0
        weightedMode: 0
        inWeight: {x: 0.33333334, y: 0.33333334, z: 0.33333334, w: 0.33333334}
        outWeight: {x: 0.33333334, y: 0.33333334, z: 0.33333334, w: 0.33333334}
      - serializedVersion: 3
        time: 5.708336
        value: {x: 0.025503227, y: -0.49918526, z: 0.23912768, w: 0.83245516}
        inSlope: {x: -0.6240591, y: -0.031185504, z: -0.9196625, w: 0.2857333}
        outSlope: {x: -0.6240591, y: -0.031185504, z: -0.9196625, w: 0.2857333}
        tangentMode: 0
        weightedMode: 0
        inWeight: {x: 0.33333334, y: 0.33333334, z: 0.33333334, w: 0.33333334}
        outWeight: {x: 0.33333334, y: 0.33333334, z: 0.33333334, w: 0.33333334}
      - serializedVersion: 3
        time: 5.791668
        value: {x: 0.04036268, y: -0.50211054, z: 0.18158287, w: 0.8445612}
        inSlope: {x: 0.61960804, y: -0.19526172, z: -0.69851995, w: 0.000060077757}
        outSlope: {x: 0.61960804, y: -0.19526172, z: -0.69851995, w: 0.000060077757}
        tangentMode: 0
        weightedMode: 0
        inWeight: {x: 0.33333334, y: 0.33333334, z: 0.33333334, w: 0.33333334}
        outWeight: {x: 0.33333334, y: 0.33333334, z: 0.33333334, w: 0.33333334}
      - serializedVersion: 3
        time: 5.875
        value: {x: 0.069307216, y: -0.53923726, z: 0.106912225, w: 0.8324599}
        inSlope: {x: -0.5340737, y: -0.6075795, z: -1.2586781, w: -0.21880387}
        outSlope: {x: -0.5340737, y: -0.6075795, z: -1.2586781, w: -0.21880387}
        tangentMode: 0
        weightedMode: 0
        inWeight: {x: 0.33333334, y: 0.33333334, z: 0.33333334, w: 0.33333334}
        outWeight: {x: 0.33333334, y: 0.33333334, z: 0.33333334, w: 0.33333334}
      - serializedVersion: 3
        time: 6
        value: {x: -0.18279292, y: -0.5918397, z: -0.131246, w: 0.77400714}
        inSlope: {x: -2.7908478, y: 0.06692252, z: -2.2820473, w: -1.0313867}
        outSlope: {x: -2.7908478, y: 0.06692252, z: -2.2820473, w: -1.0313867}
        tangentMode: 0
        weightedMode: 0
        inWeight: {x: 0.33333334, y: 0.33333334, z: 0.33333334, w: 0.33333334}
        outWeight: {x: 0.33333334, y: 0.33333334, z: 0.33333334, w: 0.33333334}
      - serializedVersion: 3
        time: 6.041668
        value: {x: -0.30272794, y: -0.57996476, z: -0.22931468, w: 0.72070205}
        inSlope: {x: -2.7684374, y: 0.4978915, z: -2.3009243, w: -1.494442}
        outSlope: {x: -2.7684374, y: 0.4978915, z: -2.3009243, w: -1.494442}
        tangentMode: 0
        weightedMode: 0
        inWeight: {x: 0.33333334, y: 0.33333334, z: 0.33333334, w: 0.33333334}
        outWeight: {x: 0.33333334, y: 0.33333334, z: 0.33333334, w: 0.33333334}
      - serializedVersion: 3
        time: 6.083336
        value: {x: -0.41350308, y: -0.55034745, z: -0.32299554, w: 0.6494665}
        inSlope: {x: -2.392265, y: 0.84001076, z: -2.0746891, w: -1.7960249}
        outSlope: {x: -2.392265, y: 0.84001076, z: -2.0746891, w: -1.7960249}
        tangentMode: 0
        weightedMode: 0
        inWeight: {x: 0.33333334, y: 0.33333334, z: 0.33333334, w: 0.33333334}
        outWeight: {x: 0.33333334, y: 0.33333334, z: 0.33333334, w: 0.33333334}
      - serializedVersion: 3
        time: 6.166668
        value: {x: -0.56178457, y: -0.47036642, z: -0.45992407, w: 0.5016209}
        inSlope: {x: -1.0658723, y: 0.78299123, z: -1.0805217, w: -1.3435044}
        outSlope: {x: -1.0658723, y: 0.78299123, z: -1.0805217, w: -1.3435044}
        tangentMode: 0
        weightedMode: 0
        inWeight: {x: 0.33333334, y: 0.33333334, z: 0.33333334, w: 0.33333334}
        outWeight: {x: 0.33333334, y: 0.33333334, z: 0.33333334, w: 0.33333334}
      - serializedVersion: 3
        time: 6.25
        value: {x: -0.6020914, y: -0.43211746, z: -0.5080585, w: 0.4389044}
        inSlope: {x: -0.2097153, y: 0.24848253, z: -0.3064597, w: -0.3897406}
        outSlope: {x: -0.2097153, y: 0.24848253, z: -0.3064597, w: -0.3897406}
        tangentMode: 0
        weightedMode: 0
        inWeight: {x: 0.33333334, y: 0.33333334, z: 0.33333334, w: 0.33333334}
        outWeight: {x: 0.33333334, y: 0.33333334, z: 0.33333334, w: 0.33333334}
      - serializedVersion: 3
        time: 6.458336
        value: {x: -0.61739105, y: -0.40992546, z: -0.534045, w: 0.40692198}
        inSlope: {x: -0.033980757, y: 0.0566786, z: -0.063942455, w: -0.07825883}
        outSlope: {x: -0.033980757, y: 0.0566786, z: -0.063942455, w: -0.07825883}
        tangentMode: 0
        weightedMode: 0
        inWeight: {x: 0.33333334, y: 0.33333334, z: 0.33333334, w: 0.33333334}
        outWeight: {x: 0.33333334, y: 0.33333334, z: 0.33333334, w: 0.33333334}
      - serializedVersion: 3
        time: 6.666668
        value: {x: -0.6211253, y: -0.4035581, z: -0.5411325, w: 0.39814553}
        inSlope: {x: -0.047764037, y: -0.041304402, z: 0.11766957, w: 0.04136162}
        outSlope: {x: -0.047764037, y: -0.041304402, z: 0.11766957, w: 0.04136162}
        tangentMode: 0
        weightedMode: 0
        inWeight: {x: 0.33333334, y: 0.33333334, z: 0.33333334, w: 0.33333334}
        outWeight: {x: 0.33333334, y: 0.33333334, z: 0.33333334, w: 0.33333334}
      m_PreInfinity: 2
      m_PostInfinity: 2
      m_RotationOrder: 4
    path: Headphone
  m_CompressedRotationCurves: []
  m_EulerCurves: []
  m_PositionCurves:
  - curve:
      serializedVersion: 2
      m_Curve:
      - serializedVersion: 3
        time: 0
        value: {x: -6.4117217, y: 0.7790774, z: -5.8811054}
        inSlope: {x: -1.8912904, y: 0.0048230244, z: 0.06296054}
        outSlope: {x: -1.8912289, y: 0.0048322664, z: 0.06318514}
        tangentMode: 0
        weightedMode: 0
        inWeight: {x: 0.33333334, y: 0.33333334, z: 0.33333334}
        outWeight: {x: 0.33333334, y: 0.33333334, z: 0.33333334}
      - serializedVersion: 3
        time: 0.5
        value: {x: -7.19261, y: 0.7994973, z: -5.855755}
        inSlope: {x: -1.2740171, y: 0.07405787, z: 0.039804164}
        outSlope: {x: -1.2740394, y: 0.07406354, z: 0.039668847}
        tangentMode: 0
        weightedMode: 0
        inWeight: {x: 0.33333334, y: 0.33333334, z: 0.33333334}
        outWeight: {x: 0.33333334, y: 0.33333334, z: 0.33333334}
      - serializedVersion: 3
        time: 0.83333206
        value: {x: -7.4434032, y: 0.7889997, z: -5.848598}
        inSlope: {x: -0.106433645, y: -0.17548631, z: -0.000040460163}
        outSlope: {x: -0.10629488, y: -0.17534278, z: 0.000043957254}
        tangentMode: 0
        weightedMode: 0
        inWeight: {x: 0.33333334, y: 0.33333334, z: 0.33333334}
        outWeight: {x: 0.33333334, y: 0.33333334, z: 0.33333334}
      - serializedVersion: 3
        time: 1.3333321
        value: {x: -7.31405, y: 0.7487085, z: -6.331473}
        inSlope: {x: 1.0152076, y: -0.10615393, z: -1.8129606}
        outSlope: {x: 1.014664, y: -0.106063284, z: -1.8117901}
        tangentMode: 0
        weightedMode: 0
        inWeight: {x: 0.33333334, y: 0.33333334, z: 0.33333334}
        outWeight: {x: 0.33333334, y: 0.33333334, z: 0.33333334}
      - serializedVersion: 3
        time: 1.6666679
        value: {x: -6.344509, y: 0.75480676, z: -7.2464542}
        inSlope: {x: 3.5075653, y: 0.1413046, z: -1.5945075}
        outSlope: {x: 3.5099108, y: 0.14139986, z: -1.5954989}
        tangentMode: 0
        weightedMode: 0
        inWeight: {x: 0.33333334, y: 0.33333334, z: 0.33333334}
        outWeight: {x: 0.33333334, y: 0.33333334, z: 0.33333334}
      - serializedVersion: 3
        time: 1.875
        value: {x: -5.5696244, y: 0.7678752, z: -7.3542743}
        inSlope: {x: 4.155153, y: 0.000006803327, z: 0.66461694}
        outSlope: {x: 4.1552157, y: 0.0000064359942, z: 0.664748}
        tangentMode: 0
        weightedMode: 0
        inWeight: {x: 0.33333334, y: 0.33333334, z: 0.33333334}
        outWeight: {x: 0.33333334, y: 0.33333334, z: 0.33333334}
      - serializedVersion: 3
        time: 2.041668
        value: {x: -4.83656, y: 0.8013773, z: -6.938316}
        inSlope: {x: 3.6856053, y: 0.000010188244, z: 3.3439794}
        outSlope: {x: 3.6880243, y: -0.00010313241, z: 3.3461843}
        tangentMode: 0
        weightedMode: 0
        inWeight: {x: 0.33333334, y: 0.33333334, z: 0.33333334}
        outWeight: {x: 0.33333334, y: 0.33333334, z: 0.33333334}
      - serializedVersion: 3
        time: 2.125
        value: {x: -4.573182, y: 0.79152876, z: -6.7180576}
        inSlope: {x: 2.9485967, y: 0.000002714815, z: 1.7671528}
        outSlope: {x: 2.948635, y: 0.00001018923, z: 1.7670977}
        tangentMode: 0
        weightedMode: 0
        inWeight: {x: 0.33333334, y: 0.33333334, z: 0.33333334}
        outWeight: {x: 0.33333334, y: 0.33333334, z: 0.33333334}
      - serializedVersion: 3
        time: 2.208332
        value: {x: -4.347431, y: 0.7863231, z: -6.635477}
        inSlope: {x: 2.3410676, y: -0.26621354, z: 0.00033894947}
        outSlope: {x: 2.3393378, y: -0.2660378, z: -0.000003486498}
        tangentMode: 0
        weightedMode: 0
        inWeight: {x: 0.33333334, y: 0.33333334, z: 0.33333334}
        outWeight: {x: 0.33333334, y: 0.33333334, z: 0.33333334}
      - serializedVersion: 3
        time: 2.291668
        value: {x: -4.1667666, y: 0.7673006, z: -6.641436}
        inSlope: {x: 2.1542625, y: -0.000010710348, z: -0.09471877}
        outSlope: {x: 2.1557436, y: 0.000016735616, z: -0.09483069}
        tangentMode: 0
        weightedMode: 0
        inWeight: {x: 0.33333334, y: 0.33333334, z: 0.33333334}
        outWeight: {x: 0.33333334, y: 0.33333334, z: 0.33333334}
      - serializedVersion: 3
        time: 2.5
        value: {x: -3.7484577, y: 0.7889997, z: -6.6180997}
        inSlope: {x: 1.8557522, y: -0.072850294, z: -0.23306833}
        outSlope: {x: 1.855791, y: -0.07285656, z: -0.2331541}
        tangentMode: 0
        weightedMode: 0
        inWeight: {x: 0.33333334, y: 0.33333334, z: 0.33333334}
        outWeight: {x: 0.33333334, y: 0.33333334, z: 0.33333334}
      - serializedVersion: 3
        time: 3.041668
        value: {x: -2.7366958, y: 0.77406365, z: -6.646662}
        inSlope: {x: 1.891115, y: 0.050467987, z: 0.0965442}
        outSlope: {x: 1.8924125, y: 0.050501294, z: 0.09657117}
        tangentMode: 0
        weightedMode: 0
        inWeight: {x: 0.33333334, y: 0.33333334, z: 0.33333334}
        outWeight: {x: 0.33333334, y: 0.33333334, z: 0.33333334}
      - serializedVersion: 3
        time: 3.791668
        value: {x: -1.3303974, y: 0.7903773, z: -6.615465}
        inSlope: {x: 1.8643148, y: -0.0043215053, z: -0.00817009}
        outSlope: {x: 1.86589, y: -0.004316582, z: -0.008225249}
        tangentMode: 0
        weightedMode: 0
        inWeight: {x: 0.33333334, y: 0.33333334, z: 0.33333334}
        outWeight: {x: 0.33333334, y: 0.33333334, z: 0.33333334}
      - serializedVersion: 3
        time: 3.833332
        value: {x: -1.2526727, y: 0.7901871, z: -6.6158285}
        inSlope: {x: 0.0011609431, y: -0.00000026090754, z: -0.00006347912}
        outSlope: {x: -2.1315632e-14, y: 7.1052105e-15, z: -5.6841684e-14}
        tangentMode: 0
        weightedMode: 0
        inWeight: {x: 0.33333334, y: 0.33333334, z: 0.33333334}
        outWeight: {x: 0.33333334, y: 0.33333334, z: 0.33333334}
      - serializedVersion: 3
        time: 5.875
        value: {x: -1.2526727, y: 0.7901871, z: -6.6158285}
        inSlope: {x: -9.1361075e-15, y: 3.0453691e-15, z: -2.4362953e-14}
        outSlope: {x: -2.1315632e-14, y: 7.1052105e-15, z: -5.6841684e-14}
        tangentMode: 0
        weightedMode: 0
        inWeight: {x: 0.33333334, y: 0.33333334, z: 0.33333334}
        outWeight: {x: 0.33333334, y: 0.33333334, z: 0.33333334}
      - serializedVersion: 3
        time: 6.666668
        value: {x: -1.2526727, y: 0.7901871, z: -6.6158285}
        inSlope: {x: -9.1352715e-15, y: 3.0450904e-15, z: -2.4360723e-14}
        outSlope: {x: 0.000011236496, y: 0.000006713687, z: 0.000010446799}
        tangentMode: 0
        weightedMode: 0
        inWeight: {x: 0.33333334, y: 0.33333334, z: 0.33333334}
        outWeight: {x: 0.33333334, y: 0.33333334, z: 0.33333334}
      m_PreInfinity: 2
      m_PostInfinity: 2
      m_RotationOrder: 4
    path: LawnMower1
  - curve:
      serializedVersion: 2
      m_Curve:
      - serializedVersion: 3
        time: 0
        value: {x: -4.9462194, y: 2.197038, z: -6.0493555}
        inSlope: {x: 0.41326904, y: 1.2730446, z: -0.108818054}
        outSlope: {x: 0.41326904, y: 1.2730446, z: -0.108818054}
        tangentMode: 0
        weightedMode: 0
        inWeight: {x: 0.33333334, y: 0.33333334, z: 0.33333334}
        outWeight: {x: 0.33333334, y: 0.33333334, z: 0.33333334}
      - serializedVersion: 3
        time: 0.04166794
        value: {x: -4.923469, y: 2.2389438, z: -6.048419}
        inSlope: {x: 0.55757385, y: 0.59199196, z: 0.1332423}
        outSlope: {x: 0.5580055, y: 0.59223175, z: 0.13350768}
        tangentMode: 0
        weightedMode: 0
        inWeight: {x: 0.33333334, y: 0.33333334, z: 0.33333334}
        outWeight: {x: 0.33333334, y: 0.33333334, z: 0.33333334}
      - serializedVersion: 3
        time: 0.20833206
        value: {x: -5.030646, y: 2.219819, z: -5.9911075}
        inSlope: {x: -2.5949, y: -0.1168359, z: -0.14122233}
        outSlope: {x: -2.593382, y: -0.11671571, z: -0.14113894}
        tangentMode: 0
        weightedMode: 0
        inWeight: {x: 0.33333334, y: 0.33333334, z: 0.33333334}
        outWeight: {x: 0.33333334, y: 0.33333334, z: 0.33333334}
      - serializedVersion: 3
        time: 0.33333206
        value: {x: -5.5387053, y: 2.184289, z: -5.960088}
        inSlope: {x: -4.359272, y: -0.7840492, z: 1.0044593}
        outSlope: {x: -4.3558445, y: -0.78356147, z: 1.003768}
        tangentMode: 0
        weightedMode: 0
        inWeight: {x: 0.33333334, y: 0.33333334, z: 0.33333334}
        outWeight: {x: 0.33333334, y: 0.33333334, z: 0.33333334}
      - serializedVersion: 3
        time: 0.45833206
        value: {x: -5.831148, y: 2.1474874, z: -5.813342}
        inSlope: {x: -0.00019386817, y: 1.0698842, z: 0.60884}
        outSlope: {x: -0.000087357475, y: 1.0692863, z: 0.6081629}
        tangentMode: 0
        weightedMode: 0
        inWeight: {x: 0.33333334, y: 0.33333334, z: 0.33333334}
        outWeight: {x: 0.33333334, y: 0.33333334, z: 0.33333334}
      - serializedVersion: 3
        time: 0.54166794
        value: {x: -5.6984434, y: 2.255292, z: -5.8394256}
        inSlope: {x: 1.8298532, y: 0.5432851, z: -1.1133336}
        outSlope: {x: 1.8311257, y: 0.5434532, z: -1.1142697}
        tangentMode: 0
        weightedMode: 0
        inWeight: {x: 0.33333334, y: 0.33333334, z: 0.33333334}
        outWeight: {x: 0.33333334, y: 0.33333334, z: 0.33333334}
      - serializedVersion: 3
        time: 0.66666794
        value: {x: -5.600573, y: 2.22745, z: -5.973081}
        inSlope: {x: -0.8147323, y: -0.000007799539, z: 0.000010504017}
        outSlope: {x: -0.8158308, y: 0.000298495, z: 0.00092197914}
        tangentMode: 0
        weightedMode: 0
        inWeight: {x: 0.33333334, y: 0.33333334, z: 0.33333334}
        outWeight: {x: 0.33333334, y: 0.33333334, z: 0.33333334}
      - serializedVersion: 3
        time: 0.79166794
        value: {x: -5.9749846, y: 2.248793, z: -5.7551713}
        inSlope: {x: -4.0459123, y: -0.71956044, z: 0.00008492261}
        outSlope: {x: -4.048984, y: -0.7203038, z: -0.00017087969}
        tangentMode: 0
        weightedMode: 0
        inWeight: {x: 0.33333334, y: 0.33333334, z: 0.33333334}
        outWeight: {x: 0.33333334, y: 0.33333334, z: 0.33333334}
      - serializedVersion: 3
        time: 0.91666794
        value: {x: -6.3044653, y: 2.1257596, z: -5.860439}
        inSlope: {x: -0.00006890685, y: -0.00002119697, z: -0.00005217492}
        outSlope: {x: 0.00011787258, y: 0.00026310026, z: 0.00010393141}
        tangentMode: 0
        weightedMode: 0
        inWeight: {x: 0.33333334, y: 0.33333334, z: 0.33333334}
        outWeight: {x: 0.33333334, y: 0.33333334, z: 0.33333334}
      - serializedVersion: 3
        time: 1.0833321
        value: {x: -6.0233617, y: 2.2479384, z: -5.7292614}
        inSlope: {x: 2.3816984, y: 0.0001253608, z: 1.1077614}
        outSlope: {x: 2.3799443, y: -0.000009542838, z: 1.1069813}
        tangentMode: 0
        weightedMode: 0
        inWeight: {x: 0.33333334, y: 0.33333334, z: 0.33333334}
        outWeight: {x: 0.33333334, y: 0.33333334, z: 0.33333334}
      - serializedVersion: 3
        time: 1.2083321
        value: {x: -5.9379234, y: 2.2364, z: -5.6951685}
        inSlope: {x: -1.318845, y: 0.34654576, z: -1.0934093}
        outSlope: {x: -1.31815, y: 0.3462861, z: -1.0928515}
        tangentMode: 0
        weightedMode: 0
        inWeight: {x: 0.33333334, y: 0.33333334, z: 0.33333334}
        outWeight: {x: 0.33333334, y: 0.33333334, z: 0.33333334}
      - serializedVersion: 3
        time: 1.3333321
        value: {x: -6.22417, y: 2.193976, z: -5.969407}
        inSlope: {x: -2.2316153, y: -1.5382599, z: -2.4613092}
        outSlope: {x: -2.229737, y: -1.5373056, z: -2.459418}
        tangentMode: 0
        weightedMode: 0
        inWeight: {x: 0.33333334, y: 0.33333334, z: 0.33333334}
        outWeight: {x: 0.33333334, y: 0.33333334, z: 0.33333334}
      - serializedVersion: 3
        time: 1.4583321
        value: {x: -6.3633676, y: 2.0247202, z: -6.167869}
        inSlope: {x: -0.00009554674, y: -0.00023782223, z: -0.0049569383}
        outSlope: {x: -0.00003147998, y: 0.000009427323, z: -0.004446711}
        tangentMode: 0
        weightedMode: 0
        inWeight: {x: 0.33333334, y: 0.33333334, z: 0.33333334}
        outWeight: {x: 0.33333334, y: 0.33333334, z: 0.33333334}
      - serializedVersion: 3
        time: 1.5833321
        value: {x: -6.1982827, y: 2.2279787, z: -6.042886}
        inSlope: {x: 1.8706356, y: 1.326419, z: 2.4723234}
        outSlope: {x: 1.8693365, y: 1.3252167, z: 2.4707103}
        tangentMode: 0
        weightedMode: 0
        inWeight: {x: 0.33333334, y: 0.33333334, z: 0.33333334}
        outWeight: {x: 0.33333334, y: 0.33333334, z: 0.33333334}
      - serializedVersion: 3
        time: 1.75
        value: {x: -5.9696198, y: 2.2238133, z: -5.683191}
        inSlope: {x: 0.5499552, y: -0.000014948569, z: -0.000044749682}
        outSlope: {x: 0.5498416, y: 0.000033946897, z: -0.000034065044}
        tangentMode: 0
        weightedMode: 0
        inWeight: {x: 0.33333334, y: 0.33333334, z: 0.33333334}
        outWeight: {x: 0.33333334, y: 0.33333334, z: 0.33333334}
      - serializedVersion: 3
        time: 1.875
        value: {x: -5.890374, y: 2.242296, z: -6.0227814}
        inSlope: {x: 1.3035343, y: -1.1764079, z: -3.7705896}
        outSlope: {x: 1.303636, y: -1.176469, z: -3.7706475}
        tangentMode: 0
        weightedMode: 0
        inWeight: {x: 0.33333334, y: 0.33333334, z: 0.33333334}
        outWeight: {x: 0.33333334, y: 0.33333334, z: 0.33333334}
      - serializedVersion: 3
        time: 2
        value: {x: -5.6083355, y: 2.030099, z: -6.2549553}
        inSlope: {x: 2.68955, y: -0.00006713188, z: 0.000043268916}
        outSlope: {x: 2.6894493, y: 0.000013548675, z: 0.00020273525}
        tangentMode: 0
        weightedMode: 0
        inWeight: {x: 0.33333334, y: 0.33333334, z: 0.33333334}
        outWeight: {x: 0.33333334, y: 0.33333334, z: 0.33333334}
      - serializedVersion: 3
        time: 2.083332
        value: {x: -5.470388, y: 2.1202981, z: -6.0685673}
        inSlope: {x: 0.0003731184, y: 1.6215278, z: 2.3801477}
        outSlope: {x: 0.000016250875, y: 1.6202512, z: 2.3781526}
        tangentMode: 0
        weightedMode: 0
        inWeight: {x: 0.33333334, y: 0.33333334, z: 0.33333334}
        outWeight: {x: 0.33333334, y: 0.33333334, z: 0.33333334}
      - serializedVersion: 3
        time: 2.166668
        value: {x: -5.6368966, y: 2.2026546, z: -5.9638085}
        inSlope: {x: -2.1187553, y: 0.0000126835175, z: 0.0000543561}
        outSlope: {x: -2.1203, y: -0.0002294518, z: -0.00027405933}
        tangentMode: 0
        weightedMode: 0
        inWeight: {x: 0.33333334, y: 0.33333334, z: 0.33333334}
        outWeight: {x: 0.33333334, y: 0.33333334, z: 0.33333334}
      - serializedVersion: 3
        time: 2.25
        value: {x: -5.708715, y: 2.1793723, z: -6.0552278}
        inSlope: {x: 0.040383115, y: 0.000009096664, z: -1.8023709}
        outSlope: {x: 0.04059894, y: 0.00007486516, z: -1.8024279}
        tangentMode: 0
        weightedMode: 0
        inWeight: {x: 0.33333334, y: 0.33333334, z: 0.33333334}
        outWeight: {x: 0.33333334, y: 0.33333334, z: 0.33333334}
      - serializedVersion: 3
        time: 2.333332
        value: {x: -5.360289, y: 2.2348273, z: -6.2322617}
        inSlope: {x: 5.3818502, y: 0.00033057661, z: -1.766882}
        outSlope: {x: 5.377775, y: 0.0000105778345, z: -1.7653483}
        tangentMode: 0
        weightedMode: 0
        inWeight: {x: 0.33333334, y: 0.33333334, z: 0.33333334}
        outWeight: {x: 0.33333334, y: 0.33333334, z: 0.33333334}
      - serializedVersion: 3
        time: 2.416668
        value: {x: -5.006671, y: 2.1743805, z: -6.307289}
        inSlope: {x: 1.8852748, y: -0.000014546814, z: -0.4817577}
        outSlope: {x: 1.885899, y: 0.00028994743, z: -0.48208988}
        tangentMode: 0
        weightedMode: 0
        inWeight: {x: 0.33333334, y: 0.33333334, z: 0.33333334}
        outWeight: {x: 0.33333334, y: 0.33333334, z: 0.33333334}
      - serializedVersion: 3
        time: 2.541668
        value: {x: -5.109973, y: 2.23863, z: -6.3689885}
        inSlope: {x: -2.0841227, y: 0.00000032601014, z: -0.000015339645}
        outSlope: {x: -2.0856547, y: -0.0003623074, z: 0.00084180344}
        tangentMode: 0
        weightedMode: 0
        inWeight: {x: 0.33333334, y: 0.33333334, z: 0.33333334}
        outWeight: {x: 0.33333334, y: 0.33333334, z: 0.33333334}
      - serializedVersion: 3
        time: 2.666668
        value: {x: -5.169041, y: 2.1471741, z: -6.2051806}
        inSlope: {x: 1.6283756, y: 0.000007408965, z: 0.000018012668}
        outSlope: {x: 1.6299318, y: 0.00011577151, z: -0.00014854531}
        tangentMode: 0
        weightedMode: 0
        inWeight: {x: 0.33333334, y: 0.33333334, z: 0.33333334}
        outWeight: {x: 0.33333334, y: 0.33333334, z: 0.33333334}
      - serializedVersion: 3
        time: 2.833332
        value: {x: -4.6807284, y: 2.2573361, z: -6.341193}
        inSlope: {x: 3.370511, y: 0.16532408, z: -0.49099734}
        outSlope: {x: 3.368005, y: 0.16495746, z: -0.49044746}
        tangentMode: 0
        weightedMode: 0
        inWeight: {x: 0.33333334, y: 0.33333334, z: 0.33333334}
        outWeight: {x: 0.33333334, y: 0.33333334, z: 0.33333334}
      - serializedVersion: 3
        time: 3.083332
        value: {x: -3.9487786, y: 2.1508842, z: -6.3289275}
        inSlope: {x: 2.751047, y: -0.30812037, z: 0.14408034}
        outSlope: {x: 2.749065, y: -0.30789462, z: 0.14389136}
        tangentMode: 0
        weightedMode: 0
        inWeight: {x: 0.33333334, y: 0.33333334, z: 0.33333334}
        outWeight: {x: 0.33333334, y: 0.33333334, z: 0.33333334}
      - serializedVersion: 3
        time: 3.208332
        value: {x: -3.6901226, y: 2.1746957, z: -6.2696}
        inSlope: {x: 0.5846529, y: 0.81894964, z: 0.62452316}
        outSlope: {x: 0.583805, y: 0.8183885, z: 0.6238613}
        tangentMode: 0
        weightedMode: 0
        inWeight: {x: 0.33333334, y: 0.33333334, z: 0.33333334}
        outWeight: {x: 0.33333334, y: 0.33333334, z: 0.33333334}
      - serializedVersion: 3
        time: 3.333332
        value: {x: -3.7057238, y: 2.2463186, z: -6.2463217}
        inSlope: {x: -0.00009310058, y: 0.000021961796, z: -0.10881802}
        outSlope: {x: -0.000043296473, y: 0.000002832564, z: -0.10877106}
        tangentMode: 0
        weightedMode: 0
        inWeight: {x: 0.33333334, y: 0.33333334, z: 0.33333334}
        outWeight: {x: 0.33333334, y: 0.33333334, z: 0.33333334}
      - serializedVersion: 3
        time: 3.5
        value: {x: -3.392754, y: 2.2130616, z: -6.2240634}
        inSlope: {x: 3.9107862, y: 0.00002091508, z: 0.57401067}
        outSlope: {x: 3.9108047, y: 0.000012736011, z: 0.57397443}
        tangentMode: 0
        weightedMode: 0
        inWeight: {x: 0.33333334, y: 0.33333334, z: 0.33333334}
        outWeight: {x: 0.33333334, y: 0.33333334, z: 0.33333334}
      - serializedVersion: 3
        time: 3.625
        value: {x: -2.8607662, y: 2.1612718, z: -6.270281}
        inSlope: {x: 3.224868, y: -0.5698777, z: -1.1249034}
        outSlope: {x: 3.224751, y: -0.5698648, z: -1.1248873}
        tangentMode: 0
        weightedMode: 0
        inWeight: {x: 0.33333334, y: 0.33333334, z: 0.33333334}
        outWeight: {x: 0.33333334, y: 0.33333334, z: 0.33333334}
      - serializedVersion: 3
        time: 3.708332
        value: {x: -2.7237253, y: 2.1645174, z: -6.362451}
        inSlope: {x: 0.00031801529, y: 0.67614555, z: -0.89314795}
        outSlope: {x: 0.00003255109, y: 0.67567384, z: -0.8924643}
        tangentMode: 0
        weightedMode: 0
        inWeight: {x: 0.33333334, y: 0.33333334, z: 0.33333334}
        outWeight: {x: 0.33333334, y: 0.33333334, z: 0.33333334}
      - serializedVersion: 3
        time: 3.791668
        value: {x: -2.835682, y: 2.2160048, z: -6.3817506}
        inSlope: {x: -1.6600016, y: 0.00002418808, z: 0.7573924}
        outSlope: {x: -1.6610361, y: -0.00035148996, z: 0.7585784}
        tangentMode: 0
        weightedMode: 0
        inWeight: {x: 0.33333334, y: 0.33333334, z: 0.33333334}
        outWeight: {x: 0.33333334, y: 0.33333334, z: 0.33333334}
      - serializedVersion: 3
        time: 3.833332
        value: {x: -2.8984866, y: 2.1941013, z: -6.3244586}
        inSlope: {x: -1.6736276, y: -0.00035148996, z: 0.0009987216}
        outSlope: {x: -1.6726161, y: -0.000012631686, z: 0.000011195752}
        tangentMode: 0
        weightedMode: 0
        inWeight: {x: 0.33333334, y: 0.33333334, z: 0.33333334}
        outWeight: {x: 0.33333334, y: 0.33333334, z: 0.33333334}
      - serializedVersion: 3
        time: 3.875
        value: {x: -2.9750726, y: 2.2155428, z: -6.334181}
        inSlope: {x: -3.0120003, y: 0.5283962, z: -0.21287292}
        outSlope: {x: -3.0121913, y: 0.52843225, z: -0.21284781}
        tangentMode: 0
        weightedMode: 0
        inWeight: {x: 0.33333334, y: 0.33333334, z: 0.33333334}
        outWeight: {x: 0.33333334, y: 0.33333334, z: 0.33333334}
      - serializedVersion: 3
        time: 3.958332
        value: {x: -3.3286421, y: 2.2402835, z: -6.325194}
        inSlope: {x: -4.2700686, y: 0.00002196938, z: 0.31290406}
        outSlope: {x: -4.2670364, y: 0.000014250801, z: 0.312436}
        tangentMode: 0
        weightedMode: 0
        inWeight: {x: 0.33333334, y: 0.33333334, z: 0.33333334}
        outWeight: {x: 0.33333334, y: 0.33333334, z: 0.33333334}
      - serializedVersion: 3
        time: 4.083332
        value: {x: -3.8256023, y: 2.0716617, z: -6.371404}
        inSlope: {x: -2.2518787, y: -0.00067597226, z: -0.0004903104}
        outSlope: {x: -2.249723, y: -0.000016204305, z: -0.00007687128}
        tangentMode: 0
        weightedMode: 0
        inWeight: {x: 0.33333334, y: 0.33333334, z: 0.33333334}
        outWeight: {x: 0.33333334, y: 0.33333334, z: 0.33333334}
      - serializedVersion: 3
        time: 4.166668
        value: {x: -3.8711293, y: 2.188958, z: -6.2809634}
        inSlope: {x: -0.000022695584, y: 1.2073723, z: 0.00005073949}
        outSlope: {x: -0.000043931916, y: 1.2080218, z: -0.0000920808}
        tangentMode: 0
        weightedMode: 0
        inWeight: {x: 0.33333334, y: 0.33333334, z: 0.33333334}
        outWeight: {x: 0.33333334, y: 0.33333334, z: 0.33333334}
      - serializedVersion: 3
        time: 4.291668
        value: {x: -3.991865, y: 2.225898, z: -6.3581676}
        inSlope: {x: -1.6175561, y: 0.072431505, z: -0.98696536}
        outSlope: {x: -1.6186749, y: 0.0724732, z: -0.9875783}
        tangentMode: 0
        weightedMode: 0
        inWeight: {x: 0.33333334, y: 0.33333334, z: 0.33333334}
        outWeight: {x: 0.33333334, y: 0.33333334, z: 0.33333334}
      - serializedVersion: 3
        time: 4.666668
        value: {x: -4.266693, y: 2.1933374, z: -6.4883432}
        inSlope: {x: 0.148306, y: -0.123648204, z: 0.08801209}
        outSlope: {x: 0.14848804, y: -0.123737305, z: 0.08812896}
        tangentMode: 0
        weightedMode: 0
        inWeight: {x: 0.33333334, y: 0.33333334, z: 0.33333334}
        outWeight: {x: 0.33333334, y: 0.33333334, z: 0.33333334}
      - serializedVersion: 3
        time: 5.083332
        value: {x: -4.111598, y: 2.1030424, z: -6.4756207}
        inSlope: {x: 0.43942478, y: -0.4389089, z: 0.07211586}
        outSlope: {x: 0.43912295, y: -0.43857768, z: 0.07201579}
        tangentMode: 0
        weightedMode: 0
        inWeight: {x: 0.33333334, y: 0.33333334, z: 0.33333334}
        outWeight: {x: 0.33333334, y: 0.33333334, z: 0.33333334}
      - serializedVersion: 3
        time: 5.208332
        value: {x: -4.1901774, y: 2.020625, z: -6.419325}
        inSlope: {x: -2.3858998, y: -1.2240946, z: 1.0404379}
        outSlope: {x: -2.3844848, y: -1.2234161, z: 1.0398258}
        tangentMode: 0
        weightedMode: 0
        inWeight: {x: 0.33333334, y: 0.33333334, z: 0.33333334}
        outWeight: {x: 0.33333334, y: 0.33333334, z: 0.33333334}
      - serializedVersion: 3
        time: 5.333332
        value: {x: -4.607541, y: 1.7111353, z: -6.2620564}
        inSlope: {x: -3.4694338, y: -3.9182155, z: 1.0836743}
        outSlope: {x: -3.466796, y: -3.9156787, z: 1.0827695}
        tangentMode: 0
        weightedMode: 0
        inWeight: {x: 0.33333334, y: 0.33333334, z: 0.33333334}
        outWeight: {x: 0.33333334, y: 0.33333334, z: 0.33333334}
      - serializedVersion: 3
        time: 5.416668
        value: {x: -4.8268466, y: 1.3529695, z: -6.207785}
        inSlope: {x: -0.06077772, y: -3.372938, z: 0.000015296677}
        outSlope: {x: -0.06083344, y: -3.3749475, z: -0.00026431945}
        tangentMode: 0
        weightedMode: 0
        inWeight: {x: 0.33333334, y: 0.33333334, z: 0.33333334}
        outWeight: {x: 0.33333334, y: 0.33333334, z: 0.33333334}
      - serializedVersion: 3
        time: 5.541668
        value: {x: -4.6983533, y: 1.2413919, z: -6.303587}
        inSlope: {x: 1.8153186, y: 1.0746206, z: -0.5604718}
        outSlope: {x: 1.8166082, y: 1.0757192, z: -0.560632}
        tangentMode: 0
        weightedMode: 0
        inWeight: {x: 0.33333334, y: 0.33333334, z: 0.33333334}
        outWeight: {x: 0.33333334, y: 0.33333334, z: 0.33333334}
      - serializedVersion: 3
        time: 5.583332
        value: {x: -4.6177726, y: 1.3130703, z: -6.318442}
        inSlope: {x: 2.2872703, y: 2.3345068, z: -0.3812823}
        outSlope: {x: 2.2859259, y: 2.3331232, z: -0.381156}
        tangentMode: 0
        weightedMode: 0
        inWeight: {x: 0.33333334, y: 0.33333334, z: 0.33333334}
        outWeight: {x: 0.33333334, y: 0.33333334, z: 0.33333334}
      - serializedVersion: 3
        time: 5.666668
        value: {x: -4.384727, y: 1.5512271, z: -6.358205}
        inSlope: {x: 2.8519354, y: 2.2518344, z: -0.6070831}
        outSlope: {x: 2.8538942, y: 2.2531896, z: -0.60769737}
        tangentMode: 0
        weightedMode: 0
        inWeight: {x: 0.33333334, y: 0.33333334, z: 0.33333334}
        outWeight: {x: 0.33333334, y: 0.33333334, z: 0.33333334}
      - serializedVersion: 3
        time: 5.875
        value: {x: -3.808831, y: 1.6547613, z: -6.3729725}
        inSlope: {x: 3.761305, y: -0.45914677, z: -0.25953168}
        outSlope: {x: 3.7612827, y: -0.4591023, z: -0.259669}
        tangentMode: 0
        weightedMode: 0
        inWeight: {x: 0.33333334, y: 0.33333334, z: 0.33333334}
        outWeight: {x: 0.33333334, y: 0.33333334, z: 0.33333334}
      - serializedVersion: 3
        time: 6.041668
        value: {x: -2.99941, y: 1.3819212, z: -6.5234866}
        inSlope: {x: 4.4789643, y: -3.8095028, z: -0.5806553}
        outSlope: {x: 4.481982, y: -3.8125427, z: -0.5810761}
        tangentMode: 0
        weightedMode: 0
        inWeight: {x: 0.33333334, y: 0.33333334, z: 0.33333334}
        outWeight: {x: 0.33333334, y: 0.33333334, z: 0.33333334}
      - serializedVersion: 3
        time: 6.166668
        value: {x: -2.6828036, y: 0.83276653, z: -6.515926}
        inSlope: {x: 0.7376329, y: -3.313096, z: 0.41451088}
        outSlope: {x: 0.73792684, y: -3.3150613, z: 0.4147804}
        tangentMode: 0
        weightedMode: 0
        inWeight: {x: 0.33333334, y: 0.33333334, z: 0.33333334}
        outWeight: {x: 0.33333334, y: 0.33333334, z: 0.33333334}
      - serializedVersion: 3
        time: 6.291668
        value: {x: -2.6657414, y: 0.63807935, z: -6.478026}
        inSlope: {x: -0.011184089, y: -0.5905142, z: 0.14501648}
        outSlope: {x: -0.011138371, y: -0.5908225, z: 0.14504091}
        tangentMode: 0
        weightedMode: 0
        inWeight: {x: 0.33333334, y: 0.33333334, z: 0.33333334}
        outWeight: {x: 0.33333334, y: 0.33333334, z: 0.33333334}
      - serializedVersion: 3
        time: 6.458332
        value: {x: -2.6697752, y: 0.59220093, z: -6.466083}
        inSlope: {x: -0.021988293, y: -0.17500424, z: 0.04660789}
        outSlope: {x: -0.022013485, y: -0.17488107, z: 0.04654224}
        tangentMode: 0
        weightedMode: 0
        inWeight: {x: 0.33333334, y: 0.33333334, z: 0.33333334}
        outWeight: {x: 0.33333334, y: 0.33333334, z: 0.33333334}
      - serializedVersion: 3
        time: 6.666668
        value: {x: -2.6725206, y: 0.5727139, z: -6.460884}
        inSlope: {x: -0.000004882278, y: -0.0000017849203, z: 0.016545951}
        outSlope: {x: 0.00008189952, y: 0.0000145893655, z: 0.016580814}
        tangentMode: 0
        weightedMode: 0
        inWeight: {x: 0.33333334, y: 0.33333334, z: 0.33333334}
        outWeight: {x: 0.33333334, y: 0.33333334, z: 0.33333334}
      m_PreInfinity: 2
      m_PostInfinity: 2
      m_RotationOrder: 4
    path: Headphone
  m_ScaleCurves:
  - curve:
      serializedVersion: 2
      m_Curve:
      - serializedVersion: 3
        time: 0
        value: {x: 1, y: 1, z: 1}
        inSlope: {x: 0, y: 0, z: 0}
        outSlope: {x: 0, y: 0, z: 0}
        tangentMode: 0
        weightedMode: 0
        inWeight: {x: 0.33333334, y: 0.33333334, z: 0.33333334}
        outWeight: {x: 0.33333334, y: 0.33333334, z: 0.33333334}
      - serializedVersion: 3
        time: 6.666668
        value: {x: 1, y: 1, z: 1}
        inSlope: {x: 0, y: 0, z: 0}
        outSlope: {x: 0, y: 0, z: 0}
        tangentMode: 0
        weightedMode: 0
        inWeight: {x: 0.33333334, y: 0.33333334, z: 0.33333334}
        outWeight: {x: 0.33333334, y: 0.33333334, z: 0.33333334}
      m_PreInfinity: 2
      m_PostInfinity: 2
      m_RotationOrder: 4
    path: LawnMower1
  - curve:
      serializedVersion: 2
      m_Curve:
      - serializedVersion: 3
        time: 0
        value: {x: 1, y: 1, z: 1}
        inSlope: {x: 0, y: 0, z: 0}
        outSlope: {x: 0, y: 0, z: 0}
        tangentMode: 0
        weightedMode: 0
        inWeight: {x: 0.33333334, y: 0.33333334, z: 0.33333334}
        outWeight: {x: 0.33333334, y: 0.33333334, z: 0.33333334}
      - serializedVersion: 3
        time: 6.666668
        value: {x: 1, y: 1, z: 1}
        inSlope: {x: 0, y: 0, z: 0}
        outSlope: {x: 0, y: 0, z: 0}
        tangentMode: 0
        weightedMode: 0
        inWeight: {x: 0.33333334, y: 0.33333334, z: 0.33333334}
        outWeight: {x: 0.33333334, y: 0.33333334, z: 0.33333334}
      m_PreInfinity: 2
      m_PostInfinity: 2
      m_RotationOrder: 4
    path: Headphone
  m_FloatCurves:
  - curve:
      serializedVersion: 2
      m_Curve:
      - serializedVersion: 3
        time: 0
        value: 1
        inSlope: 0
        outSlope: 0
        tangentMode: 0
        weightedMode: 0
        inWeight: 0.33333334
        outWeight: 0.33333334
      - serializedVersion: 3
        time: 6.666668
        value: 1
        inSlope: 0
        outSlope: 0
        tangentMode: 0
        weightedMode: 0
        inWeight: 0.33333334
        outWeight: 0.33333334
      m_PreInfinity: 2
      m_PostInfinity: 2
      m_RotationOrder: 4
    attribute: m_Enabled
    path: LawnMower1
    classID: 25
    script: {fileID: 0}
  - curve:
      serializedVersion: 2
      m_Curve:
      - serializedVersion: 3
        time: 0
        value: 1
        inSlope: 0
        outSlope: 0
        tangentMode: 0
        weightedMode: 0
        inWeight: 0.33333334
        outWeight: 0.33333334
      - serializedVersion: 3
        time: 6.666668
        value: 1
        inSlope: 0
        outSlope: 0
        tangentMode: 0
        weightedMode: 0
        inWeight: 0.33333334
        outWeight: 0.33333334
      m_PreInfinity: 2
      m_PostInfinity: 2
      m_RotationOrder: 4
    attribute: m_Enabled
    path: Headphone
    classID: 25
    script: {fileID: 0}
  m_PPtrCurves: []
  m_SampleRate: 24
  m_WrapMode: 0
  m_Bounds:
    m_Center: {x: 0, y: 0, z: 0}
    m_Extent: {x: 0, y: 0, z: 0}
  m_ClipBindingConstant:
    genericBindings: []
    pptrCurveMapping: []
  m_AnimationClipSettings:
    serializedVersion: 2
    m_AdditiveReferencePoseClip: {fileID: 0}
    m_AdditiveReferencePoseTime: 0
    m_StartTime: 0
    m_StopTime: 6.666668
    m_OrientationOffsetY: 0
    m_Level: 0
    m_CycleOffset: 0
    m_HasAdditiveReferencePose: 0
    m_LoopTime: 0
    m_LoopBlend: 0
    m_LoopBlendOrientation: 0
    m_LoopBlendPositionY: 0
    m_LoopBlendPositionXZ: 0
    m_KeepOriginalOrientation: 0
    m_KeepOriginalPositionY: 1
    m_KeepOriginalPositionXZ: 0
    m_HeightFromFeet: 0
    m_Mirror: 0
  m_EditorCurves: []
  m_EulerEditorCurves: []
  m_HasGenericRootTransform: 0
  m_HasMotionFloatCurves: 0
  m_Events: []
