%YAML 1.1
%TAG !u! tag:unity3d.com,2011:
--- !u!114 &-9176888932052055942
MonoBehaviour:
  m_ObjectHideFlags: 11
  m_CorrespondingSourceObject: {fileID: 0}
  m_PrefabInstance: {fileID: 0}
  m_PrefabAsset: {fileID: 0}
  m_GameObject: {fileID: 0}
  m_Enabled: 1
  m_EditorHideFlags: 0
  m_Script: {fileID: 11500000, guid: d0353a89b1f911e48b9e16bdc9f2e058, type: 3}
  m_Name: 
  m_EditorClassIdentifier: 
  version: 1
--- !u!21 &2100000
Material:
  serializedVersion: 6
  m_ObjectHideFlags: 0
  m_CorrespondingSourceObject: {fileID: 0}
  m_PrefabInstance: {fileID: 0}
  m_PrefabAsset: {fileID: 0}
  m_Name: Salt Flake- MAT
  m_Shader: {fileID: -6465566751694194690, guid: dc22cba4fc6d9cf46b2f2c187823328d,
    type: 3}
  m_ShaderKeywords: _MK_ALBEDO_MAP _MK_LIGHTMODEL_LAMBERT _MK_LIGHTTYPE_CEL_SHADE_SIMPLE
  m_LightmapFlags: 4
  m_EnableInstancingVariants: 0
  m_DoubleSidedGI: 0
  m_CustomRenderQueue: -1
  stringTagMap:
    IGNOREPROJECTOR: False
    QUEUE: Geometry
  disabledShaderPasses: []
  m_SavedProperties:
    serializedVersion: 3
    m_TexEnvs:
    - Texture2D_899A00C9:
        m_Texture: {fileID: 2800000, guid: 67d65b3a935bc4f4e80651fc6cd48b99, type: 3}
        m_Scale: {x: 1, y: 1}
        m_Offset: {x: 0, y: 0}
    - _AnisoMap:
        m_Texture: {fileID: 0}
        m_Scale: {x: 1, y: 1}
        m_Offset: {x: 0, y: 0}
    - _BaseMap:
        m_Texture: {fileID: 2800000, guid: 67d65b3a935bc4f4e80651fc6cd48b99, type: 3}
        m_Scale: {x: 1, y: 1}
        m_Offset: {x: 0, y: 0}
    - _BumpMap:
        m_Texture: {fileID: 0}
        m_Scale: {x: 1, y: 1}
        m_Offset: {x: 0, y: 0}
    - _DetailAlbedoMap:
        m_Texture: {fileID: 0}
        m_Scale: {x: 1, y: 1}
        m_Offset: {x: 0, y: 0}
    - _DetailNormalMap:
        m_Texture: {fileID: 0}
        m_Scale: {x: 1, y: 1}
        m_Offset: {x: 0, y: 0}
    - _DissolveMap:
        m_Texture: {fileID: 0}
        m_Scale: {x: 1, y: 1}
        m_Offset: {x: 0, y: 0}
    - _DissolveRamp:
        m_Texture: {fileID: 0}
        m_Scale: {x: 1, y: 1}
        m_Offset: {x: 0, y: 0}
    - _EmissionMap:
        m_Texture: {fileID: 0}
        m_Scale: {x: 1, y: 1}
        m_Offset: {x: 0, y: 0}
    - _MainTex:
        m_Texture: {fileID: 2800000, guid: 67d65b3a935bc4f4e80651fc6cd48b99, type: 3}
        m_Scale: {x: 1, y: 1}
        m_Offset: {x: 0, y: 0}
    - _MainTexture:
        m_Texture: {fileID: 2800000, guid: 67d65b3a935bc4f4e80651fc6cd48b99, type: 3}
        m_Scale: {x: 1, y: 1}
        m_Offset: {x: 0, y: 0}
    - _MetallicGlossMap:
        m_Texture: {fileID: 0}
        m_Scale: {x: 1, y: 1}
        m_Offset: {x: 0, y: 0}
    - _OcclusionMap:
        m_Texture: {fileID: 0}
        m_Scale: {x: 1, y: 1}
        m_Offset: {x: 0, y: 0}
    - _Ramp:
        m_Texture: {fileID: 0}
        m_Scale: {x: 1, y: 1}
        m_Offset: {x: 0, y: 0}
    - _ReflectMap:
        m_Texture: {fileID: 0}
        m_Scale: {x: 1, y: 1}
        m_Offset: {x: 0, y: 0}
    - _SketchMap:
        m_Texture: {fileID: 0}
        m_Scale: {x: 1, y: 1}
        m_Offset: {x: 0, y: 0}
    - _SpecGlossMap:
        m_Texture: {fileID: 0}
        m_Scale: {x: 1, y: 1}
        m_Offset: {x: 0, y: 0}
    - _TexOverlay:
        m_Texture: {fileID: 0}
        m_Scale: {x: 1, y: 1}
        m_Offset: {x: 0, y: 0}
    - _TranslucentMap:
        m_Texture: {fileID: 0}
        m_Scale: {x: 1, y: 1}
        m_Offset: {x: 0, y: 0}
    m_Floats:
    - Vector1_32C37156: 0
    - Vector1_362FC9B5: 1
    - Vector1_38BD3441: 0.5
    - Vector1_47CA361F: 0
    - Vector1_4ABD4F96: 1
    - Vector1_5CDA327C: 1
    - Vector1_60CC56B2: 0
    - Vector1_A4170162: 1
    - Vector1_B46E9C8C: 0
    - Vector1_BBDDDF48: 0.5
    - Vector1_C7E19E7D: 0
    - Vector1_CF8B0D8D: 6
    - Vector1_ED5ABFD9: 0
    - Vector1_F3F6B787: 0
    - _AlbedoMap: 0
    - _AlphaClip: 0
    - _AnisoOffset: -0.2
    - _Blend: 0
    - _Blend0: 1
    - _Blend1: 0
    - _Brightness: 1
    - _BumpScale: 1
    - _ColorMaskStrength: 0.35
    - _Contrast: 1
    - _CoreColorPower: 20
    - _Cull: 2
    - _CullMode: 2
    - _Cutoff: 0.5
    - _DetailNormalMapScale: 1
    - _DetailTint: 0.5
    - _DissolveAmount: 0.5
    - _DissolveRampSize: 0.25
    - _DstBlend: 0
    - _EnvironmentReflections: 1
    - _GlossMapScale: 0
    - _Glossiness: 0
    - _GlossyReflections: 0
    - _LightCuts: 3
    - _LightModel: 1
    - _LightSmoothness: 0
    - _LightThreshold: 0.3
    - _LightType: 1
    - _MKEditorShowDetailBehavior: 0
    - _MKEditorShowDissolveBehavior: 0
    - _MKEditorShowLightBehavior: 0
    - _MKEditorShowMainBehavior: 1
    - _MKEditorShowOutlineBehavior: 0
    - _MKEditorShowReflectionBehavior: 0
    - _MKEditorShowRenderBehavior: 0
    - _MKEditorShowRimBehavior: 0
    - _MKEditorShowShadowBehavior: 0
    - _MKEditorShowSketchBehavior: 0
    - _MKEditorShowSpecularBehavior: 0
    - _MKEditorShowTranslucentBehavior: 0
    - _Metallic: 0
    - _Mode: 0
    - _OcclusionStrength: 1
    - _OutlineSize: 0.02
    - _QueueOffset: 0
    - _ReceiveShadows: 1
    - _ReflectIntensity: 0.5
    - _ReflectSmoothness: 0
    - _RimIntensity: 0.5
    - _RimSize: 1.5
    - _RimSmoothness: 0.5
    - _Roughness: 1
    - _Saturation: 1
    - _ShadowIntensity: 1
    - _Shininess: 0.275
    - _SketchScale: 16
    - _SketchToneMax: 1
    - _SketchToneMin: 0.5
    - _Smoothness: 0.5
    - _SmoothnessTextureChannel: 0
    - _SpecularHighlights: 1
    - _SpecularIntensity: 0.5
    - _SrcBlend: 1
    - _Surface: 0
    - _TranslucentIntensity: 0.5
    - _TranslucentShininess: 0.275
    - _UseAnisotropicSpecular: 0
    - _UseBumpMap: 0
    - _UseDissolve: 0
    - _UseOutline: 0
    - _UseReflection: 0
    - _UseRim: 0
    - _UseSketch: 0
    - _UseTranslucent: 0
    - _WorkflowMode: 1
    - _ZWrite: 1
    m_Colors:
    - Color_2684EBF: {r: 0.9132073, g: 1, b: 0, a: 1}
    - Color_28180829: {r: 0.8773585, g: 0.8773585, b: 0.8773585, a: 1}
    - Color_57D43A16: {r: 0.9528302, g: 0.9528302, b: 0.9528302, a: 0}
    - Color_F689E8B9: {r: 0.8679245, g: 0.8392666, b: 0.8392666, a: 1}
    - _BaseColor: {r: 1, g: 1, b: 1, a: 1}
    - _Color: {r: 1, g: 1, b: 1, a: 1}
    - _CoreColor1: {r: 1, g: 1, b: 1, a: 1}
    - _DetailColor: {r: 1, g: 1, b: 1, a: 1}
    - _DissolveColor: {r: 1, g: 1, b: 1, a: 0.5}
    - _EmissionColor: {r: 0, g: 0, b: 0, a: 1}
    - _HighlightColor: {r: 1, g: 1, b: 1, a: 1}
    - _OutlineColor: {r: 0, g: 0, b: 0, a: 1}
    - _OverlayMaskColor: {r: 0.9132073, g: 1, b: 0, a: 1}
    - _ReflectColor: {r: 1, g: 1, b: 1, a: 0.5}
    - _RimColor: {r: 1, g: 1, b: 1, a: 1}
    - _ShadowColor: {r: 0, g: 0, b: 0, a: 1}
    - _SpecColor: {r: 0.2, g: 0.2, b: 0.2, a: 1}
    - _TintColor: {r: 1, g: 1, b: 1, a: 1}
    - _TranslucentColor: {r: 1, g: 1, b: 1, a: 0.5}
