%YAML 1.1
%TAG !u! tag:unity3d.com,2011:
--- !u!114 &11400000
MonoBehaviour:
  m_ObjectHideFlags: 0
  m_CorrespondingSourceObject: {fileID: 0}
  m_PrefabInstance: {fileID: 0}
  m_PrefabAsset: {fileID: 0}
  m_GameObject: {fileID: 0}
  m_Enabled: 1
  m_EditorHideFlags: 0
  m_Script: {fileID: 11500000, guid: 95a53b5db8dafee4c8ce349b6cf93f3c, type: 3}
  m_Name: Narrative45
  m_EditorClassIdentifier: 
  questions:
  - question: Remote Trap
    answer1:
      correctness: 1
      itemName: Mousetrap
      itemSprite: {fileID: 21300000, guid: 2cbbbae56796f1141b99449aa241d4d4, type: 3}
    answer2:
      correctness: 0
      itemName: Cell Phone I
      itemSprite: {fileID: 21300000, guid: 0da5f468c665846a28089cce53e9ba8a, type: 3}
    answer3:
      correctness: -1
      itemName: 
      itemSprite: {fileID: 0}
  - question: Too crunchy!
    answer1:
      correctness: 0
      itemName: Crumpled up paper
      itemSprite: {fileID: 21300000, guid: 1f5bb5e4d618949cca3b9d0e6f181be5, type: 3}
    answer2:
      correctness: 1
      itemName: White pebbles
      itemSprite: {fileID: 21300000, guid: 102f00174e1c34411aada017548cdde8, type: 3}
    answer3:
      correctness: -1
      itemName: 
      itemSprite: {fileID: 0}
