%YAML 1.1
%TAG !u! tag:unity3d.com,2011:
--- !u!114 &11400000
MonoBehaviour:
  m_ObjectHideFlags: 0
  m_CorrespondingSourceObject: {fileID: 0}
  m_PrefabInstance: {fileID: 0}
  m_PrefabAsset: {fileID: 0}
  m_GameObject: {fileID: 0}
  m_Enabled: 1
  m_EditorHideFlags: 0
  m_Script: {fileID: 11500000, guid: 95a53b5db8dafee4c8ce349b6cf93f3c, type: 3}
  m_Name: Narrative8
  m_EditorClassIdentifier: 
  questions:
  - question: Shocking Entrance!
    answer1:
      correctness: 1
      itemName: Electrical wires
      itemSprite: {fileID: 21300000, guid: 1aa3ad9c4b06adf4fa9bdc443030b823, type: 3}
    answer2:
      correctness: 0
      itemName: ' Masking Tape roll'
      itemSprite: {fileID: 21300000, guid: 1d4bbb952908bcb4db1d354567b332c8, type: 3}
    answer3:
      correctness: -1
      itemName: 
      itemSprite: {fileID: 0}
  - question: Drop it like its hot!
    answer1:
      correctness: 1
      itemName: Burning Lighter
      itemSprite: {fileID: 21300000, guid: 0ba6f1e836e054948a3800d8457e0d08, type: 3}
    answer2:
      correctness: 0
      itemName: Chewing Gum Pack
      itemSprite: {fileID: 21300000, guid: 794b4546497cb3246b115785268ed753, type: 3}
    answer3:
      correctness: -1
      itemName: 
      itemSprite: {fileID: 0}
