%YAML 1.1
%TAG !u! tag:unity3d.com,2011:
--- !u!114 &11400000
MonoBehaviour:
  m_ObjectHideFlags: 0
  m_CorrespondingSourceObject: {fileID: 0}
  m_PrefabInstance: {fileID: 0}
  m_PrefabAsset: {fileID: 0}
  m_GameObject: {fileID: 0}
  m_Enabled: 1
  m_EditorHideFlags: 0
  m_Script: {fileID: 11500000, guid: 95a53b5db8dafee4c8ce349b6cf93f3c, type: 3}
  m_Name: Narrative17
  m_EditorClassIdentifier: 
  questions:
  - question: Can You Smell It?
    answer1:
      correctness: 1
      itemName: Fart Spray Bottle
      itemSprite: {fileID: 21300000, guid: 975c42318af111746b5a646b4de84425, type: 3}
    answer2:
      correctness: 0
      itemName: Water Bottle
      itemSprite: {fileID: 21300000, guid: 8a2a4450dd0cc084a9f5e1854a5fb413, type: 3}
    answer3:
      correctness: -1
      itemName: 
      itemSprite: {fileID: 0}
  - question: Turn Down For What?
    answer1:
      correctness: 1
      itemName: AC Remote
      itemSprite: {fileID: 21300000, guid: 3566a8f3cb80ac848ab3d0da409e5819, type: 3}
    answer2:
      correctness: 0
      itemName: Powder Can
      itemSprite: {fileID: 21300000, guid: 53d1ee3bcfba6e44cb2e17913c42e142, type: 3}
    answer3:
      correctness: -1
      itemName: 
      itemSprite: {fileID: 0}
