%YAML 1.1
%TAG !u! tag:unity3d.com,2011:
--- !u!114 &11400000
MonoBehaviour:
  m_ObjectHideFlags: 0
  m_CorrespondingSourceObject: {fileID: 0}
  m_PrefabInstance: {fileID: 0}
  m_PrefabAsset: {fileID: 0}
  m_GameObject: {fileID: 0}
  m_Enabled: 1
  m_EditorHideFlags: 0
  m_Script: {fileID: 11500000, guid: 95a53b5db8dafee4c8ce349b6cf93f3c, type: 3}
  m_Name: Narrative49
  m_EditorClassIdentifier: 
  questions:
  - question: Colorful wardrobe!
    answer1:
      correctness: 1
      itemName: Red sock
      itemSprite: {fileID: 21300000, guid: 1c48f7524253549799c53295e49c5a84, type: 3}
    answer2:
      correctness: 0
      itemName: Soap Bar
      itemSprite: {fileID: 21300000, guid: 228fd525a65f9461991c53b2141cc5fc, type: 3}
    answer3:
      correctness: -1
      itemName: 
      itemSprite: {fileID: 0}
  - question: Wardrobe malfunction
    answer1:
      correctness: 0
      itemName: Super glue tube
      itemSprite: {fileID: 21300000, guid: adbb9c92b4a3b4581a6fa5f31e6d1109, type: 3}
    answer2:
      correctness: 1
      itemName: Brick
      itemSprite: {fileID: 21300000, guid: 3b5d451a58a2e4127a0a5f5c35643678, type: 3}
    answer3:
      correctness: -1
      itemName: 
      itemSprite: {fileID: 0}
