%YAML 1.1
%TAG !u! tag:unity3d.com,2011:
--- !u!114 &11400000
MonoBehaviour:
  m_ObjectHideFlags: 0
  m_CorrespondingSourceObject: {fileID: 0}
  m_PrefabInstance: {fileID: 0}
  m_PrefabAsset: {fileID: 0}
  m_GameObject: {fileID: 0}
  m_Enabled: 1
  m_EditorHideFlags: 0
  m_Script: {fileID: 11500000, guid: 95a53b5db8dafee4c8ce349b6cf93f3c, type: 3}
  m_Name: Narrative5
  m_EditorClassIdentifier: 
  questions:
  - question: Human Fall Flat!
    answer1:
      correctness: 1
      itemName: Bind Shoelace
      itemSprite: {fileID: 21300000, guid: f4b7103f958794dbcb5e0b6569ce6c92, type: 3}
    answer2:
      correctness: 0
      itemName: Pour oil
      itemSprite: {fileID: 21300000, guid: 7f6d35bf1350d4ae4aa10d24a9080242, type: 3}
    answer3:
      correctness: -1
      itemName: 
      itemSprite: {fileID: 0}
  - question: Timber!!!
    answer1:
      correctness: 1
      itemName: Remove Hinge
      itemSprite: {fileID: 21300000, guid: 42272c841c7f2425289d10f0b66d394b, type: 3}
    answer2:
      correctness: 0
      itemName: Remove Door Knob
      itemSprite: {fileID: 21300000, guid: 7651ef460a9dd4e278f08a1c202853ea, type: 3}
    answer3:
      correctness: -1
      itemName: 
      itemSprite: {fileID: 0}
