%YAML 1.1
%TAG !u! tag:unity3d.com,2011:
--- !u!114 &11400000
MonoBehaviour:
  m_ObjectHideFlags: 0
  m_CorrespondingSourceObject: {fileID: 0}
  m_PrefabInstance: {fileID: 0}
  m_PrefabAsset: {fileID: 0}
  m_GameObject: {fileID: 0}
  m_Enabled: 1
  m_EditorHideFlags: 0
  m_Script: {fileID: 11500000, guid: 95a53b5db8dafee4c8ce349b6cf93f3c, type: 3}
  m_Name: Narrative31
  m_EditorClassIdentifier: 
  questions:
  - question: Scared Stiff!
    answer1:
      correctness: 0
      itemName: Glue
      itemSprite: {fileID: 21300000, guid: 6810b890edc9a44daa9dea6276e7be5f, type: 3}
    answer2:
      correctness: 1
      itemName: Ghost on a Sting
      itemSprite: {fileID: 21300000, guid: 2b31cd11074004be1928ad27786a1fed, type: 3}
    answer3:
      correctness: -1
      itemName: 
      itemSprite: {fileID: 0}
  - question: Cat-astrophe!
    answer1:
      correctness: 0
      itemName: Air Horn
      itemSprite: {fileID: 21300000, guid: 9292f0244bfce4a33bfe58e63e13a40e, type: 3}
    answer2:
      correctness: 1
      itemName: Red Water Balloon
      itemSprite: {fileID: 21300000, guid: b8c78f308217b4c3ab27c9b497ef8ad7, type: 3}
    answer3:
      correctness: -1
      itemName: 
      itemSprite: {fileID: 0}
