%YAML 1.1
%TAG !u! tag:unity3d.com,2011:
--- !u!114 &11400000
MonoBehaviour:
  m_ObjectHideFlags: 0
  m_CorrespondingSourceObject: {fileID: 0}
  m_PrefabInstance: {fileID: 0}
  m_PrefabAsset: {fileID: 0}
  m_GameObject: {fileID: 0}
  m_Enabled: 1
  m_EditorHideFlags: 0
  m_Script: {fileID: 11500000, guid: 95a53b5db8dafee4c8ce349b6cf93f3c, type: 3}
  m_Name: Narrative53
  m_EditorClassIdentifier: 
  questions:
  - question: Slip n Slide!
    answer1:
      correctness: 1
      itemName: 
      itemSprite: {fileID: 21300000, guid: 9adb1ca33fd1a0c458cce5fa5fa1a7c6, type: 3}
    answer2:
      correctness: 0
      itemName: 
      itemSprite: {fileID: 21300000, guid: 31250d5d426a78848b734193157bab25, type: 3}
    answer3:
      correctness: -1
      itemName: 
      itemSprite: {fileID: 0}
  - question: Sky's the limit
    answer1:
      correctness: 0
      itemName: 
      itemSprite: {fileID: 21300000, guid: 5ed85f2037ff7724ea4c90d345de9c1c, type: 3}
    answer2:
      correctness: 1
      itemName: 
      itemSprite: {fileID: 21300000, guid: 06b21496ec830f84ebb265f9eedd619f, type: 3}
    answer3:
      correctness: -1
      itemName: 
      itemSprite: {fileID: 0}
