%YAML 1.1
%TAG !u! tag:unity3d.com,2011:
--- !u!114 &11400000
MonoBehaviour:
  m_ObjectHideFlags: 0
  m_CorrespondingSourceObject: {fileID: 0}
  m_PrefabInstance: {fileID: 0}
  m_PrefabAsset: {fileID: 0}
  m_GameObject: {fileID: 0}
  m_Enabled: 1
  m_EditorHideFlags: 0
  m_Script: {fileID: 11500000, guid: 95a53b5db8dafee4c8ce349b6cf93f3c, type: 3}
  m_Name: Narrative33
  m_EditorClassIdentifier: 
  questions:
  - question: Hell's Kitchen!
    answer1:
      correctness: 1
      itemName: Pin
      itemSprite: {fileID: 21300000, guid: 7087c9ab6c1fe471182923e4bb95a267, type: 3}
    answer2:
      correctness: 0
      itemName: Water bottle
      itemSprite: {fileID: 21300000, guid: 300f11aab142f41d08fc8b7ac304c800, type: 3}
    answer3:
      correctness: -1
      itemName: 
      itemSprite: {fileID: 0}
  - question: Burn Baby Burn!
    answer1:
      correctness: 0
      itemName: Wine Bottle cork
      itemSprite: {fileID: 21300000, guid: 82d89d16dcd1a45308c4c9c72e3eda3c, type: 3}
    answer2:
      correctness: 1
      itemName: Aerosol Can
      itemSprite: {fileID: 21300000, guid: 1607b6b63baf54090a85749959521958, type: 3}
    answer3:
      correctness: -1
      itemName: 
      itemSprite: {fileID: 0}
