%YAML 1.1
%TAG !u! tag:unity3d.com,2011:
--- !u!114 &11400000
MonoBehaviour:
  m_ObjectHideFlags: 0
  m_CorrespondingSourceObject: {fileID: 0}
  m_PrefabInstance: {fileID: 0}
  m_PrefabAsset: {fileID: 0}
  m_GameObject: {fileID: 0}
  m_Enabled: 1
  m_EditorHideFlags: 0
  m_Script: {fileID: 11500000, guid: 95a53b5db8dafee4c8ce349b6cf93f3c, type: 3}
  m_Name: Narrative14
  m_EditorClassIdentifier: 
  questions:
  - question: Boom Baby!
    answer1:
      correctness: 1
      itemName: Bomb
      itemSprite: {fileID: 21300000, guid: 1a5a851cbc8f844a7a21cbfd03eb7c2e, type: 3}
    answer2:
      correctness: 0
      itemName: Water Balloon
      itemSprite: {fileID: 21300000, guid: 95be4f9aa2a844117a753bad1663df20, type: 3}
    answer3:
      correctness: -1
      itemName: 
      itemSprite: {fileID: 0}
  - question: Splash!
    answer1:
      correctness: 1
      itemName: Wrench
      itemSprite: {fileID: 21300000, guid: 6609dc673246343368f09f09004eec17, type: 3}
    answer2:
      correctness: 0
      itemName: Hammer
      itemSprite: {fileID: 21300000, guid: 7651ef460a9dd4e278f08a1c202853ea, type: 3}
    answer3:
      correctness: 2
      itemName: 
      itemSprite: {fileID: 21300000, guid: a4771e6ca30384142bbb0837dd49902d, type: 3}
