%YAML 1.1
%TAG !u! tag:unity3d.com,2011:
--- !u!114 &11400000
MonoBehaviour:
  m_ObjectHideFlags: 0
  m_CorrespondingSourceObject: {fileID: 0}
  m_PrefabInstance: {fileID: 0}
  m_PrefabAsset: {fileID: 0}
  m_GameObject: {fileID: 0}
  m_Enabled: 1
  m_EditorHideFlags: 0
  m_Script: {fileID: 11500000, guid: 95a53b5db8dafee4c8ce349b6cf93f3c, type: 3}
  m_Name: Narrative38
  m_EditorClassIdentifier: 
  questions:
  - question: Pasta Bath
    answer1:
      correctness: 1
      itemName: Screwdriver
      itemSprite: {fileID: 21300000, guid: 39030800b7167f24588334a19de7e7fa, type: 3}
    answer2:
      correctness: 0
      itemName: Lighter
      itemSprite: {fileID: 21300000, guid: c7060f22713d0b6489d37a9cfbe69e5f, type: 3}
    answer3:
      correctness: -1
      itemName: 
      itemSprite: {fileID: 0}
  - question: Sticky mess
    answer1:
      correctness: 0
      itemName: Color tube
      itemSprite: {fileID: 21300000, guid: f30cbd467ac38974f92cab489cf4d278, type: 3}
    answer2:
      correctness: 1
      itemName: Super glue
      itemSprite: {fileID: 21300000, guid: 157e108800aaee24fb08227c4e18fb81, type: 3}
    answer3:
      correctness: -1
      itemName: 
      itemSprite: {fileID: 0}
