%YAML 1.1
%TAG !u! tag:unity3d.com,2011:
--- !u!114 &11400000
MonoBehaviour:
  m_ObjectHideFlags: 0
  m_CorrespondingSourceObject: {fileID: 0}
  m_PrefabInstance: {fileID: 0}
  m_PrefabAsset: {fileID: 0}
  m_GameObject: {fileID: 0}
  m_Enabled: 1
  m_EditorHideFlags: 0
  m_Script: {fileID: 11500000, guid: 95a53b5db8dafee4c8ce349b6cf93f3c, type: 3}
  m_Name: Narrative1025
  m_EditorClassIdentifier: 
  questions:
  - question: "We didn\u2019t start the fire!"
    answer1:
      correctness: 1
      itemName: 
      itemSprite: {fileID: 21300000, guid: 7c1a6a7e5aa187d40a155c72b60a7c69, type: 3}
      platformFilter: 0
    answer2:
      correctness: 0
      itemName: 
      itemSprite: {fileID: 21300000, guid: 09c4808386cf73f43a5f2fface04cc36, type: 3}
      platformFilter: 0
    answer3:
      correctness: -1
      itemName: 
      itemSprite: {fileID: 0}
      platformFilter: 0
  - question: Flaming Grills!
    answer1:
      correctness: 1
      itemName: 
      itemSprite: {fileID: 21300000, guid: 48cb70ed82056834484233d359ecbf0c, type: 3}
      platformFilter: 0
    answer2:
      correctness: 0
      itemName: 
      itemSprite: {fileID: 21300000, guid: a02954f3d6185a9458b325a75e8dce11, type: 3}
      platformFilter: 0
    answer3:
      correctness: -1
      itemName: 
      itemSprite: {fileID: 0}
      platformFilter: 0
