%YAML 1.1
%TAG !u! tag:unity3d.com,2011:
--- !u!114 &11400000
MonoBehaviour:
  m_ObjectHideFlags: 0
  m_CorrespondingSourceObject: {fileID: 0}
  m_PrefabInstance: {fileID: 0}
  m_PrefabAsset: {fileID: 0}
  m_GameObject: {fileID: 0}
  m_Enabled: 1
  m_EditorHideFlags: 0
  m_Script: {fileID: 11500000, guid: 95a53b5db8dafee4c8ce349b6cf93f3c, type: 3}
  m_Name: Narrative9
  m_EditorClassIdentifier: 
  questions:
  - question: Color Your Life!
    answer1:
      correctness: 1
      itemName: Color Bucket
      itemSprite: {fileID: 21300000, guid: 09a1db053f9c844028f78058c933b856, type: 3}
    answer2:
      correctness: 0
      itemName: Confetti Streamers
      itemSprite: {fileID: 21300000, guid: 9230ae60fb1684c8b9d012c342b7d1cf, type: 3}
    answer3:
      correctness: -1
      itemName: 
      itemSprite: {fileID: 0}
  - question: Lean On!
    answer1:
      correctness: 1
      itemName: Loosen It Up
      itemSprite: {fileID: 21300000, guid: fc304ac10f7954eb0bd3e6208b0301e0, type: 3}
    answer2:
      correctness: 0
      itemName: Water boarding
      itemSprite: {fileID: 21300000, guid: 535dcb92abf4b4f5496f8c5dd4583822, type: 3}
    answer3:
      correctness: -1
      itemName: 
      itemSprite: {fileID: 0}
