%YAML 1.1
%TAG !u! tag:unity3d.com,2011:
--- !u!114 &11400000
MonoBehaviour:
  m_ObjectHideFlags: 0
  m_CorrespondingSourceObject: {fileID: 0}
  m_PrefabInstance: {fileID: 0}
  m_PrefabAsset: {fileID: 0}
  m_GameObject: {fileID: 0}
  m_Enabled: 1
  m_EditorHideFlags: 0
  m_Script: {fileID: 11500000, guid: 95a53b5db8dafee4c8ce349b6cf93f3c, type: 3}
  m_Name: Narrative39
  m_EditorClassIdentifier: 
  questions:
  - question: A penny for your thoughts!
    answer1:
      correctness: 0
      itemName: Scary bug
      itemSprite: {fileID: 21300000, guid: 1d2ad0006f805934ba8b50caa59f3c2c, type: 3}
    answer2:
      correctness: 1
      itemName: Super glue
      itemSprite: {fileID: 21300000, guid: 331974fd926d1b8468e380bd5fcfc83f, type: 3}
    answer3:
      correctness: -1
      itemName: 
      itemSprite: {fileID: 0}
  - question: Super Soaker
    answer1:
      correctness: 0
      itemName: Pin
      itemSprite: {fileID: 21300000, guid: d614e205d3853e04d852fc0b6b2a6bfa, type: 3}
    answer2:
      correctness: 1
      itemName: Cork
      itemSprite: {fileID: 21300000, guid: a271eb34c9f5ca74783f6b96cd1b79c5, type: 3}
    answer3:
      correctness: -1
      itemName: 
      itemSprite: {fileID: 0}
