%YAML 1.1
%TAG !u! tag:unity3d.com,2011:
--- !u!114 &11400000
MonoBehaviour:
  m_ObjectHideFlags: 0
  m_CorrespondingSourceObject: {fileID: 0}
  m_PrefabInstance: {fileID: 0}
  m_PrefabAsset: {fileID: 0}
  m_GameObject: {fileID: 0}
  m_Enabled: 1
  m_EditorHideFlags: 0
  m_Script: {fileID: 11500000, guid: 95a53b5db8dafee4c8ce349b6cf93f3c, type: 3}
  m_Name: Narrative4
  m_EditorClassIdentifier: 
  questions:
  - question: Slip n Slide
    answer1:
      correctness: 1
      itemName: Mobil can
      itemSprite: {fileID: 21300000, guid: b271d779abc7c1d4fabf1d5b9a385168, type: 3}
    answer2:
      correctness: 0
      itemName: Airhorn
      itemSprite: {fileID: 21300000, guid: 98fdee48d51975a42b680ecc34cb6abd, type: 3}
    answer3:
      correctness: -1
      itemName: 
      itemSprite: {fileID: 0}
  - question: Create a coffee fountain!
    answer1:
      correctness: 0
      itemName: Salt Cube
      itemSprite: {fileID: 21300000, guid: 43efe9beb880680499ec36010cb2b627, type: 3}
    answer2:
      correctness: 1
      itemName: Dry Ice Cube
      itemSprite: {fileID: 21300000, guid: 80d4522ce5afb9c4d8d878ffbd84f0bf, type: 3}
    answer3:
      correctness: -1
      itemName: 
      itemSprite: {fileID: 0}
