%YAML 1.1
%TAG !u! tag:unity3d.com,2011:
--- !u!114 &11400000
MonoBehaviour:
  m_ObjectHideFlags: 0
  m_CorrespondingSourceObject: {fileID: 0}
  m_PrefabInstance: {fileID: 0}
  m_PrefabAsset: {fileID: 0}
  m_GameObject: {fileID: 0}
  m_Enabled: 1
  m_EditorHideFlags: 0
  m_Script: {fileID: 11500000, guid: 95a53b5db8dafee4c8ce349b6cf93f3c, type: 3}
  m_Name: Narrative10
  m_EditorClassIdentifier: 
  questions:
  - question: Wrong Mouse!
    answer1:
      correctness: 1
      itemName: Mousetrap
      itemSprite: {fileID: 21300000, guid: 2cbbbae56796f1141b99449aa241d4d4, type: 3}
    answer2:
      correctness: 0
      itemName: Scissor
      itemSprite: {fileID: 21300000, guid: ae49e6cd94730db4f97f2a1bd17b0edc, type: 3}
    answer3:
      correctness: -1
      itemName: 
      itemSprite: {fileID: 0}
  - question: Cracking Courage
    answer1:
      correctness: 1
      itemName: HorrorFace
      itemSprite: {fileID: 21300000, guid: 17172e0c998eaeb47a0f56651d5152a0, type: 3}
    answer2:
      correctness: 0
      itemName: CrackedMonitor
      itemSprite: {fileID: 21300000, guid: 7eda17b220602f640ac81de5269a9d30, type: 3}
    answer3:
      correctness: -1
      itemName: 
      itemSprite: {fileID: 0}
