%YAML 1.1
%TAG !u! tag:unity3d.com,2011:
--- !u!114 &11400000
MonoBehaviour:
  m_ObjectHideFlags: 0
  m_CorrespondingSourceObject: {fileID: 0}
  m_PrefabInstance: {fileID: 0}
  m_PrefabAsset: {fileID: 0}
  m_GameObject: {fileID: 0}
  m_Enabled: 1
  m_EditorHideFlags: 0
  m_Script: {fileID: 11500000, guid: 95a53b5db8dafee4c8ce349b6cf93f3c, type: 3}
  m_Name: Narrative58
  m_EditorClassIdentifier: 
  questions:
  - question: Spiraling Down!
    answer1:
      correctness: 1
      itemName: Screwdriver
      itemSprite: {fileID: 21300000, guid: 0eeacf14ad324684d92513cd96e91a68, type: 3}
    answer2:
      correctness: 0
      itemName: Oil bottle
      itemSprite: {fileID: 21300000, guid: 738224b63402b94448ee47f173233992, type: 3}
    answer3:
      correctness: -1
      itemName: 
      itemSprite: {fileID: 0}
  - question: Cool Spinning!
    answer1:
      correctness: 1
      itemName: Rocket
      itemSprite: {fileID: 21300000, guid: c3b55c3abc4fb2d4b974606d917fcab3, type: 3}
    answer2:
      correctness: 0
      itemName: Screwdriver
      itemSprite: {fileID: 21300000, guid: 0eeacf14ad324684d92513cd96e91a68, type: 3}
    answer3:
      correctness: -1
      itemName: 
      itemSprite: {fileID: 0}
